%!PS-Adobe-3.0 EPSF-3.0
%%Creator: (MATLAB, The Mathworks, Inc. Version 9.0.0.341360 \(R2016a\). Operating System: Linux)
%%Title: /home/idzard/Documents/git/rts2/RTS2_Report/images/8comp2freqs.eps
%%CreationDate: 2016-07-01T16:49:12
%%Pages: (atend)
%%BoundingBox: 0 0 1025 495
%%LanguageLevel: 3
%%EndComments
%%BeginProlog
%%BeginResource: procset (Apache XML Graphics Std ProcSet) 1.2 0
%%Version: 1.2 0
%%Copyright: (Copyright 2001-2003,2010 The Apache Software Foundation. License terms: http://www.apache.org/licenses/LICENSE-2.0)
/bd{bind def}bind def
/ld{load def}bd
/GR/grestore ld
/M/moveto ld
/LJ/setlinejoin ld
/C/curveto ld
/f/fill ld
/LW/setlinewidth ld
/GC/setgray ld
/t/show ld
/N/newpath ld
/CT/concat ld
/cp/closepath ld
/S/stroke ld
/L/lineto ld
/CC/setcmykcolor ld
/A/ashow ld
/GS/gsave ld
/RC/setrgbcolor ld
/RM/rmoveto ld
/ML/setmiterlimit ld
/re {4 2 roll M
1 index 0 rlineto
0 exch rlineto
neg 0 rlineto
cp } bd
/_ctm matrix def
/_tm matrix def
/BT { _ctm currentmatrix pop matrix _tm copy pop 0 0 moveto } bd
/ET { _ctm setmatrix } bd
/iTm { _ctm setmatrix _tm concat } bd
/Tm { _tm astore pop iTm 0 0 moveto } bd
/ux 0.0 def
/uy 0.0 def
/F {
  /Tp exch def
  /Tf exch def
  Tf findfont Tp scalefont setfont
  /cf Tf def  /cs Tp def
} bd
/ULS {currentpoint /uy exch def /ux exch def} bd
/ULE {
  /Tcx currentpoint pop def
  gsave
  newpath
  cf findfont cs scalefont dup
  /FontMatrix get 0 get /Ts exch def /FontInfo get dup
  /UnderlinePosition get Ts mul /To exch def
  /UnderlineThickness get Ts mul /Tt exch def
  ux uy To add moveto  Tcx uy To add lineto
  Tt setlinewidth stroke
  grestore
} bd
/OLE {
  /Tcx currentpoint pop def
  gsave
  newpath
  cf findfont cs scalefont dup
  /FontMatrix get 0 get /Ts exch def /FontInfo get dup
  /UnderlinePosition get Ts mul /To exch def
  /UnderlineThickness get Ts mul /Tt exch def
  ux uy To add cs add moveto Tcx uy To add cs add lineto
  Tt setlinewidth stroke
  grestore
} bd
/SOE {
  /Tcx currentpoint pop def
  gsave
  newpath
  cf findfont cs scalefont dup
  /FontMatrix get 0 get /Ts exch def /FontInfo get dup
  /UnderlinePosition get Ts mul /To exch def
  /UnderlineThickness get Ts mul /Tt exch def
  ux uy To add cs 10 mul 26 idiv add moveto Tcx uy To add cs 10 mul 26 idiv add lineto
  Tt setlinewidth stroke
  grestore
} bd
/QT {
/Y22 exch store
/X22 exch store
/Y21 exch store
/X21 exch store
currentpoint
/Y21 load 2 mul add 3 div exch
/X21 load 2 mul add 3 div exch
/X21 load 2 mul /X22 load add 3 div
/Y21 load 2 mul /Y22 load add 3 div
/X22 load /Y22 load curveto
} bd
/SSPD {
dup length /d exch dict def
{
/v exch def
/k exch def
currentpagedevice k known {
/cpdv currentpagedevice k get def
v cpdv ne {
/upd false def
/nullv v type /nulltype eq def
/nullcpdv cpdv type /nulltype eq def
nullv nullcpdv or
{
/upd true def
} {
/sametype v type cpdv type eq def
sametype {
v type /arraytype eq {
/vlen v length def
/cpdvlen cpdv length def
vlen cpdvlen eq {
0 1 vlen 1 sub {
/i exch def
/obj v i get def
/cpdobj cpdv i get def
obj cpdobj ne {
/upd true def
exit
} if
} for
} {
/upd true def
} ifelse
} {
v type /dicttype eq {
v {
/dv exch def
/dk exch def
/cpddv cpdv dk get def
dv cpddv ne {
/upd true def
exit
} if
} forall
} {
/upd true def
} ifelse
} ifelse
} if
} ifelse
upd true eq {
d k v put
} if
} if
} if
} forall
d length 0 gt {
d setpagedevice
} if
} bd
%%EndResource
%%BeginResource: procset (Apache XML Graphics EPS ProcSet) 1.0 0
%%Version: 1.0 0
%%Copyright: (Copyright 2002-2003 The Apache Software Foundation. License terms: http://www.apache.org/licenses/LICENSE-2.0)
/BeginEPSF { %def
/b4_Inc_state save def         % Save state for cleanup
/dict_count countdictstack def % Count objects on dict stack
/op_count count 1 sub def      % Count objects on operand stack
userdict begin                 % Push userdict on dict stack
/showpage { } def              % Redefine showpage, { } = null proc
0 setgray 0 setlinecap         % Prepare graphics state
1 setlinewidth 0 setlinejoin
10 setmiterlimit [ ] 0 setdash newpath
/languagelevel where           % If level not equal to 1 then
{pop languagelevel             % set strokeadjust and
1 ne                           % overprint to their defaults.
{false setstrokeadjust false setoverprint
} if
} if
} bd
/EndEPSF { %def
count op_count sub {pop} repeat            % Clean up stacks
countdictstack dict_count sub {end} repeat
b4_Inc_state restore
} bd
%%EndResource
%FOPBeginFontDict
%%IncludeResource: font Courier-Bold
%%IncludeResource: font Helvetica
%%IncludeResource: font Courier-BoldOblique
%%IncludeResource: font Courier-Oblique
%%IncludeResource: font Times-Roman
%%IncludeResource: font Helvetica-BoldOblique
%%IncludeResource: font Helvetica-Bold
%%IncludeResource: font Helvetica-Oblique
%%IncludeResource: font Times-BoldItalic
%%IncludeResource: font Courier
%%IncludeResource: font Times-Italic
%%IncludeResource: font Times-Bold
%%IncludeResource: font Symbol
%%IncludeResource: font ZapfDingbats
%FOPEndFontDict
%%BeginResource: encoding WinAnsiEncoding
/WinAnsiEncoding [
/.notdef /.notdef /.notdef /.notdef /.notdef
/.notdef /.notdef /.notdef /.notdef /.notdef
/.notdef /.notdef /.notdef /.notdef /.notdef
/.notdef /.notdef /.notdef /.notdef /.notdef
/.notdef /.notdef /.notdef /.notdef /.notdef
/.notdef /.notdef /.notdef /.notdef /.notdef
/.notdef /.notdef /space /exclam /quotedbl
/numbersign /dollar /percent /ampersand /quotesingle
/parenleft /parenright /asterisk /plus /comma
/hyphen /period /slash /zero /one
/two /three /four /five /six
/seven /eight /nine /colon /semicolon
/less /equal /greater /question /at
/A /B /C /D /E
/F /G /H /I /J
/K /L /M /N /O
/P /Q /R /S /T
/U /V /W /X /Y
/Z /bracketleft /backslash /bracketright /asciicircum
/underscore /quoteleft /a /b /c
/d /e /f /g /h
/i /j /k /l /m
/n /o /p /q /r
/s /t /u /v /w
/x /y /z /braceleft /bar
/braceright /asciitilde /bullet /Euro /bullet
/quotesinglbase /florin /quotedblbase /ellipsis /dagger
/daggerdbl /circumflex /perthousand /Scaron /guilsinglleft
/OE /bullet /Zcaron /bullet /bullet
/quoteleft /quoteright /quotedblleft /quotedblright /bullet
/endash /emdash /asciitilde /trademark /scaron
/guilsinglright /oe /bullet /zcaron /Ydieresis
/space /exclamdown /cent /sterling /currency
/yen /brokenbar /section /dieresis /copyright
/ordfeminine /guillemotleft /logicalnot /sfthyphen /registered
/macron /degree /plusminus /twosuperior /threesuperior
/acute /mu /paragraph /middot /cedilla
/onesuperior /ordmasculine /guillemotright /onequarter /onehalf
/threequarters /questiondown /Agrave /Aacute /Acircumflex
/Atilde /Adieresis /Aring /AE /Ccedilla
/Egrave /Eacute /Ecircumflex /Edieresis /Igrave
/Iacute /Icircumflex /Idieresis /Eth /Ntilde
/Ograve /Oacute /Ocircumflex /Otilde /Odieresis
/multiply /Oslash /Ugrave /Uacute /Ucircumflex
/Udieresis /Yacute /Thorn /germandbls /agrave
/aacute /acircumflex /atilde /adieresis /aring
/ae /ccedilla /egrave /eacute /ecircumflex
/edieresis /igrave /iacute /icircumflex /idieresis
/eth /ntilde /ograve /oacute /ocircumflex
/otilde /odieresis /divide /oslash /ugrave
/uacute /ucircumflex /udieresis /yacute /thorn
/ydieresis
] def
%%EndResource
%FOPBeginFontReencode
/Courier-Bold findfont
dup length dict begin
  {1 index /FID ne {def} {pop pop} ifelse} forall
  /Encoding WinAnsiEncoding def
  currentdict
end
/Courier-Bold exch definefont pop
/Helvetica findfont
dup length dict begin
  {1 index /FID ne {def} {pop pop} ifelse} forall
  /Encoding WinAnsiEncoding def
  currentdict
end
/Helvetica exch definefont pop
/Courier-BoldOblique findfont
dup length dict begin
  {1 index /FID ne {def} {pop pop} ifelse} forall
  /Encoding WinAnsiEncoding def
  currentdict
end
/Courier-BoldOblique exch definefont pop
/Courier-Oblique findfont
dup length dict begin
  {1 index /FID ne {def} {pop pop} ifelse} forall
  /Encoding WinAnsiEncoding def
  currentdict
end
/Courier-Oblique exch definefont pop
/Times-Roman findfont
dup length dict begin
  {1 index /FID ne {def} {pop pop} ifelse} forall
  /Encoding WinAnsiEncoding def
  currentdict
end
/Times-Roman exch definefont pop
/Helvetica-BoldOblique findfont
dup length dict begin
  {1 index /FID ne {def} {pop pop} ifelse} forall
  /Encoding WinAnsiEncoding def
  currentdict
end
/Helvetica-BoldOblique exch definefont pop
/Helvetica-Bold findfont
dup length dict begin
  {1 index /FID ne {def} {pop pop} ifelse} forall
  /Encoding WinAnsiEncoding def
  currentdict
end
/Helvetica-Bold exch definefont pop
/Helvetica-Oblique findfont
dup length dict begin
  {1 index /FID ne {def} {pop pop} ifelse} forall
  /Encoding WinAnsiEncoding def
  currentdict
end
/Helvetica-Oblique exch definefont pop
/Times-BoldItalic findfont
dup length dict begin
  {1 index /FID ne {def} {pop pop} ifelse} forall
  /Encoding WinAnsiEncoding def
  currentdict
end
/Times-BoldItalic exch definefont pop
/Courier findfont
dup length dict begin
  {1 index /FID ne {def} {pop pop} ifelse} forall
  /Encoding WinAnsiEncoding def
  currentdict
end
/Courier exch definefont pop
/Times-Italic findfont
dup length dict begin
  {1 index /FID ne {def} {pop pop} ifelse} forall
  /Encoding WinAnsiEncoding def
  currentdict
end
/Times-Italic exch definefont pop
/Times-Bold findfont
dup length dict begin
  {1 index /FID ne {def} {pop pop} ifelse} forall
  /Encoding WinAnsiEncoding def
  currentdict
end
/Times-Bold exch definefont pop
%FOPEndFontReencode
%%EndProlog
%%Page: 1 1
%%PageBoundingBox: 0 0 1025 495
%%BeginPageSetup
[1 0 0 -1 0 495] CT
%%EndPageSetup
GS
[0.75 0 0 0.75 0 0] CT
1 GC
N
0 0 1366 660 re
f
GR
GS
[0.75 0 0 0.75 0 0] CT
1 GC
N
0 0 1366 660 re
f
GR
GS
[0.75 0 0 0.75 0 0] CT
1 GC
N
178 154 M
635 154 L
635 57 L
178 57 L
cp
f
GR
GS
[0.75 0 0 0.75 0 0] CT
0.149 GC
2 setlinecap
1 LJ
0.667 LW
N
178 154 M
635 154 L
S
GR
GS
[0.75 0 0 0.75 0 0] CT
0.149 GC
2 setlinecap
1 LJ
0.667 LW
N
178 57 M
635 57 L
S
GR
GS
[0.75 0 0 0.75 0 0] CT
0.149 GC
2 setlinecap
1 LJ
0.667 LW
N
210.643 154 M
210.643 149.43 L
S
GR
GS
[0.75 0 0 0.75 0 0] CT
0.149 GC
2 setlinecap
1 LJ
0.667 LW
N
275.929 154 M
275.929 149.43 L
S
GR
GS
[0.75 0 0 0.75 0 0] CT
0.149 GC
2 setlinecap
1 LJ
0.667 LW
N
341.214 154 M
341.214 149.43 L
S
GR
GS
[0.75 0 0 0.75 0 0] CT
0.149 GC
2 setlinecap
1 LJ
0.667 LW
N
406.5 154 M
406.5 149.43 L
S
GR
GS
[0.75 0 0 0.75 0 0] CT
0.149 GC
2 setlinecap
1 LJ
0.667 LW
N
471.786 154 M
471.786 149.43 L
S
GR
GS
[0.75 0 0 0.75 0 0] CT
0.149 GC
2 setlinecap
1 LJ
0.667 LW
N
537.071 154 M
537.071 149.43 L
S
GR
GS
[0.75 0 0 0.75 0 0] CT
0.149 GC
2 setlinecap
1 LJ
0.667 LW
N
602.357 154 M
602.357 149.43 L
S
GR
GS
[0.75 0 0 0.75 0 0] CT
0.149 GC
2 setlinecap
1 LJ
0.667 LW
N
210.643 57 M
210.643 61.57 L
S
GR
GS
[0.75 0 0 0.75 0 0] CT
0.149 GC
2 setlinecap
1 LJ
0.667 LW
N
275.929 57 M
275.929 61.57 L
S
GR
GS
[0.75 0 0 0.75 0 0] CT
0.149 GC
2 setlinecap
1 LJ
0.667 LW
N
341.214 57 M
341.214 61.57 L
S
GR
GS
[0.75 0 0 0.75 0 0] CT
0.149 GC
2 setlinecap
1 LJ
0.667 LW
N
406.5 57 M
406.5 61.57 L
S
GR
GS
[0.75 0 0 0.75 0 0] CT
0.149 GC
2 setlinecap
1 LJ
0.667 LW
N
471.786 57 M
471.786 61.57 L
S
GR
GS
[0.75 0 0 0.75 0 0] CT
0.149 GC
2 setlinecap
1 LJ
0.667 LW
N
537.071 57 M
537.071 61.57 L
S
GR
GS
[0.75 0 0 0.75 0 0] CT
0.149 GC
2 setlinecap
1 LJ
0.667 LW
N
602.357 57 M
602.357 61.57 L
S
GR
GS
[0.75 0 0 0.75 157.98214 119.5] CT
0.149 GC
/Helvetica 13.333 F
GS
[1 0 0 1 0 0] CT
-19 13 moveto 
1 -1 scale
(0.006) t 
GR
GR
GS
[0.75 0 0 0.75 206.94644 119.5] CT
0.149 GC
/Helvetica 13.333 F
GS
[1 0 0 1 0 0] CT
-19 13 moveto 
1 -1 scale
(0.008) t 
GR
GR
GS
[0.75 0 0 0.75 255.9107 119.5] CT
0.149 GC
/Helvetica 13.333 F
GS
[1 0 0 1 0 0] CT
-14.5 13 moveto 
1 -1 scale
(0.01) t 
GR
GR
GS
[0.75 0 0 0.75 304.875 119.5] CT
0.149 GC
/Helvetica 13.333 F
GS
[1 0 0 1 0 0] CT
-19 13 moveto 
1 -1 scale
(0.012) t 
GR
GR
GS
[0.75 0 0 0.75 353.8393 119.5] CT
0.149 GC
/Helvetica 13.333 F
GS
[1 0 0 1 0 0] CT
-19 13 moveto 
1 -1 scale
(0.014) t 
GR
GR
GS
[0.75 0 0 0.75 402.8036 119.5] CT
0.149 GC
/Helvetica 13.333 F
GS
[1 0 0 1 0 0] CT
-19 13 moveto 
1 -1 scale
(0.016) t 
GR
GR
GS
[0.75 0 0 0.75 451.76784 119.5] CT
0.149 GC
/Helvetica 13.333 F
GS
[1 0 0 1 0 0] CT
-19 13 moveto 
1 -1 scale
(0.018) t 
GR
GR
GS
[0.75 0 0 0.75 0 0] CT
0.149 GC
2 setlinecap
1 LJ
0.667 LW
N
178 154 M
178 57 L
S
GR
GS
[0.75 0 0 0.75 0 0] CT
0.149 GC
2 setlinecap
1 LJ
0.667 LW
N
635 154 M
635 57 L
S
GR
GS
[0.75 0 0 0.75 0 0] CT
0.149 GC
2 setlinecap
1 LJ
0.667 LW
N
178 154 M
182.57 154 L
S
GR
GS
[0.75 0 0 0.75 0 0] CT
0.149 GC
2 setlinecap
1 LJ
0.667 LW
N
178 105.5 M
182.57 105.5 L
S
GR
GS
[0.75 0 0 0.75 0 0] CT
0.149 GC
2 setlinecap
1 LJ
0.667 LW
N
178 57 M
182.57 57 L
S
GR
GS
[0.75 0 0 0.75 0 0] CT
0.149 GC
2 setlinecap
1 LJ
0.667 LW
N
635 154 M
630.43 154 L
S
GR
GS
[0.75 0 0 0.75 0 0] CT
0.149 GC
2 setlinecap
1 LJ
0.667 LW
N
635 105.5 M
630.43 105.5 L
S
GR
GS
[0.75 0 0 0.75 0 0] CT
0.149 GC
2 setlinecap
1 LJ
0.667 LW
N
635 57 M
630.43 57 L
S
GR
GS
[0.75 0 0 0.75 129.5 115.5] CT
0.149 GC
/Helvetica 13.333 F
GS
[1 0 0 1 0 0] CT
-13 4.5 moveto 
1 -1 scale
(-1) t 
GR
GR
GS
[0.75 0 0 0.75 129.5 79.125] CT
0.149 GC
/Helvetica 13.333 F
GS
[1 0 0 1 0 0] CT
-9 4.5 moveto 
1 -1 scale
(0) t 
GR
GR
GS
[0.75 0 0 0.75 129.5 42.75] CT
0.149 GC
/Helvetica 13.333 F
GS
[1 0 0 1 0 0] CT
-9 4.5 moveto 
1 -1 scale
(1) t 
GR
GR
GS
[0.75 0 0 0.75 304.87527 40.6875] CT
/Helvetica-Bold 14.667 F
GS
[1 0 0 1 0 0] CT
-5.5 -4 moveto 
1 -1 scale
(1) t 
GR
GR
GS
[0.75 0 0 0.75 0 0] CT
0 0.447 0.741 RC
1 LJ
0.667 LW
N
216.763 99.158 M
218.804 101.394 L
220.844 104.08 L
222.884 106.92 L
224.924 109.606 L
226.964 111.842 L
229.004 113.614 L
231.045 114.547 L
233.085 114.547 L
235.125 113.614 L
237.165 111.842 L
239.205 109.606 L
241.246 106.92 L
243.286 104.08 L
245.326 101.394 L
247.366 99.158 L
249.406 97.386 L
251.446 96.453 L
253.487 96.453 L
255.527 97.386 L
257.567 99.158 L
259.607 101.394 L
261.647 104.08 L
263.688 106.92 L
265.728 109.606 L
267.768 111.842 L
269.808 113.614 L
271.848 114.547 L
273.888 114.547 L
275.929 113.614 L
277.969 111.842 L
280.009 109.606 L
282.049 106.92 L
284.089 104.08 L
286.129 101.394 L
288.17 99.158 L
290.21 97.386 L
292.25 96.453 L
294.29 96.453 L
296.33 97.386 L
298.371 99.158 L
300.411 101.394 L
302.451 104.08 L
304.491 106.92 L
306.531 109.606 L
308.571 111.842 L
310.612 113.614 L
312.652 114.547 L
314.692 114.547 L
316.732 113.614 L
318.772 111.842 L
320.813 109.606 L
322.853 106.92 L
324.893 104.08 L
326.933 101.394 L
328.973 99.158 L
331.013 97.386 L
333.054 96.453 L
335.094 96.453 L
337.134 97.386 L
339.174 99.158 L
341.214 101.394 L
343.254 104.08 L
345.295 106.92 L
347.335 109.606 L
349.375 111.842 L
351.415 113.614 L
353.455 114.547 L
355.496 114.547 L
357.536 113.614 L
359.576 111.842 L
361.616 109.606 L
363.656 106.92 L
365.696 104.08 L
367.737 101.394 L
369.777 99.158 L
371.817 97.386 L
373.857 96.453 L
375.897 96.453 L
377.938 97.386 L
379.978 99.158 L
382.018 101.394 L
384.058 104.08 L
386.098 106.92 L
388.138 109.606 L
390.179 111.842 L
392.219 113.614 L
394.259 114.547 L
396.299 114.547 L
398.339 113.614 L
400.379 111.842 L
402.42 109.606 L
404.46 106.92 L
406.5 104.08 L
408.54 101.394 L
410.58 99.158 L
412.621 97.386 L
414.661 96.453 L
416.701 96.453 L
418.741 97.386 L
420.781 99.158 L
422.821 101.394 L
424.862 104.08 L
426.902 106.92 L
428.942 109.606 L
430.982 111.842 L
433.022 113.614 L
435.063 114.547 L
437.103 114.547 L
439.143 113.614 L
441.183 111.842 L
443.223 109.606 L
445.263 106.92 L
447.304 104.08 L
449.344 101.394 L
451.384 99.158 L
453.424 97.386 L
455.464 96.453 L
457.504 96.453 L
459.545 97.386 L
461.585 99.158 L
463.625 101.394 L
465.665 104.08 L
467.705 106.92 L
469.746 109.606 L
471.786 111.842 L
473.826 113.614 L
475.866 114.547 L
477.906 114.547 L
479.946 113.614 L
481.987 111.842 L
484.027 109.606 L
486.067 106.92 L
488.107 104.08 L
490.147 101.394 L
492.188 99.158 L
494.228 97.386 L
496.268 96.453 L
498.308 96.453 L
500.348 97.386 L
502.388 99.158 L
504.429 101.394 L
506.469 104.08 L
508.509 106.92 L
510.549 109.606 L
512.589 111.842 L
514.629 113.614 L
516.67 114.547 L
518.71 114.547 L
520.75 113.614 L
522.79 111.842 L
524.83 109.606 L
526.87 106.92 L
528.911 104.08 L
530.951 101.394 L
532.991 99.158 L
535.031 97.386 L
537.071 96.453 L
539.112 96.453 L
541.152 97.386 L
543.192 99.158 L
545.232 101.394 L
547.272 104.08 L
549.313 106.92 L
551.353 109.606 L
553.393 111.842 L
555.433 113.614 L
557.473 114.547 L
559.513 114.547 L
561.554 113.614 L
563.594 111.842 L
565.634 109.606 L
567.674 106.92 L
569.714 104.08 L
571.754 101.394 L
573.795 99.158 L
575.835 97.386 L
577.875 96.453 L
579.915 96.453 L
581.955 97.386 L
583.996 99.158 L
586.036 101.394 L
588.076 104.08 L
590.116 106.92 L
592.156 109.606 L
594.196 111.842 L
596.237 113.614 L
598.277 114.547 L
600.317 114.547 L
602.357 113.614 L
604.397 111.842 L
606.438 109.606 L
608.478 106.92 L
610.518 104.08 L
612.558 101.394 L
614.598 99.158 L
616.638 97.386 L
618.679 96.453 L
620.719 96.453 L
622.759 97.386 L
624.799 99.158 L
S
GR
GS
[0.75 0 0 0.75 0 0] CT
0.851 0.325 0.098 RC
1 LJ
0.667 LW
N
216.763 74.593 M
218.804 72.911 L
220.844 71.796 L
222.884 71.364 L
224.924 71.709 L
226.964 72.895 L
229.004 74.954 L
231.045 77.876 L
233.085 81.616 L
235.125 86.088 L
237.165 91.17 L
239.205 96.711 L
241.246 102.538 L
243.286 108.462 L
245.326 114.289 L
247.366 119.83 L
249.406 124.912 L
251.446 129.384 L
253.487 133.124 L
255.527 136.046 L
257.567 138.105 L
259.607 139.291 L
261.647 139.636 L
263.688 139.204 L
265.728 138.089 L
267.768 136.407 L
269.808 134.289 L
271.848 131.87 L
273.888 129.287 L
275.929 126.666 L
277.969 124.118 L
280.009 121.736 L
282.049 119.59 L
284.089 117.727 L
286.129 116.168 L
288.17 114.918 L
290.21 113.961 L
292.25 113.268 L
294.29 112.803 L
296.33 112.524 L
298.371 112.39 L
300.411 112.364 L
302.451 112.416 L
304.491 112.526 L
306.531 112.68 L
308.571 112.875 L
310.612 112.875 L
312.652 112.875 L
314.692 112.875 L
316.732 112.875 L
318.772 112.875 L
320.813 112.875 L
322.853 112.875 L
324.893 112.875 L
326.933 112.875 L
328.973 112.875 L
331.013 112.875 L
333.054 112.875 L
335.094 112.875 L
337.134 112.875 L
339.174 112.875 L
341.214 112.68 L
343.254 112.526 L
345.295 112.416 L
347.335 112.364 L
349.375 112.39 L
351.415 112.524 L
353.455 112.803 L
355.496 113.268 L
357.536 113.961 L
359.576 114.918 L
361.616 116.168 L
363.656 117.727 L
365.696 119.59 L
367.737 121.736 L
369.777 124.118 L
371.817 126.666 L
373.857 129.287 L
375.897 131.87 L
377.938 134.289 L
379.978 136.407 L
382.018 138.089 L
384.058 139.204 L
386.098 139.636 L
388.138 139.291 L
390.179 138.105 L
392.219 136.046 L
394.259 133.124 L
396.299 129.384 L
398.339 124.912 L
400.379 119.83 L
402.42 114.289 L
404.46 108.462 L
406.5 102.538 L
408.54 96.711 L
410.58 91.17 L
412.621 86.088 L
414.661 81.616 L
416.701 77.876 L
418.741 74.954 L
420.781 72.895 L
422.821 71.709 L
424.862 71.364 L
426.902 71.796 L
428.942 72.911 L
430.982 74.593 L
433.022 76.711 L
435.063 79.13 L
437.103 81.713 L
439.143 84.334 L
441.183 86.882 L
443.223 89.264 L
445.263 91.41 L
447.304 93.273 L
449.344 94.832 L
451.384 96.082 L
453.424 97.039 L
455.464 97.732 L
457.504 98.197 L
459.545 98.476 L
461.585 98.61 L
463.625 98.636 L
465.665 98.584 L
467.705 98.474 L
469.746 98.32 L
471.786 98.125 L
473.826 98.125 L
475.866 98.125 L
477.906 98.125 L
479.946 98.125 L
481.987 98.125 L
484.027 98.125 L
486.067 98.125 L
488.107 98.125 L
490.147 98.125 L
492.188 98.125 L
494.228 98.125 L
496.268 98.125 L
498.308 98.125 L
500.348 98.125 L
502.388 98.125 L
504.429 98.32 L
506.469 98.474 L
508.509 98.584 L
510.549 98.636 L
512.589 98.61 L
514.629 98.476 L
516.67 98.197 L
518.71 97.732 L
520.75 97.039 L
522.79 96.082 L
524.83 94.832 L
526.87 93.273 L
528.911 91.41 L
530.951 89.264 L
532.991 86.882 L
535.031 84.334 L
537.071 81.713 L
539.112 79.13 L
541.152 76.711 L
543.192 74.593 L
545.232 72.911 L
547.272 71.796 L
549.313 71.364 L
551.353 71.709 L
553.393 72.895 L
555.433 74.954 L
557.473 77.876 L
559.513 81.616 L
561.554 86.088 L
563.594 91.17 L
565.634 96.711 L
567.674 102.538 L
569.714 108.462 L
571.754 114.289 L
573.795 119.83 L
575.835 124.912 L
577.875 129.384 L
579.915 133.124 L
581.955 136.046 L
583.996 138.105 L
586.036 139.291 L
588.076 139.636 L
590.116 139.204 L
592.156 138.089 L
594.196 136.407 L
596.237 134.289 L
598.277 131.87 L
600.317 129.287 L
602.357 126.666 L
604.397 124.118 L
606.438 121.736 L
608.478 119.59 L
610.518 117.727 L
612.558 116.168 L
614.598 114.918 L
616.638 113.961 L
618.679 113.268 L
620.719 112.803 L
622.759 112.524 L
624.799 112.39 L
S
GR
GS
[0.75 0 0 0.75 0 0] CT
1 GC
N
779 154 M
1236 154 L
1236 57 L
779 57 L
cp
f
GR
GS
[0.75 0 0 0.75 0 0] CT
0.149 GC
2 setlinecap
1 LJ
0.667 LW
N
779 154 M
1236 154 L
S
GR
GS
[0.75 0 0 0.75 0 0] CT
0.149 GC
2 setlinecap
1 LJ
0.667 LW
N
779 57 M
1236 57 L
S
GR
GS
[0.75 0 0 0.75 0 0] CT
0.149 GC
2 setlinecap
1 LJ
0.667 LW
N
811.643 154 M
811.643 149.43 L
S
GR
GS
[0.75 0 0 0.75 0 0] CT
0.149 GC
2 setlinecap
1 LJ
0.667 LW
N
876.929 154 M
876.929 149.43 L
S
GR
GS
[0.75 0 0 0.75 0 0] CT
0.149 GC
2 setlinecap
1 LJ
0.667 LW
N
942.214 154 M
942.214 149.43 L
S
GR
GS
[0.75 0 0 0.75 0 0] CT
0.149 GC
2 setlinecap
1 LJ
0.667 LW
N
1007.5 154 M
1007.5 149.43 L
S
GR
GS
[0.75 0 0 0.75 0 0] CT
0.149 GC
2 setlinecap
1 LJ
0.667 LW
N
1072.786 154 M
1072.786 149.43 L
S
GR
GS
[0.75 0 0 0.75 0 0] CT
0.149 GC
2 setlinecap
1 LJ
0.667 LW
N
1138.071 154 M
1138.071 149.43 L
S
GR
GS
[0.75 0 0 0.75 0 0] CT
0.149 GC
2 setlinecap
1 LJ
0.667 LW
N
1203.357 154 M
1203.357 149.43 L
S
GR
GS
[0.75 0 0 0.75 0 0] CT
0.149 GC
2 setlinecap
1 LJ
0.667 LW
N
811.643 57 M
811.643 61.57 L
S
GR
GS
[0.75 0 0 0.75 0 0] CT
0.149 GC
2 setlinecap
1 LJ
0.667 LW
N
876.929 57 M
876.929 61.57 L
S
GR
GS
[0.75 0 0 0.75 0 0] CT
0.149 GC
2 setlinecap
1 LJ
0.667 LW
N
942.214 57 M
942.214 61.57 L
S
GR
GS
[0.75 0 0 0.75 0 0] CT
0.149 GC
2 setlinecap
1 LJ
0.667 LW
N
1007.5 57 M
1007.5 61.57 L
S
GR
GS
[0.75 0 0 0.75 0 0] CT
0.149 GC
2 setlinecap
1 LJ
0.667 LW
N
1072.786 57 M
1072.786 61.57 L
S
GR
GS
[0.75 0 0 0.75 0 0] CT
0.149 GC
2 setlinecap
1 LJ
0.667 LW
N
1138.071 57 M
1138.071 61.57 L
S
GR
GS
[0.75 0 0 0.75 0 0] CT
0.149 GC
2 setlinecap
1 LJ
0.667 LW
N
1203.357 57 M
1203.357 61.57 L
S
GR
GS
[0.75 0 0 0.75 608.73216 119.5] CT
0.149 GC
/Helvetica 13.333 F
GS
[1 0 0 1 0 0] CT
-19 13 moveto 
1 -1 scale
(0.006) t 
GR
GR
GS
[0.75 0 0 0.75 657.69644 119.5] CT
0.149 GC
/Helvetica 13.333 F
GS
[1 0 0 1 0 0] CT
-19 13 moveto 
1 -1 scale
(0.008) t 
GR
GR
GS
[0.75 0 0 0.75 706.66072 119.5] CT
0.149 GC
/Helvetica 13.333 F
GS
[1 0 0 1 0 0] CT
-14.5 13 moveto 
1 -1 scale
(0.01) t 
GR
GR
GS
[0.75 0 0 0.75 755.625 119.5] CT
0.149 GC
/Helvetica 13.333 F
GS
[1 0 0 1 0 0] CT
-19 13 moveto 
1 -1 scale
(0.012) t 
GR
GR
GS
[0.75 0 0 0.75 804.58932 119.5] CT
0.149 GC
/Helvetica 13.333 F
GS
[1 0 0 1 0 0] CT
-19 13 moveto 
1 -1 scale
(0.014) t 
GR
GR
GS
[0.75 0 0 0.75 853.55356 119.5] CT
0.149 GC
/Helvetica 13.333 F
GS
[1 0 0 1 0 0] CT
-19 13 moveto 
1 -1 scale
(0.016) t 
GR
GR
GS
[0.75 0 0 0.75 902.51788 119.5] CT
0.149 GC
/Helvetica 13.333 F
GS
[1 0 0 1 0 0] CT
-19 13 moveto 
1 -1 scale
(0.018) t 
GR
GR
GS
[0.75 0 0 0.75 0 0] CT
0.149 GC
2 setlinecap
1 LJ
0.667 LW
N
779 154 M
779 57 L
S
GR
GS
[0.75 0 0 0.75 0 0] CT
0.149 GC
2 setlinecap
1 LJ
0.667 LW
N
1236 154 M
1236 57 L
S
GR
GS
[0.75 0 0 0.75 0 0] CT
0.149 GC
2 setlinecap
1 LJ
0.667 LW
N
779 154 M
783.57 154 L
S
GR
GS
[0.75 0 0 0.75 0 0] CT
0.149 GC
2 setlinecap
1 LJ
0.667 LW
N
779 105.5 M
783.57 105.5 L
S
GR
GS
[0.75 0 0 0.75 0 0] CT
0.149 GC
2 setlinecap
1 LJ
0.667 LW
N
779 57 M
783.57 57 L
S
GR
GS
[0.75 0 0 0.75 0 0] CT
0.149 GC
2 setlinecap
1 LJ
0.667 LW
N
1236 154 M
1231.43 154 L
S
GR
GS
[0.75 0 0 0.75 0 0] CT
0.149 GC
2 setlinecap
1 LJ
0.667 LW
N
1236 105.5 M
1231.43 105.5 L
S
GR
GS
[0.75 0 0 0.75 0 0] CT
0.149 GC
2 setlinecap
1 LJ
0.667 LW
N
1236 57 M
1231.43 57 L
S
GR
GS
[0.75 0 0 0.75 580.25002 115.5] CT
0.149 GC
/Helvetica 13.333 F
GS
[1 0 0 1 0 0] CT
-13 4.5 moveto 
1 -1 scale
(-1) t 
GR
GR
GS
[0.75 0 0 0.75 580.25002 79.125] CT
0.149 GC
/Helvetica 13.333 F
GS
[1 0 0 1 0 0] CT
-9 4.5 moveto 
1 -1 scale
(0) t 
GR
GR
GS
[0.75 0 0 0.75 580.25002 42.75] CT
0.149 GC
/Helvetica 13.333 F
GS
[1 0 0 1 0 0] CT
-9 4.5 moveto 
1 -1 scale
(1) t 
GR
GR
GS
[0.75 0 0 0.75 755.62569 40.6875] CT
/Helvetica-Bold 14.667 F
GS
[1 0 0 1 0 0] CT
-5.5 -4 moveto 
1 -1 scale
(2) t 
GR
GR
GS
[0.75 0 0 0.75 0 0] CT
0 0.447 0.741 RC
1 LJ
0.667 LW
N
817.763 72.371 M
819.804 83.92 L
821.844 97.739 L
823.884 112.472 L
825.924 126.663 L
827.964 138.906 L
830.004 147.837 L
832.045 152.636 L
834.085 152.817 L
836.125 146.552 L
838.165 138.629 L
840.205 127.08 L
842.246 113.261 L
844.286 98.528 L
846.326 84.337 L
848.366 72.094 L
850.406 63.163 L
852.446 58.364 L
854.487 58.183 L
856.527 64.448 L
858.567 72.371 L
860.607 83.92 L
862.647 97.739 L
864.688 112.472 L
866.728 126.663 L
868.768 138.906 L
870.808 147.837 L
872.848 152.636 L
874.888 152.817 L
876.929 146.552 L
878.969 138.629 L
881.009 127.08 L
883.049 113.261 L
885.089 98.528 L
887.129 84.337 L
889.17 72.094 L
891.21 63.163 L
893.25 58.364 L
895.29 58.183 L
897.33 64.448 L
899.371 72.371 L
901.411 83.92 L
903.451 97.739 L
905.491 112.472 L
907.531 126.663 L
909.571 138.906 L
911.612 147.837 L
913.652 152.636 L
915.692 152.817 L
917.732 146.552 L
919.772 138.629 L
921.813 127.08 L
923.853 113.261 L
925.893 98.528 L
927.933 84.337 L
929.973 72.094 L
932.013 63.163 L
934.054 58.364 L
936.094 58.183 L
938.134 64.448 L
940.174 72.371 L
942.214 83.92 L
944.254 97.739 L
946.295 112.472 L
948.335 126.663 L
950.375 138.906 L
952.415 147.837 L
954.455 152.636 L
956.496 152.817 L
958.536 146.552 L
960.576 138.629 L
962.616 127.08 L
964.656 113.261 L
966.696 98.528 L
968.737 84.337 L
970.777 72.094 L
972.817 63.163 L
974.857 58.364 L
976.897 58.183 L
978.938 64.448 L
980.978 72.371 L
983.018 83.92 L
985.058 97.739 L
987.098 112.472 L
989.138 126.663 L
991.179 138.906 L
993.219 147.837 L
995.259 152.636 L
997.299 152.817 L
999.339 146.552 L
1001.379 138.629 L
1003.42 127.08 L
1005.46 113.261 L
1007.5 98.528 L
1009.54 84.337 L
1011.58 72.094 L
1013.621 63.163 L
1015.661 58.364 L
1017.701 58.183 L
1019.741 64.448 L
1021.781 72.371 L
1023.821 83.92 L
1025.862 97.739 L
1027.902 112.472 L
1029.942 126.663 L
1031.982 138.906 L
1034.022 147.837 L
1036.063 152.636 L
1038.103 152.817 L
1040.143 146.552 L
1042.183 138.629 L
1044.223 127.08 L
1046.263 113.261 L
1048.304 98.528 L
1050.344 84.337 L
1052.384 72.094 L
1054.424 63.163 L
1056.464 58.364 L
1058.504 58.183 L
1060.545 64.448 L
1062.585 72.371 L
1064.625 83.92 L
1066.665 97.739 L
1068.705 112.472 L
1070.746 126.663 L
1072.786 138.906 L
1074.826 147.837 L
1076.866 152.636 L
1078.906 152.817 L
1080.946 146.552 L
1082.987 138.629 L
1085.027 127.08 L
1087.067 113.261 L
1089.107 98.528 L
1091.147 84.337 L
1093.188 72.094 L
1095.228 63.163 L
1097.268 58.364 L
1099.308 58.183 L
1101.348 64.448 L
1103.388 72.371 L
1105.429 83.92 L
1107.469 97.739 L
1109.509 112.472 L
1111.549 126.663 L
1113.589 138.906 L
1115.63 147.837 L
1117.67 152.636 L
1119.71 152.817 L
1121.75 146.552 L
1123.79 138.629 L
1125.83 127.08 L
1127.87 113.261 L
1129.911 98.528 L
1131.951 84.337 L
1133.991 72.094 L
1136.031 63.163 L
1138.071 58.364 L
1140.112 58.183 L
1142.152 64.448 L
1144.192 72.371 L
1146.232 83.92 L
1148.272 97.739 L
1150.313 112.472 L
1152.353 126.663 L
1154.393 138.906 L
1156.433 147.837 L
1158.473 152.636 L
1160.513 152.817 L
1162.554 146.552 L
1164.594 138.629 L
1166.634 127.08 L
1168.674 113.261 L
1170.714 98.528 L
1172.755 84.337 L
1174.795 72.094 L
1176.835 63.163 L
1178.875 58.364 L
1180.915 58.183 L
1182.955 64.448 L
1184.996 72.371 L
1187.036 83.92 L
1189.076 97.739 L
1191.116 112.472 L
1193.156 126.663 L
1195.196 138.906 L
1197.237 147.837 L
1199.277 152.636 L
1201.317 152.817 L
1203.357 146.552 L
1205.397 138.629 L
1207.438 127.08 L
1209.478 113.261 L
1211.518 98.528 L
1213.558 84.337 L
1215.598 72.094 L
1217.638 63.163 L
1219.679 58.364 L
1221.719 58.183 L
1223.759 64.448 L
1225.799 72.371 L
S
GR
GS
[0.75 0 0 0.75 0 0] CT
0.851 0.325 0.098 RC
1 LJ
0.667 LW
N
817.763 102.19 M
819.804 98.141 L
821.844 94.019 L
823.884 90.146 L
825.924 86.854 L
827.964 84.455 L
830.004 83.211 L
832.045 83.298 L
834.085 84.793 L
836.125 87.657 L
838.165 91.734 L
840.205 96.764 L
842.246 102.402 L
844.286 108.249 L
846.326 113.887 L
848.366 118.916 L
850.406 122.993 L
852.446 125.857 L
854.487 127.352 L
856.527 127.44 L
858.567 126.195 L
860.607 123.797 L
862.647 120.505 L
864.688 116.631 L
866.728 112.509 L
868.768 108.461 L
870.808 104.77 L
872.848 101.657 L
874.888 99.268 L
876.929 99.463 L
878.969 97.865 L
881.009 97.044 L
883.049 96.924 L
885.089 97.38 L
887.129 98.257 L
889.17 99.391 L
891.21 100.631 L
893.25 101.846 L
895.29 102.941 L
897.33 103.854 L
899.371 104.56 L
901.411 105.061 L
903.451 105.376 L
905.491 105.536 L
907.531 105.57 L
909.571 105.502 L
911.612 105.502 L
913.652 105.502 L
915.692 105.502 L
917.732 105.502 L
919.772 105.502 L
921.813 105.502 L
923.853 105.502 L
925.893 105.502 L
927.933 105.502 L
929.973 105.502 L
932.013 105.502 L
934.054 105.502 L
936.094 105.502 L
938.134 105.502 L
940.174 105.502 L
942.214 105.657 L
944.254 105.724 L
946.295 105.69 L
948.335 105.531 L
950.375 105.215 L
952.415 104.715 L
954.455 104.009 L
956.496 103.095 L
958.536 102.001 L
960.576 100.786 L
962.616 99.546 L
964.656 98.411 L
966.696 97.535 L
968.737 97.079 L
970.777 97.199 L
972.817 98.019 L
974.857 99.618 L
976.897 102.007 L
978.938 105.119 L
980.978 108.81 L
983.018 112.859 L
985.058 116.981 L
987.098 120.854 L
989.138 124.146 L
991.179 126.545 L
993.219 127.789 L
995.259 127.702 L
997.299 126.207 L
999.339 123.343 L
1001.379 119.266 L
1003.42 114.236 L
1005.46 108.598 L
1007.5 102.751 L
1009.54 97.113 L
1011.58 92.084 L
1013.621 88.007 L
1015.661 85.143 L
1017.701 83.648 L
1019.741 83.56 L
1021.781 84.805 L
1023.821 87.203 L
1025.862 90.495 L
1027.902 94.369 L
1029.942 98.491 L
1031.982 102.539 L
1034.022 106.23 L
1036.063 109.343 L
1038.103 111.732 L
1040.143 111.537 L
1042.183 113.135 L
1044.223 113.956 L
1046.263 114.076 L
1048.304 113.62 L
1050.344 112.743 L
1052.384 111.609 L
1054.424 110.369 L
1056.464 109.154 L
1058.504 108.059 L
1060.545 107.146 L
1062.585 106.44 L
1064.625 105.939 L
1066.665 105.624 L
1068.705 105.464 L
1070.746 105.43 L
1072.786 105.498 L
1074.826 105.498 L
1076.866 105.498 L
1078.906 105.498 L
1080.946 105.498 L
1082.987 105.498 L
1085.027 105.498 L
1087.067 105.498 L
1089.107 105.498 L
1091.147 105.498 L
1093.188 105.498 L
1095.228 105.498 L
1097.268 105.498 L
1099.308 105.498 L
1101.348 105.498 L
1103.388 105.498 L
1105.429 105.343 L
1107.469 105.276 L
1109.509 105.31 L
1111.549 105.469 L
1113.589 105.785 L
1115.63 106.285 L
1117.67 106.991 L
1119.71 107.905 L
1121.75 108.999 L
1123.79 110.214 L
1125.83 111.454 L
1127.87 112.589 L
1129.911 113.465 L
1131.951 113.921 L
1133.991 113.801 L
1136.031 112.981 L
1138.071 111.382 L
1140.112 108.993 L
1142.152 105.881 L
1144.192 102.19 L
1146.232 98.141 L
1148.272 94.019 L
1150.313 90.146 L
1152.353 86.854 L
1154.393 84.455 L
1156.433 83.211 L
1158.473 83.298 L
1160.513 84.793 L
1162.554 87.657 L
1164.594 91.734 L
1166.634 96.764 L
1168.674 102.402 L
1170.714 108.249 L
1172.755 113.887 L
1174.795 118.916 L
1176.835 122.993 L
1178.875 125.857 L
1180.915 127.352 L
1182.955 127.44 L
1184.996 126.195 L
1187.036 123.797 L
1189.076 120.505 L
1191.116 116.631 L
1193.156 112.509 L
1195.196 108.461 L
1197.237 104.77 L
1199.277 101.657 L
1201.317 99.268 L
1203.357 99.463 L
1205.397 97.865 L
1207.438 97.044 L
1209.478 96.924 L
1211.518 97.38 L
1213.558 98.257 L
1215.598 99.391 L
1217.638 100.631 L
1219.679 101.846 L
1221.719 102.941 L
1223.759 103.854 L
1225.799 104.56 L
S
GR
GS
[0.75 0 0 0.75 0 0] CT
1 GC
N
178 298 M
635 298 L
635 201 L
178 201 L
cp
f
GR
GS
[0.75 0 0 0.75 0 0] CT
0.149 GC
2 setlinecap
1 LJ
0.667 LW
N
178 298 M
635 298 L
S
GR
GS
[0.75 0 0 0.75 0 0] CT
0.149 GC
2 setlinecap
1 LJ
0.667 LW
N
178 201 M
635 201 L
S
GR
GS
[0.75 0 0 0.75 0 0] CT
0.149 GC
2 setlinecap
1 LJ
0.667 LW
N
210.643 298 M
210.643 293.43 L
S
GR
GS
[0.75 0 0 0.75 0 0] CT
0.149 GC
2 setlinecap
1 LJ
0.667 LW
N
275.929 298 M
275.929 293.43 L
S
GR
GS
[0.75 0 0 0.75 0 0] CT
0.149 GC
2 setlinecap
1 LJ
0.667 LW
N
341.214 298 M
341.214 293.43 L
S
GR
GS
[0.75 0 0 0.75 0 0] CT
0.149 GC
2 setlinecap
1 LJ
0.667 LW
N
406.5 298 M
406.5 293.43 L
S
GR
GS
[0.75 0 0 0.75 0 0] CT
0.149 GC
2 setlinecap
1 LJ
0.667 LW
N
471.786 298 M
471.786 293.43 L
S
GR
GS
[0.75 0 0 0.75 0 0] CT
0.149 GC
2 setlinecap
1 LJ
0.667 LW
N
537.071 298 M
537.071 293.43 L
S
GR
GS
[0.75 0 0 0.75 0 0] CT
0.149 GC
2 setlinecap
1 LJ
0.667 LW
N
602.357 298 M
602.357 293.43 L
S
GR
GS
[0.75 0 0 0.75 0 0] CT
0.149 GC
2 setlinecap
1 LJ
0.667 LW
N
210.643 201 M
210.643 205.57 L
S
GR
GS
[0.75 0 0 0.75 0 0] CT
0.149 GC
2 setlinecap
1 LJ
0.667 LW
N
275.929 201 M
275.929 205.57 L
S
GR
GS
[0.75 0 0 0.75 0 0] CT
0.149 GC
2 setlinecap
1 LJ
0.667 LW
N
341.214 201 M
341.214 205.57 L
S
GR
GS
[0.75 0 0 0.75 0 0] CT
0.149 GC
2 setlinecap
1 LJ
0.667 LW
N
406.5 201 M
406.5 205.57 L
S
GR
GS
[0.75 0 0 0.75 0 0] CT
0.149 GC
2 setlinecap
1 LJ
0.667 LW
N
471.786 201 M
471.786 205.57 L
S
GR
GS
[0.75 0 0 0.75 0 0] CT
0.149 GC
2 setlinecap
1 LJ
0.667 LW
N
537.071 201 M
537.071 205.57 L
S
GR
GS
[0.75 0 0 0.75 0 0] CT
0.149 GC
2 setlinecap
1 LJ
0.667 LW
N
602.357 201 M
602.357 205.57 L
S
GR
GS
[0.75 0 0 0.75 157.98214 227.50001] CT
0.149 GC
/Helvetica 13.333 F
GS
[1 0 0 1 0 0] CT
-19 13 moveto 
1 -1 scale
(0.006) t 
GR
GR
GS
[0.75 0 0 0.75 206.94644 227.50001] CT
0.149 GC
/Helvetica 13.333 F
GS
[1 0 0 1 0 0] CT
-19 13 moveto 
1 -1 scale
(0.008) t 
GR
GR
GS
[0.75 0 0 0.75 255.9107 227.50001] CT
0.149 GC
/Helvetica 13.333 F
GS
[1 0 0 1 0 0] CT
-14.5 13 moveto 
1 -1 scale
(0.01) t 
GR
GR
GS
[0.75 0 0 0.75 304.875 227.50001] CT
0.149 GC
/Helvetica 13.333 F
GS
[1 0 0 1 0 0] CT
-19 13 moveto 
1 -1 scale
(0.012) t 
GR
GR
GS
[0.75 0 0 0.75 353.8393 227.50001] CT
0.149 GC
/Helvetica 13.333 F
GS
[1 0 0 1 0 0] CT
-19 13 moveto 
1 -1 scale
(0.014) t 
GR
GR
GS
[0.75 0 0 0.75 402.8036 227.50001] CT
0.149 GC
/Helvetica 13.333 F
GS
[1 0 0 1 0 0] CT
-19 13 moveto 
1 -1 scale
(0.016) t 
GR
GR
GS
[0.75 0 0 0.75 451.76784 227.50001] CT
0.149 GC
/Helvetica 13.333 F
GS
[1 0 0 1 0 0] CT
-19 13 moveto 
1 -1 scale
(0.018) t 
GR
GR
GS
[0.75 0 0 0.75 0 0] CT
0.149 GC
2 setlinecap
1 LJ
0.667 LW
N
178 298 M
178 201 L
S
GR
GS
[0.75 0 0 0.75 0 0] CT
0.149 GC
2 setlinecap
1 LJ
0.667 LW
N
635 298 M
635 201 L
S
GR
GS
[0.75 0 0 0.75 0 0] CT
0.149 GC
2 setlinecap
1 LJ
0.667 LW
N
178 298 M
182.57 298 L
S
GR
GS
[0.75 0 0 0.75 0 0] CT
0.149 GC
2 setlinecap
1 LJ
0.667 LW
N
178 249.5 M
182.57 249.5 L
S
GR
GS
[0.75 0 0 0.75 0 0] CT
0.149 GC
2 setlinecap
1 LJ
0.667 LW
N
178 201 M
182.57 201 L
S
GR
GS
[0.75 0 0 0.75 0 0] CT
0.149 GC
2 setlinecap
1 LJ
0.667 LW
N
635 298 M
630.43 298 L
S
GR
GS
[0.75 0 0 0.75 0 0] CT
0.149 GC
2 setlinecap
1 LJ
0.667 LW
N
635 249.5 M
630.43 249.5 L
S
GR
GS
[0.75 0 0 0.75 0 0] CT
0.149 GC
2 setlinecap
1 LJ
0.667 LW
N
635 201 M
630.43 201 L
S
GR
GS
[0.75 0 0 0.75 129.5 223.5] CT
0.149 GC
/Helvetica 13.333 F
GS
[1 0 0 1 0 0] CT
-13 4.5 moveto 
1 -1 scale
(-1) t 
GR
GR
GS
[0.75 0 0 0.75 129.5 187.125] CT
0.149 GC
/Helvetica 13.333 F
GS
[1 0 0 1 0 0] CT
-9 4.5 moveto 
1 -1 scale
(0) t 
GR
GR
GS
[0.75 0 0 0.75 129.5 150.75] CT
0.149 GC
/Helvetica 13.333 F
GS
[1 0 0 1 0 0] CT
-9 4.5 moveto 
1 -1 scale
(1) t 
GR
GR
GS
[0.75 0 0 0.75 304.87527 148.6875] CT
/Helvetica-Bold 14.667 F
GS
[1 0 0 1 0 0] CT
-5.5 -4 moveto 
1 -1 scale
(3) t 
GR
GR
GS
[0.75 0 0 0.75 0 0] CT
0 0.447 0.741 RC
1 LJ
0.667 LW
N
216.763 206.358 M
218.804 220.1 L
220.844 236.782 L
222.884 254.562 L
224.924 271.543 L
226.964 285.968 L
229.004 296.478 L
229.563 298.01 L
S
GR
GS
[0.75 0 0 0.75 0 0] CT
0 0.447 0.741 RC
1 LJ
0.667 LW
N
235.631 298.01 M
237.165 292.642 L
239.205 278.9 L
241.246 262.218 L
243.286 244.438 L
245.326 227.457 L
247.366 213.032 L
249.406 202.522 L
249.965 200.99 L
S
GR
GS
[0.75 0 0 0.75 0 0] CT
0 0.447 0.741 RC
1 LJ
0.667 LW
N
256.033 200.99 M
257.567 206.358 L
259.607 220.1 L
261.647 236.782 L
263.688 254.562 L
265.728 271.543 L
267.768 285.968 L
269.808 296.478 L
270.367 298.01 L
S
GR
GS
[0.75 0 0 0.75 0 0] CT
0 0.447 0.741 RC
1 LJ
0.667 LW
N
276.435 298.01 M
277.969 292.642 L
280.009 278.9 L
282.049 262.218 L
284.089 244.438 L
286.129 227.457 L
288.17 213.032 L
290.21 202.522 L
290.768 200.99 L
S
GR
GS
[0.75 0 0 0.75 0 0] CT
0 0.447 0.741 RC
1 LJ
0.667 LW
N
296.836 200.99 M
298.371 206.358 L
300.411 220.1 L
302.451 236.782 L
304.491 254.562 L
306.531 271.543 L
308.571 285.968 L
310.612 296.478 L
311.17 298.01 L
S
GR
GS
[0.75 0 0 0.75 0 0] CT
0 0.447 0.741 RC
1 LJ
0.667 LW
N
317.238 298.01 M
318.772 292.642 L
320.813 278.9 L
322.853 262.218 L
324.893 244.438 L
326.933 227.457 L
328.973 213.032 L
331.013 202.522 L
331.572 200.99 L
S
GR
GS
[0.75 0 0 0.75 0 0] CT
0 0.447 0.741 RC
1 LJ
0.667 LW
N
337.64 200.99 M
339.174 206.358 L
341.214 220.1 L
343.254 236.782 L
345.295 254.562 L
347.335 271.543 L
349.375 285.968 L
351.415 296.478 L
351.974 298.01 L
S
GR
GS
[0.75 0 0 0.75 0 0] CT
0 0.447 0.741 RC
1 LJ
0.667 LW
N
358.042 298.01 M
359.576 292.642 L
361.616 278.9 L
363.656 262.218 L
365.696 244.438 L
367.737 227.457 L
369.777 213.032 L
371.817 202.522 L
372.375 200.99 L
S
GR
GS
[0.75 0 0 0.75 0 0] CT
0 0.447 0.741 RC
1 LJ
0.667 LW
N
378.443 200.99 M
379.978 206.358 L
382.018 220.1 L
384.058 236.782 L
386.098 254.562 L
388.138 271.543 L
390.179 285.968 L
392.219 296.478 L
392.777 298.01 L
S
GR
GS
[0.75 0 0 0.75 0 0] CT
0 0.447 0.741 RC
1 LJ
0.667 LW
N
398.845 298.01 M
400.379 292.642 L
402.42 278.9 L
404.46 262.218 L
406.5 244.438 L
408.54 227.457 L
410.58 213.032 L
412.621 202.522 L
413.179 200.99 L
S
GR
GS
[0.75 0 0 0.75 0 0] CT
0 0.447 0.741 RC
1 LJ
0.667 LW
N
419.247 200.99 M
420.781 206.358 L
422.821 220.1 L
424.862 236.782 L
426.902 254.562 L
428.942 271.543 L
430.982 285.968 L
433.022 296.478 L
433.581 298.01 L
S
GR
GS
[0.75 0 0 0.75 0 0] CT
0 0.447 0.741 RC
1 LJ
0.667 LW
N
439.649 298.01 M
441.183 292.642 L
443.223 278.9 L
445.263 262.218 L
447.304 244.438 L
449.344 227.457 L
451.384 213.032 L
453.424 202.522 L
453.983 200.99 L
S
GR
GS
[0.75 0 0 0.75 0 0] CT
0 0.447 0.741 RC
1 LJ
0.667 LW
N
460.051 200.99 M
461.585 206.358 L
463.625 220.1 L
465.665 236.782 L
467.705 254.562 L
469.746 271.543 L
471.786 285.968 L
473.826 296.478 L
474.384 298.01 L
S
GR
GS
[0.75 0 0 0.75 0 0] CT
0 0.447 0.741 RC
1 LJ
0.667 LW
N
480.452 298.01 M
481.987 292.642 L
484.027 278.9 L
486.067 262.218 L
488.107 244.438 L
490.147 227.457 L
492.188 213.032 L
494.228 202.522 L
494.786 200.99 L
S
GR
GS
[0.75 0 0 0.75 0 0] CT
0 0.447 0.741 RC
1 LJ
0.667 LW
N
500.854 200.99 M
502.388 206.358 L
504.429 220.1 L
506.469 236.782 L
508.509 254.562 L
510.549 271.543 L
512.589 285.968 L
514.629 296.478 L
515.188 298.01 L
S
GR
GS
[0.75 0 0 0.75 0 0] CT
0 0.447 0.741 RC
1 LJ
0.667 LW
N
521.256 298.01 M
522.79 292.642 L
524.83 278.9 L
526.87 262.218 L
528.911 244.438 L
530.951 227.457 L
532.991 213.032 L
535.031 202.522 L
535.59 200.99 L
S
GR
GS
[0.75 0 0 0.75 0 0] CT
0 0.447 0.741 RC
1 LJ
0.667 LW
N
541.658 200.99 M
543.192 206.358 L
545.232 220.1 L
547.272 236.782 L
549.313 254.562 L
551.353 271.543 L
553.393 285.968 L
555.433 296.478 L
555.992 298.01 L
S
GR
GS
[0.75 0 0 0.75 0 0] CT
0 0.447 0.741 RC
1 LJ
0.667 LW
N
562.06 298.01 M
563.594 292.642 L
565.634 278.9 L
567.674 262.218 L
569.714 244.438 L
571.754 227.457 L
573.795 213.032 L
575.835 202.522 L
576.393 200.99 L
S
GR
GS
[0.75 0 0 0.75 0 0] CT
0 0.447 0.741 RC
1 LJ
0.667 LW
N
582.461 200.99 M
583.996 206.358 L
586.036 220.1 L
588.076 236.782 L
590.116 254.562 L
592.156 271.543 L
594.196 285.968 L
596.237 296.478 L
596.795 298.01 L
S
GR
GS
[0.75 0 0 0.75 0 0] CT
0 0.447 0.741 RC
1 LJ
0.667 LW
N
602.863 298.01 M
604.397 292.642 L
606.438 278.9 L
608.478 262.218 L
610.518 244.438 L
612.558 227.457 L
614.598 213.032 L
616.638 202.522 L
617.197 200.99 L
S
GR
GS
[0.75 0 0 0.75 0 0] CT
0 0.447 0.741 RC
1 LJ
0.667 LW
N
623.265 200.99 M
624.799 206.358 L
S
GR
GS
[0.75 0 0 0.75 0 0] CT
0.851 0.325 0.098 RC
1 LJ
0.667 LW
N
216.763 260.128 M
218.804 258.755 L
220.844 255.928 L
222.884 251.873 L
224.924 247.043 L
226.964 242.062 L
229.004 237.641 L
231.045 234.458 L
233.085 233.053 L
235.125 233.724 L
237.165 236.472 L
239.205 240.984 L
241.246 246.678 L
243.286 252.788 L
245.326 258.483 L
247.366 262.995 L
249.406 265.742 L
251.446 266.414 L
253.487 265.008 L
255.527 261.826 L
257.567 257.404 L
259.607 252.424 L
261.647 247.594 L
263.688 243.539 L
265.728 240.712 L
267.768 239.339 L
269.808 239.41 L
271.848 240.707 L
273.888 242.864 L
275.929 242.797 L
277.969 242.642 L
280.009 245.225 L
282.049 247.807 L
284.089 250.04 L
286.129 251.693 L
288.17 252.669 L
290.21 252.995 L
292.25 252.792 L
294.29 252.231 L
296.33 251.493 L
298.371 250.736 L
300.411 250.076 L
302.451 249.573 L
304.491 249.247 L
306.531 249.085 L
308.571 249.06 L
310.612 249.06 L
312.652 249.06 L
314.692 249.06 L
316.732 249.06 L
318.772 249.06 L
320.813 249.06 L
322.853 249.06 L
324.893 249.06 L
326.933 249.06 L
328.973 249.06 L
331.013 249.06 L
333.054 249.06 L
335.094 249.06 L
337.134 249.06 L
339.174 249.06 L
341.214 248.897 L
343.254 248.816 L
345.295 248.841 L
347.335 249.002 L
349.375 249.328 L
351.415 249.831 L
353.455 250.492 L
355.496 251.248 L
357.536 251.986 L
359.576 252.547 L
361.616 252.751 L
363.656 252.424 L
365.696 251.448 L
367.737 249.796 L
369.777 247.563 L
371.817 244.98 L
373.857 242.397 L
375.897 240.24 L
377.938 238.943 L
379.978 238.872 L
382.018 240.245 L
384.058 243.072 L
386.098 247.127 L
388.138 251.957 L
390.179 256.938 L
392.219 261.359 L
394.259 264.542 L
396.299 265.947 L
398.339 265.276 L
400.379 262.528 L
402.42 258.016 L
404.46 252.322 L
406.5 246.212 L
408.54 240.517 L
410.58 236.005 L
412.621 233.258 L
414.661 232.586 L
416.701 233.992 L
418.741 237.174 L
420.781 241.596 L
422.821 246.576 L
424.862 251.406 L
426.902 255.461 L
428.942 258.288 L
430.982 259.661 L
433.022 259.59 L
435.063 258.293 L
437.103 256.136 L
439.143 256.203 L
441.183 256.358 L
443.223 253.775 L
445.263 251.193 L
447.304 248.96 L
449.344 247.307 L
451.384 246.331 L
453.424 246.005 L
455.464 246.208 L
457.504 246.769 L
459.545 247.507 L
461.585 248.264 L
463.625 248.924 L
465.665 249.427 L
467.705 249.753 L
469.746 249.915 L
471.786 249.94 L
473.826 249.94 L
475.866 249.94 L
477.906 249.94 L
479.946 249.94 L
481.987 249.94 L
484.027 249.94 L
486.067 249.94 L
488.107 249.94 L
490.147 249.94 L
492.188 249.94 L
494.228 249.94 L
496.268 249.94 L
498.308 249.94 L
500.348 249.94 L
502.388 249.94 L
504.429 250.103 L
506.469 250.184 L
508.509 250.159 L
510.549 249.998 L
512.589 249.672 L
514.629 249.169 L
516.67 248.508 L
518.71 247.752 L
520.75 247.014 L
522.79 246.453 L
524.83 246.249 L
526.87 246.576 L
528.911 247.552 L
530.951 249.204 L
532.991 251.437 L
535.031 254.02 L
537.071 256.603 L
539.112 258.76 L
541.152 260.057 L
543.192 260.128 L
545.232 258.755 L
547.272 255.928 L
549.313 251.873 L
551.353 247.043 L
553.393 242.062 L
555.433 237.641 L
557.473 234.458 L
559.513 233.053 L
561.554 233.724 L
563.594 236.472 L
565.634 240.984 L
567.674 246.678 L
569.714 252.788 L
571.754 258.483 L
573.795 262.995 L
575.835 265.742 L
577.875 266.414 L
579.915 265.008 L
581.955 261.826 L
583.996 257.404 L
586.036 252.424 L
588.076 247.594 L
590.116 243.539 L
592.156 240.712 L
594.196 239.339 L
596.237 239.41 L
598.277 240.707 L
600.317 242.864 L
602.357 242.797 L
604.397 242.642 L
606.438 245.225 L
608.478 247.807 L
610.518 250.04 L
612.558 251.693 L
614.598 252.669 L
616.638 252.995 L
618.679 252.792 L
620.719 252.231 L
622.759 251.493 L
624.799 250.736 L
S
GR
GS
[0.75 0 0 0.75 0 0] CT
1 GC
N
779 298 M
1236 298 L
1236 201 L
779 201 L
cp
f
GR
GS
[0.75 0 0 0.75 0 0] CT
0.149 GC
2 setlinecap
1 LJ
0.667 LW
N
779 298 M
1236 298 L
S
GR
GS
[0.75 0 0 0.75 0 0] CT
0.149 GC
2 setlinecap
1 LJ
0.667 LW
N
779 201 M
1236 201 L
S
GR
GS
[0.75 0 0 0.75 0 0] CT
0.149 GC
2 setlinecap
1 LJ
0.667 LW
N
811.643 298 M
811.643 293.43 L
S
GR
GS
[0.75 0 0 0.75 0 0] CT
0.149 GC
2 setlinecap
1 LJ
0.667 LW
N
876.929 298 M
876.929 293.43 L
S
GR
GS
[0.75 0 0 0.75 0 0] CT
0.149 GC
2 setlinecap
1 LJ
0.667 LW
N
942.214 298 M
942.214 293.43 L
S
GR
GS
[0.75 0 0 0.75 0 0] CT
0.149 GC
2 setlinecap
1 LJ
0.667 LW
N
1007.5 298 M
1007.5 293.43 L
S
GR
GS
[0.75 0 0 0.75 0 0] CT
0.149 GC
2 setlinecap
1 LJ
0.667 LW
N
1072.786 298 M
1072.786 293.43 L
S
GR
GS
[0.75 0 0 0.75 0 0] CT
0.149 GC
2 setlinecap
1 LJ
0.667 LW
N
1138.071 298 M
1138.071 293.43 L
S
GR
GS
[0.75 0 0 0.75 0 0] CT
0.149 GC
2 setlinecap
1 LJ
0.667 LW
N
1203.357 298 M
1203.357 293.43 L
S
GR
GS
[0.75 0 0 0.75 0 0] CT
0.149 GC
2 setlinecap
1 LJ
0.667 LW
N
811.643 201 M
811.643 205.57 L
S
GR
GS
[0.75 0 0 0.75 0 0] CT
0.149 GC
2 setlinecap
1 LJ
0.667 LW
N
876.929 201 M
876.929 205.57 L
S
GR
GS
[0.75 0 0 0.75 0 0] CT
0.149 GC
2 setlinecap
1 LJ
0.667 LW
N
942.214 201 M
942.214 205.57 L
S
GR
GS
[0.75 0 0 0.75 0 0] CT
0.149 GC
2 setlinecap
1 LJ
0.667 LW
N
1007.5 201 M
1007.5 205.57 L
S
GR
GS
[0.75 0 0 0.75 0 0] CT
0.149 GC
2 setlinecap
1 LJ
0.667 LW
N
1072.786 201 M
1072.786 205.57 L
S
GR
GS
[0.75 0 0 0.75 0 0] CT
0.149 GC
2 setlinecap
1 LJ
0.667 LW
N
1138.071 201 M
1138.071 205.57 L
S
GR
GS
[0.75 0 0 0.75 0 0] CT
0.149 GC
2 setlinecap
1 LJ
0.667 LW
N
1203.357 201 M
1203.357 205.57 L
S
GR
GS
[0.75 0 0 0.75 608.73216 227.50001] CT
0.149 GC
/Helvetica 13.333 F
GS
[1 0 0 1 0 0] CT
-19 13 moveto 
1 -1 scale
(0.006) t 
GR
GR
GS
[0.75 0 0 0.75 657.69644 227.50001] CT
0.149 GC
/Helvetica 13.333 F
GS
[1 0 0 1 0 0] CT
-19 13 moveto 
1 -1 scale
(0.008) t 
GR
GR
GS
[0.75 0 0 0.75 706.66072 227.50001] CT
0.149 GC
/Helvetica 13.333 F
GS
[1 0 0 1 0 0] CT
-14.5 13 moveto 
1 -1 scale
(0.01) t 
GR
GR
GS
[0.75 0 0 0.75 755.625 227.50001] CT
0.149 GC
/Helvetica 13.333 F
GS
[1 0 0 1 0 0] CT
-19 13 moveto 
1 -1 scale
(0.012) t 
GR
GR
GS
[0.75 0 0 0.75 804.58932 227.50001] CT
0.149 GC
/Helvetica 13.333 F
GS
[1 0 0 1 0 0] CT
-19 13 moveto 
1 -1 scale
(0.014) t 
GR
GR
GS
[0.75 0 0 0.75 853.55356 227.50001] CT
0.149 GC
/Helvetica 13.333 F
GS
[1 0 0 1 0 0] CT
-19 13 moveto 
1 -1 scale
(0.016) t 
GR
GR
GS
[0.75 0 0 0.75 902.51788 227.50001] CT
0.149 GC
/Helvetica 13.333 F
GS
[1 0 0 1 0 0] CT
-19 13 moveto 
1 -1 scale
(0.018) t 
GR
GR
GS
[0.75 0 0 0.75 0 0] CT
0.149 GC
2 setlinecap
1 LJ
0.667 LW
N
779 298 M
779 201 L
S
GR
GS
[0.75 0 0 0.75 0 0] CT
0.149 GC
2 setlinecap
1 LJ
0.667 LW
N
1236 298 M
1236 201 L
S
GR
GS
[0.75 0 0 0.75 0 0] CT
0.149 GC
2 setlinecap
1 LJ
0.667 LW
N
779 298 M
783.57 298 L
S
GR
GS
[0.75 0 0 0.75 0 0] CT
0.149 GC
2 setlinecap
1 LJ
0.667 LW
N
779 249.5 M
783.57 249.5 L
S
GR
GS
[0.75 0 0 0.75 0 0] CT
0.149 GC
2 setlinecap
1 LJ
0.667 LW
N
779 201 M
783.57 201 L
S
GR
GS
[0.75 0 0 0.75 0 0] CT
0.149 GC
2 setlinecap
1 LJ
0.667 LW
N
1236 298 M
1231.43 298 L
S
GR
GS
[0.75 0 0 0.75 0 0] CT
0.149 GC
2 setlinecap
1 LJ
0.667 LW
N
1236 249.5 M
1231.43 249.5 L
S
GR
GS
[0.75 0 0 0.75 0 0] CT
0.149 GC
2 setlinecap
1 LJ
0.667 LW
N
1236 201 M
1231.43 201 L
S
GR
GS
[0.75 0 0 0.75 580.25002 223.5] CT
0.149 GC
/Helvetica 13.333 F
GS
[1 0 0 1 0 0] CT
-13 4.5 moveto 
1 -1 scale
(-1) t 
GR
GR
GS
[0.75 0 0 0.75 580.25002 187.125] CT
0.149 GC
/Helvetica 13.333 F
GS
[1 0 0 1 0 0] CT
-9 4.5 moveto 
1 -1 scale
(0) t 
GR
GR
GS
[0.75 0 0 0.75 580.25002 150.75] CT
0.149 GC
/Helvetica 13.333 F
GS
[1 0 0 1 0 0] CT
-9 4.5 moveto 
1 -1 scale
(1) t 
GR
GR
GS
[0.75 0 0 0.75 755.62569 148.6875] CT
/Helvetica-Bold 14.667 F
GS
[1 0 0 1 0 0] CT
-5.5 -4 moveto 
1 -1 scale
(4) t 
GR
GR
GS
[0.75 0 0 0.75 0 0] CT
0 0.447 0.741 RC
1 LJ
0.667 LW
N
817.763 250.129 M
819.804 252.71 L
821.844 254.858 L
823.884 255.611 L
825.924 255.276 L
827.964 254.34 L
830.004 253.1 L
832.045 252.054 L
834.085 251.37 L
836.125 250.642 L
838.165 248.871 L
840.205 246.29 L
842.246 244.142 L
844.286 243.389 L
846.326 243.724 L
848.366 244.66 L
850.406 245.9 L
852.446 246.946 L
854.487 247.63 L
856.527 248.358 L
858.567 250.129 L
860.607 252.71 L
862.647 254.858 L
864.688 255.611 L
866.728 255.276 L
868.768 254.34 L
870.808 253.1 L
872.848 252.054 L
874.888 251.37 L
876.929 250.642 L
878.969 248.871 L
881.009 246.29 L
883.049 244.142 L
885.089 243.389 L
887.129 243.724 L
889.17 244.66 L
891.21 245.9 L
893.25 246.946 L
895.29 247.63 L
897.33 248.358 L
899.371 250.129 L
901.411 252.71 L
903.451 254.858 L
905.491 255.611 L
907.531 255.276 L
909.571 254.34 L
911.612 253.1 L
913.652 252.054 L
915.692 251.37 L
917.732 250.642 L
919.772 248.871 L
921.813 246.29 L
923.853 244.142 L
925.893 243.389 L
927.933 243.724 L
929.973 244.66 L
932.013 245.9 L
934.054 246.946 L
936.094 247.63 L
938.134 248.358 L
940.174 250.129 L
942.214 252.71 L
944.254 254.858 L
946.295 255.611 L
948.335 255.276 L
950.375 254.34 L
952.415 253.1 L
954.455 252.054 L
956.496 251.37 L
958.536 250.642 L
960.576 248.871 L
962.616 246.29 L
964.656 244.142 L
966.696 243.389 L
968.737 243.724 L
970.777 244.66 L
972.817 245.9 L
974.857 246.946 L
976.897 247.63 L
978.938 248.358 L
980.978 250.129 L
983.018 252.71 L
985.058 254.858 L
987.098 255.611 L
989.138 255.276 L
991.179 254.34 L
993.219 253.1 L
995.259 252.054 L
997.299 251.37 L
999.339 250.642 L
1001.379 248.871 L
1003.42 246.29 L
1005.46 244.142 L
1007.5 243.389 L
1009.54 243.724 L
1011.58 244.66 L
1013.621 245.9 L
1015.661 246.946 L
1017.701 247.63 L
1019.741 248.358 L
1021.781 250.129 L
1023.821 252.71 L
1025.862 254.858 L
1027.902 255.611 L
1029.942 255.276 L
1031.982 254.34 L
1034.022 253.1 L
1036.063 252.054 L
1038.103 251.37 L
1040.143 250.642 L
1042.183 248.871 L
1044.223 246.29 L
1046.263 244.142 L
1048.304 243.389 L
1050.344 243.724 L
1052.384 244.66 L
1054.424 245.9 L
1056.464 246.946 L
1058.504 247.63 L
1060.545 248.358 L
1062.585 250.129 L
1064.625 252.71 L
1066.665 254.858 L
1068.705 255.611 L
1070.746 255.276 L
1072.786 254.34 L
1074.826 253.1 L
1076.866 252.054 L
1078.906 251.37 L
1080.946 250.642 L
1082.987 248.871 L
1085.027 246.29 L
1087.067 244.142 L
1089.107 243.389 L
1091.147 243.724 L
1093.188 244.66 L
1095.228 245.9 L
1097.268 246.946 L
1099.308 247.63 L
1101.348 248.358 L
1103.388 250.129 L
1105.429 252.71 L
1107.469 254.858 L
1109.509 255.611 L
1111.549 255.276 L
1113.589 254.34 L
1115.63 253.1 L
1117.67 252.054 L
1119.71 251.37 L
1121.75 250.642 L
1123.79 248.871 L
1125.83 246.29 L
1127.87 244.142 L
1129.911 243.389 L
1131.951 243.724 L
1133.991 244.66 L
1136.031 245.9 L
1138.071 246.946 L
1140.112 247.63 L
1142.152 248.358 L
1144.192 250.129 L
1146.232 252.71 L
1148.272 254.858 L
1150.313 255.611 L
1152.353 255.276 L
1154.393 254.34 L
1156.433 253.1 L
1158.473 252.054 L
1160.513 251.37 L
1162.554 250.642 L
1164.594 248.871 L
1166.634 246.29 L
1168.674 244.142 L
1170.714 243.389 L
1172.755 243.724 L
1174.795 244.66 L
1176.835 245.9 L
1178.875 246.946 L
1180.915 247.63 L
1182.955 248.358 L
1184.996 250.129 L
1187.036 252.71 L
1189.076 254.858 L
1191.116 255.611 L
1193.156 255.276 L
1195.196 254.34 L
1197.237 253.1 L
1199.277 252.054 L
1201.317 251.37 L
1203.357 250.642 L
1205.397 248.871 L
1207.438 246.29 L
1209.478 244.142 L
1211.518 243.389 L
1213.558 243.724 L
1215.598 244.66 L
1217.638 245.9 L
1219.679 246.946 L
1221.719 247.63 L
1223.759 248.358 L
1225.799 250.129 L
S
GR
GS
[0.75 0 0 0.75 0 0] CT
0.851 0.325 0.098 RC
1 LJ
0.667 LW
N
817.763 250.719 M
819.804 254.599 L
821.844 257.674 L
823.884 258.979 L
825.924 257.922 L
827.964 254.506 L
830.004 249.393 L
832.045 243.775 L
834.085 239.079 L
836.125 236.578 L
838.165 237.02 L
840.205 240.401 L
842.246 245.938 L
844.286 252.264 L
846.326 257.801 L
848.366 261.182 L
850.406 261.624 L
852.446 259.122 L
854.487 254.427 L
856.527 248.809 L
858.567 243.696 L
860.607 240.28 L
862.647 239.223 L
864.688 240.528 L
866.728 243.603 L
868.768 247.483 L
870.808 251.129 L
872.848 253.711 L
874.888 254.799 L
876.929 254.774 L
878.969 254.856 L
881.009 255.019 L
883.049 254.63 L
885.089 253.147 L
887.129 251.157 L
889.17 249.245 L
891.21 247.847 L
893.25 247.163 L
895.29 247.159 L
897.33 247.638 L
899.371 248.337 L
901.411 249.018 L
903.451 249.523 L
905.491 249.793 L
907.531 249.846 L
909.571 249.744 L
911.612 249.744 L
913.652 249.744 L
915.692 249.744 L
917.732 249.744 L
919.772 249.744 L
921.813 249.744 L
923.853 249.744 L
925.893 249.744 L
927.933 249.744 L
929.973 249.744 L
932.013 249.744 L
934.054 249.744 L
936.094 249.744 L
938.134 249.744 L
940.174 249.744 L
942.214 249.929 L
944.254 250.136 L
946.295 250.322 L
948.335 250.424 L
950.375 250.371 L
952.415 250.101 L
954.455 249.596 L
956.496 248.916 L
958.536 248.217 L
960.576 247.738 L
962.616 247.742 L
964.656 248.426 L
966.696 249.824 L
968.737 251.735 L
970.777 253.726 L
972.817 255.208 L
974.857 255.598 L
976.897 254.51 L
978.938 251.927 L
980.978 248.281 L
983.018 244.401 L
985.058 241.326 L
987.098 240.021 L
989.138 241.078 L
991.179 244.494 L
993.219 249.607 L
995.259 255.225 L
997.299 259.921 L
999.339 262.422 L
1001.379 261.98 L
1003.42 258.599 L
1005.46 253.062 L
1007.5 246.736 L
1009.54 241.199 L
1011.58 237.818 L
1013.621 237.376 L
1015.661 239.878 L
1017.701 244.573 L
1019.741 250.191 L
1021.781 255.304 L
1023.821 258.72 L
1025.862 259.777 L
1027.902 258.472 L
1029.942 255.397 L
1031.982 251.517 L
1034.022 247.871 L
1036.063 245.289 L
1038.103 244.201 L
1040.143 244.226 L
1042.183 244.144 L
1044.223 243.981 L
1046.263 244.37 L
1048.304 245.853 L
1050.344 247.843 L
1052.384 249.755 L
1054.424 251.153 L
1056.464 251.837 L
1058.504 251.841 L
1060.545 251.362 L
1062.585 250.663 L
1064.625 249.982 L
1066.665 249.477 L
1068.705 249.207 L
1070.746 249.154 L
1072.786 249.256 L
1074.826 249.256 L
1076.866 249.256 L
1078.906 249.256 L
1080.946 249.256 L
1082.987 249.256 L
1085.027 249.256 L
1087.067 249.256 L
1089.107 249.256 L
1091.147 249.256 L
1093.188 249.256 L
1095.228 249.256 L
1097.268 249.256 L
1099.308 249.256 L
1101.348 249.256 L
1103.388 249.256 L
1105.429 249.071 L
1107.469 248.864 L
1109.509 248.678 L
1111.549 248.576 L
1113.589 248.629 L
1115.63 248.899 L
1117.67 249.404 L
1119.71 250.084 L
1121.75 250.783 L
1123.79 251.262 L
1125.83 251.258 L
1127.87 250.574 L
1129.911 249.176 L
1131.951 247.265 L
1133.991 245.274 L
1136.031 243.792 L
1138.071 243.402 L
1140.112 244.49 L
1142.152 247.073 L
1144.192 250.719 L
1146.232 254.599 L
1148.272 257.674 L
1150.313 258.979 L
1152.353 257.922 L
1154.393 254.506 L
1156.433 249.393 L
1158.473 243.775 L
1160.513 239.079 L
1162.554 236.578 L
1164.594 237.02 L
1166.634 240.401 L
1168.674 245.938 L
1170.714 252.264 L
1172.755 257.801 L
1174.795 261.182 L
1176.835 261.624 L
1178.875 259.122 L
1180.915 254.427 L
1182.955 248.809 L
1184.996 243.696 L
1187.036 240.28 L
1189.076 239.223 L
1191.116 240.528 L
1193.156 243.603 L
1195.196 247.483 L
1197.237 251.129 L
1199.277 253.711 L
1201.317 254.799 L
1203.357 254.774 L
1205.397 254.856 L
1207.438 255.019 L
1209.478 254.63 L
1211.518 253.147 L
1213.558 251.157 L
1215.598 249.245 L
1217.638 247.847 L
1219.679 247.163 L
1221.719 247.159 L
1223.759 247.638 L
1225.799 248.337 L
S
GR
GS
[0.75 0 0 0.75 0 0] CT
1 GC
N
178 443 M
635 443 L
635 346 L
178 346 L
cp
f
GR
GS
[0.75 0 0 0.75 0 0] CT
0.149 GC
2 setlinecap
1 LJ
0.667 LW
N
178 443 M
635 443 L
S
GR
GS
[0.75 0 0 0.75 0 0] CT
0.149 GC
2 setlinecap
1 LJ
0.667 LW
N
178 346 M
635 346 L
S
GR
GS
[0.75 0 0 0.75 0 0] CT
0.149 GC
2 setlinecap
1 LJ
0.667 LW
N
210.643 443 M
210.643 438.43 L
S
GR
GS
[0.75 0 0 0.75 0 0] CT
0.149 GC
2 setlinecap
1 LJ
0.667 LW
N
275.929 443 M
275.929 438.43 L
S
GR
GS
[0.75 0 0 0.75 0 0] CT
0.149 GC
2 setlinecap
1 LJ
0.667 LW
N
341.214 443 M
341.214 438.43 L
S
GR
GS
[0.75 0 0 0.75 0 0] CT
0.149 GC
2 setlinecap
1 LJ
0.667 LW
N
406.5 443 M
406.5 438.43 L
S
GR
GS
[0.75 0 0 0.75 0 0] CT
0.149 GC
2 setlinecap
1 LJ
0.667 LW
N
471.786 443 M
471.786 438.43 L
S
GR
GS
[0.75 0 0 0.75 0 0] CT
0.149 GC
2 setlinecap
1 LJ
0.667 LW
N
537.071 443 M
537.071 438.43 L
S
GR
GS
[0.75 0 0 0.75 0 0] CT
0.149 GC
2 setlinecap
1 LJ
0.667 LW
N
602.357 443 M
602.357 438.43 L
S
GR
GS
[0.75 0 0 0.75 0 0] CT
0.149 GC
2 setlinecap
1 LJ
0.667 LW
N
210.643 346 M
210.643 350.57 L
S
GR
GS
[0.75 0 0 0.75 0 0] CT
0.149 GC
2 setlinecap
1 LJ
0.667 LW
N
275.929 346 M
275.929 350.57 L
S
GR
GS
[0.75 0 0 0.75 0 0] CT
0.149 GC
2 setlinecap
1 LJ
0.667 LW
N
341.214 346 M
341.214 350.57 L
S
GR
GS
[0.75 0 0 0.75 0 0] CT
0.149 GC
2 setlinecap
1 LJ
0.667 LW
N
406.5 346 M
406.5 350.57 L
S
GR
GS
[0.75 0 0 0.75 0 0] CT
0.149 GC
2 setlinecap
1 LJ
0.667 LW
N
471.786 346 M
471.786 350.57 L
S
GR
GS
[0.75 0 0 0.75 0 0] CT
0.149 GC
2 setlinecap
1 LJ
0.667 LW
N
537.071 346 M
537.071 350.57 L
S
GR
GS
[0.75 0 0 0.75 0 0] CT
0.149 GC
2 setlinecap
1 LJ
0.667 LW
N
602.357 346 M
602.357 350.57 L
S
GR
GS
[0.75 0 0 0.75 157.98214 336.25001] CT
0.149 GC
/Helvetica 13.333 F
GS
[1 0 0 1 0 0] CT
-19 13 moveto 
1 -1 scale
(0.006) t 
GR
GR
GS
[0.75 0 0 0.75 206.94644 336.25001] CT
0.149 GC
/Helvetica 13.333 F
GS
[1 0 0 1 0 0] CT
-19 13 moveto 
1 -1 scale
(0.008) t 
GR
GR
GS
[0.75 0 0 0.75 255.9107 336.25001] CT
0.149 GC
/Helvetica 13.333 F
GS
[1 0 0 1 0 0] CT
-14.5 13 moveto 
1 -1 scale
(0.01) t 
GR
GR
GS
[0.75 0 0 0.75 304.875 336.25001] CT
0.149 GC
/Helvetica 13.333 F
GS
[1 0 0 1 0 0] CT
-19 13 moveto 
1 -1 scale
(0.012) t 
GR
GR
GS
[0.75 0 0 0.75 353.8393 336.25001] CT
0.149 GC
/Helvetica 13.333 F
GS
[1 0 0 1 0 0] CT
-19 13 moveto 
1 -1 scale
(0.014) t 
GR
GR
GS
[0.75 0 0 0.75 402.8036 336.25001] CT
0.149 GC
/Helvetica 13.333 F
GS
[1 0 0 1 0 0] CT
-19 13 moveto 
1 -1 scale
(0.016) t 
GR
GR
GS
[0.75 0 0 0.75 451.76784 336.25001] CT
0.149 GC
/Helvetica 13.333 F
GS
[1 0 0 1 0 0] CT
-19 13 moveto 
1 -1 scale
(0.018) t 
GR
GR
GS
[0.75 0 0 0.75 0 0] CT
0.149 GC
2 setlinecap
1 LJ
0.667 LW
N
178 443 M
178 346 L
S
GR
GS
[0.75 0 0 0.75 0 0] CT
0.149 GC
2 setlinecap
1 LJ
0.667 LW
N
635 443 M
635 346 L
S
GR
GS
[0.75 0 0 0.75 0 0] CT
0.149 GC
2 setlinecap
1 LJ
0.667 LW
N
178 443 M
182.57 443 L
S
GR
GS
[0.75 0 0 0.75 0 0] CT
0.149 GC
2 setlinecap
1 LJ
0.667 LW
N
178 394.5 M
182.57 394.5 L
S
GR
GS
[0.75 0 0 0.75 0 0] CT
0.149 GC
2 setlinecap
1 LJ
0.667 LW
N
178 346 M
182.57 346 L
S
GR
GS
[0.75 0 0 0.75 0 0] CT
0.149 GC
2 setlinecap
1 LJ
0.667 LW
N
635 443 M
630.43 443 L
S
GR
GS
[0.75 0 0 0.75 0 0] CT
0.149 GC
2 setlinecap
1 LJ
0.667 LW
N
635 394.5 M
630.43 394.5 L
S
GR
GS
[0.75 0 0 0.75 0 0] CT
0.149 GC
2 setlinecap
1 LJ
0.667 LW
N
635 346 M
630.43 346 L
S
GR
GS
[0.75 0 0 0.75 129.5 332.25] CT
0.149 GC
/Helvetica 13.333 F
GS
[1 0 0 1 0 0] CT
-13 4.5 moveto 
1 -1 scale
(-1) t 
GR
GR
GS
[0.75 0 0 0.75 129.5 295.875] CT
0.149 GC
/Helvetica 13.333 F
GS
[1 0 0 1 0 0] CT
-9 4.5 moveto 
1 -1 scale
(0) t 
GR
GR
GS
[0.75 0 0 0.75 129.5 259.5] CT
0.149 GC
/Helvetica 13.333 F
GS
[1 0 0 1 0 0] CT
-9 4.5 moveto 
1 -1 scale
(1) t 
GR
GR
GS
[0.75 0 0 0.75 304.87527 257.4375] CT
/Helvetica-Bold 14.667 F
GS
[1 0 0 1 0 0] CT
-5.5 -4 moveto 
1 -1 scale
(5) t 
GR
GR
GS
[0.75 0 0 0.75 0 0] CT
0 0.447 0.741 RC
1 LJ
0.667 LW
N
216.763 394.194 M
218.804 393.366 L
220.844 391.927 L
222.884 389.608 L
224.924 389.534 L
226.964 391.232 L
229.004 393.767 L
231.045 395.706 L
233.085 396.441 L
235.125 395.036 L
237.165 394.806 L
239.205 395.634 L
241.246 397.073 L
243.286 399.392 L
245.326 399.466 L
247.366 397.768 L
249.406 395.233 L
251.446 393.294 L
253.487 392.559 L
255.527 393.964 L
257.567 394.194 L
259.607 393.366 L
261.647 391.927 L
263.688 389.608 L
265.728 389.534 L
267.768 391.232 L
269.808 393.767 L
271.848 395.706 L
273.888 396.441 L
275.929 395.036 L
277.969 394.806 L
280.009 395.634 L
282.049 397.073 L
284.089 399.392 L
286.129 399.466 L
288.17 397.768 L
290.21 395.233 L
292.25 393.294 L
294.29 392.559 L
296.33 393.964 L
298.371 394.194 L
300.411 393.366 L
302.451 391.927 L
304.491 389.608 L
306.531 389.534 L
308.571 391.232 L
310.612 393.767 L
312.652 395.706 L
314.692 396.441 L
316.732 395.036 L
318.772 394.806 L
320.813 395.634 L
322.853 397.073 L
324.893 399.392 L
326.933 399.466 L
328.973 397.768 L
331.013 395.233 L
333.054 393.294 L
335.094 392.559 L
337.134 393.964 L
339.174 394.194 L
341.214 393.366 L
343.254 391.927 L
345.295 389.608 L
347.335 389.534 L
349.375 391.232 L
351.415 393.767 L
353.455 395.706 L
355.496 396.441 L
357.536 395.036 L
359.576 394.806 L
361.616 395.634 L
363.656 397.073 L
365.696 399.392 L
367.737 399.466 L
369.777 397.768 L
371.817 395.233 L
373.857 393.294 L
375.897 392.559 L
377.938 393.964 L
379.978 394.194 L
382.018 393.366 L
384.058 391.927 L
386.098 389.608 L
388.138 389.534 L
390.179 391.232 L
392.219 393.767 L
394.259 395.706 L
396.299 396.441 L
398.339 395.036 L
400.379 394.806 L
402.42 395.634 L
404.46 397.073 L
406.5 399.392 L
408.54 399.466 L
410.58 397.768 L
412.621 395.233 L
414.661 393.294 L
416.701 392.559 L
418.741 393.964 L
420.781 394.194 L
422.821 393.366 L
424.862 391.927 L
426.902 389.608 L
428.942 389.534 L
430.982 391.232 L
433.022 393.767 L
435.063 395.706 L
437.103 396.441 L
439.143 395.036 L
441.183 394.806 L
443.223 395.634 L
445.263 397.073 L
447.304 399.392 L
449.344 399.466 L
451.384 397.768 L
453.424 395.233 L
455.464 393.294 L
457.504 392.559 L
459.545 393.964 L
461.585 394.194 L
463.625 393.366 L
465.665 391.927 L
467.705 389.608 L
469.746 389.534 L
471.786 391.232 L
473.826 393.767 L
475.866 395.706 L
477.906 396.441 L
479.946 395.036 L
481.987 394.806 L
484.027 395.634 L
486.067 397.073 L
488.107 399.392 L
490.147 399.466 L
492.188 397.768 L
494.228 395.233 L
496.268 393.294 L
498.308 392.559 L
500.348 393.964 L
502.388 394.194 L
504.429 393.366 L
506.469 391.927 L
508.509 389.608 L
510.549 389.534 L
512.589 391.232 L
514.629 393.767 L
516.67 395.706 L
518.71 396.441 L
520.75 395.036 L
522.79 394.806 L
524.83 395.634 L
526.87 397.073 L
528.911 399.392 L
530.951 399.466 L
532.991 397.768 L
535.031 395.233 L
537.071 393.294 L
539.112 392.559 L
541.152 393.964 L
543.192 394.194 L
545.232 393.366 L
547.272 391.927 L
549.313 389.608 L
551.353 389.534 L
553.393 391.232 L
555.433 393.767 L
557.473 395.706 L
559.513 396.441 L
561.554 395.036 L
563.594 394.806 L
565.634 395.634 L
567.674 397.073 L
569.714 399.392 L
571.754 399.466 L
573.795 397.768 L
575.835 395.233 L
577.875 393.294 L
579.915 392.559 L
581.955 393.964 L
583.996 394.194 L
586.036 393.366 L
588.076 391.927 L
590.116 389.608 L
592.156 389.534 L
594.196 391.232 L
596.237 393.767 L
598.277 395.706 L
600.317 396.441 L
602.357 395.036 L
604.397 394.806 L
606.438 395.634 L
608.478 397.073 L
610.518 399.392 L
612.558 399.466 L
614.598 397.768 L
616.638 395.233 L
618.679 393.294 L
620.719 392.559 L
622.759 393.964 L
624.799 394.194 L
S
GR
GS
[0.75 0 0 0.75 0 0] CT
0.851 0.325 0.098 RC
1 LJ
0.667 LW
N
216.763 389.105 M
218.804 388.836 L
220.844 391.298 L
222.884 395.799 L
224.924 400.564 L
226.964 403.448 L
229.004 402.929 L
231.045 398.901 L
233.085 392.861 L
235.125 387.335 L
237.165 384.768 L
239.205 386.395 L
241.246 391.626 L
243.286 398.271 L
245.326 403.502 L
247.366 405.129 L
249.406 402.562 L
251.446 397.036 L
253.487 390.996 L
255.527 386.968 L
257.567 386.449 L
259.607 389.333 L
261.647 394.098 L
263.688 398.599 L
265.728 401.061 L
267.768 400.792 L
269.808 398.33 L
271.848 395.028 L
273.888 392.347 L
275.929 392.245 L
277.969 392.059 L
280.009 391.851 L
282.049 391.666 L
284.089 390.536 L
286.129 391.062 L
288.17 392.653 L
290.21 394.423 L
292.25 395.637 L
294.29 395.983 L
296.33 395.59 L
298.371 394.846 L
300.411 394.157 L
302.451 393.768 L
304.491 393.716 L
306.531 393.892 L
308.571 394.14 L
310.612 394.14 L
312.652 394.14 L
314.692 394.14 L
316.732 394.14 L
318.772 394.14 L
320.813 394.14 L
322.853 394.14 L
324.893 394.14 L
326.933 394.14 L
328.973 394.14 L
331.013 394.14 L
333.054 394.14 L
335.094 394.14 L
337.134 394.14 L
339.174 394.14 L
341.214 394.213 L
343.254 394.218 L
345.295 394.123 L
347.335 393.924 L
349.375 393.676 L
351.415 393.5 L
353.455 393.551 L
355.496 393.94 L
357.536 394.63 L
359.576 395.373 L
361.616 395.767 L
363.656 395.421 L
365.696 394.207 L
367.737 392.437 L
369.777 390.846 L
371.817 390.319 L
373.857 391.45 L
375.897 394.131 L
377.938 397.433 L
379.978 399.895 L
382.018 400.164 L
384.058 397.702 L
386.098 393.201 L
388.138 388.436 L
390.179 385.552 L
392.219 386.071 L
394.259 390.099 L
396.299 396.139 L
398.339 401.665 L
400.379 404.232 L
402.42 402.605 L
404.46 397.374 L
406.5 390.729 L
408.54 385.498 L
410.58 383.871 L
412.621 386.438 L
414.661 391.964 L
416.701 398.004 L
418.741 402.032 L
420.781 402.551 L
422.821 399.667 L
424.862 394.902 L
426.902 390.401 L
428.942 387.939 L
430.982 388.208 L
433.022 390.67 L
435.063 393.972 L
437.103 396.653 L
439.143 396.755 L
441.183 396.941 L
443.223 397.149 L
445.263 397.334 L
447.304 398.464 L
449.344 397.938 L
451.384 396.347 L
453.424 394.577 L
455.464 393.363 L
457.504 393.017 L
459.545 393.41 L
461.585 394.154 L
463.625 394.843 L
465.665 395.232 L
467.705 395.284 L
469.746 395.108 L
471.786 394.86 L
473.826 394.86 L
475.866 394.86 L
477.906 394.86 L
479.946 394.86 L
481.987 394.86 L
484.027 394.86 L
486.067 394.86 L
488.107 394.86 L
490.147 394.86 L
492.188 394.86 L
494.228 394.86 L
496.268 394.86 L
498.308 394.86 L
500.348 394.86 L
502.388 394.86 L
504.429 394.787 L
506.469 394.782 L
508.509 394.877 L
510.549 395.076 L
512.589 395.324 L
514.629 395.5 L
516.67 395.449 L
518.71 395.06 L
520.75 394.37 L
522.79 393.627 L
524.83 393.233 L
526.87 393.579 L
528.911 394.793 L
530.951 396.563 L
532.991 398.154 L
535.031 398.681 L
537.071 397.55 L
539.112 394.869 L
541.152 391.567 L
543.192 389.105 L
545.232 388.836 L
547.272 391.298 L
549.313 395.799 L
551.353 400.564 L
553.393 403.448 L
555.433 402.929 L
557.473 398.901 L
559.513 392.861 L
561.554 387.335 L
563.594 384.768 L
565.634 386.395 L
567.674 391.626 L
569.714 398.271 L
571.754 403.502 L
573.795 405.129 L
575.835 402.562 L
577.875 397.036 L
579.915 390.996 L
581.955 386.968 L
583.996 386.449 L
586.036 389.333 L
588.076 394.098 L
590.116 398.599 L
592.156 401.061 L
594.196 400.792 L
596.237 398.33 L
598.277 395.028 L
600.317 392.347 L
602.357 392.245 L
604.397 392.059 L
606.438 391.851 L
608.478 391.666 L
610.518 390.536 L
612.558 391.062 L
614.598 392.653 L
616.638 394.423 L
618.679 395.637 L
620.719 395.983 L
622.759 395.59 L
624.799 394.846 L
S
GR
GS
[0.75 0 0 0.75 0 0] CT
1 GC
N
779 443 M
1236 443 L
1236 346 L
779 346 L
cp
f
GR
GS
[0.75 0 0 0.75 0 0] CT
0.149 GC
2 setlinecap
1 LJ
0.667 LW
N
779 443 M
1236 443 L
S
GR
GS
[0.75 0 0 0.75 0 0] CT
0.149 GC
2 setlinecap
1 LJ
0.667 LW
N
779 346 M
1236 346 L
S
GR
GS
[0.75 0 0 0.75 0 0] CT
0.149 GC
2 setlinecap
1 LJ
0.667 LW
N
811.643 443 M
811.643 438.43 L
S
GR
GS
[0.75 0 0 0.75 0 0] CT
0.149 GC
2 setlinecap
1 LJ
0.667 LW
N
876.929 443 M
876.929 438.43 L
S
GR
GS
[0.75 0 0 0.75 0 0] CT
0.149 GC
2 setlinecap
1 LJ
0.667 LW
N
942.214 443 M
942.214 438.43 L
S
GR
GS
[0.75 0 0 0.75 0 0] CT
0.149 GC
2 setlinecap
1 LJ
0.667 LW
N
1007.5 443 M
1007.5 438.43 L
S
GR
GS
[0.75 0 0 0.75 0 0] CT
0.149 GC
2 setlinecap
1 LJ
0.667 LW
N
1072.786 443 M
1072.786 438.43 L
S
GR
GS
[0.75 0 0 0.75 0 0] CT
0.149 GC
2 setlinecap
1 LJ
0.667 LW
N
1138.071 443 M
1138.071 438.43 L
S
GR
GS
[0.75 0 0 0.75 0 0] CT
0.149 GC
2 setlinecap
1 LJ
0.667 LW
N
1203.357 443 M
1203.357 438.43 L
S
GR
GS
[0.75 0 0 0.75 0 0] CT
0.149 GC
2 setlinecap
1 LJ
0.667 LW
N
811.643 346 M
811.643 350.57 L
S
GR
GS
[0.75 0 0 0.75 0 0] CT
0.149 GC
2 setlinecap
1 LJ
0.667 LW
N
876.929 346 M
876.929 350.57 L
S
GR
GS
[0.75 0 0 0.75 0 0] CT
0.149 GC
2 setlinecap
1 LJ
0.667 LW
N
942.214 346 M
942.214 350.57 L
S
GR
GS
[0.75 0 0 0.75 0 0] CT
0.149 GC
2 setlinecap
1 LJ
0.667 LW
N
1007.5 346 M
1007.5 350.57 L
S
GR
GS
[0.75 0 0 0.75 0 0] CT
0.149 GC
2 setlinecap
1 LJ
0.667 LW
N
1072.786 346 M
1072.786 350.57 L
S
GR
GS
[0.75 0 0 0.75 0 0] CT
0.149 GC
2 setlinecap
1 LJ
0.667 LW
N
1138.071 346 M
1138.071 350.57 L
S
GR
GS
[0.75 0 0 0.75 0 0] CT
0.149 GC
2 setlinecap
1 LJ
0.667 LW
N
1203.357 346 M
1203.357 350.57 L
S
GR
GS
[0.75 0 0 0.75 608.73216 336.25001] CT
0.149 GC
/Helvetica 13.333 F
GS
[1 0 0 1 0 0] CT
-19 13 moveto 
1 -1 scale
(0.006) t 
GR
GR
GS
[0.75 0 0 0.75 657.69644 336.25001] CT
0.149 GC
/Helvetica 13.333 F
GS
[1 0 0 1 0 0] CT
-19 13 moveto 
1 -1 scale
(0.008) t 
GR
GR
GS
[0.75 0 0 0.75 706.66072 336.25001] CT
0.149 GC
/Helvetica 13.333 F
GS
[1 0 0 1 0 0] CT
-14.5 13 moveto 
1 -1 scale
(0.01) t 
GR
GR
GS
[0.75 0 0 0.75 755.625 336.25001] CT
0.149 GC
/Helvetica 13.333 F
GS
[1 0 0 1 0 0] CT
-19 13 moveto 
1 -1 scale
(0.012) t 
GR
GR
GS
[0.75 0 0 0.75 804.58932 336.25001] CT
0.149 GC
/Helvetica 13.333 F
GS
[1 0 0 1 0 0] CT
-19 13 moveto 
1 -1 scale
(0.014) t 
GR
GR
GS
[0.75 0 0 0.75 853.55356 336.25001] CT
0.149 GC
/Helvetica 13.333 F
GS
[1 0 0 1 0 0] CT
-19 13 moveto 
1 -1 scale
(0.016) t 
GR
GR
GS
[0.75 0 0 0.75 902.51788 336.25001] CT
0.149 GC
/Helvetica 13.333 F
GS
[1 0 0 1 0 0] CT
-19 13 moveto 
1 -1 scale
(0.018) t 
GR
GR
GS
[0.75 0 0 0.75 0 0] CT
0.149 GC
2 setlinecap
1 LJ
0.667 LW
N
779 443 M
779 346 L
S
GR
GS
[0.75 0 0 0.75 0 0] CT
0.149 GC
2 setlinecap
1 LJ
0.667 LW
N
1236 443 M
1236 346 L
S
GR
GS
[0.75 0 0 0.75 0 0] CT
0.149 GC
2 setlinecap
1 LJ
0.667 LW
N
779 443 M
783.57 443 L
S
GR
GS
[0.75 0 0 0.75 0 0] CT
0.149 GC
2 setlinecap
1 LJ
0.667 LW
N
779 394.5 M
783.57 394.5 L
S
GR
GS
[0.75 0 0 0.75 0 0] CT
0.149 GC
2 setlinecap
1 LJ
0.667 LW
N
779 346 M
783.57 346 L
S
GR
GS
[0.75 0 0 0.75 0 0] CT
0.149 GC
2 setlinecap
1 LJ
0.667 LW
N
1236 443 M
1231.43 443 L
S
GR
GS
[0.75 0 0 0.75 0 0] CT
0.149 GC
2 setlinecap
1 LJ
0.667 LW
N
1236 394.5 M
1231.43 394.5 L
S
GR
GS
[0.75 0 0 0.75 0 0] CT
0.149 GC
2 setlinecap
1 LJ
0.667 LW
N
1236 346 M
1231.43 346 L
S
GR
GS
[0.75 0 0 0.75 580.25002 332.25] CT
0.149 GC
/Helvetica 13.333 F
GS
[1 0 0 1 0 0] CT
-13 4.5 moveto 
1 -1 scale
(-1) t 
GR
GR
GS
[0.75 0 0 0.75 580.25002 295.875] CT
0.149 GC
/Helvetica 13.333 F
GS
[1 0 0 1 0 0] CT
-9 4.5 moveto 
1 -1 scale
(0) t 
GR
GR
GS
[0.75 0 0 0.75 580.25002 259.5] CT
0.149 GC
/Helvetica 13.333 F
GS
[1 0 0 1 0 0] CT
-9 4.5 moveto 
1 -1 scale
(1) t 
GR
GR
GS
[0.75 0 0 0.75 755.62569 257.4375] CT
/Helvetica-Bold 14.667 F
GS
[1 0 0 1 0 0] CT
-5.5 -4 moveto 
1 -1 scale
(6) t 
GR
GR
GS
[0.75 0 0 0.75 0 0] CT
0 0.447 0.741 RC
1 LJ
0.667 LW
N
817.763 380.689 M
819.804 374.137 L
821.844 385.22 L
823.884 404.965 L
825.924 416.665 L
827.964 410.77 L
830.004 391.912 L
832.045 375.605 L
834.085 375.023 L
836.125 389.889 L
838.165 408.311 L
840.205 414.863 L
842.246 403.78 L
844.286 384.035 L
846.326 372.335 L
848.366 378.23 L
850.406 397.088 L
852.446 413.395 L
854.487 413.977 L
856.527 399.111 L
858.567 380.689 L
860.607 374.137 L
862.647 385.22 L
864.688 404.965 L
866.728 416.665 L
868.768 410.77 L
870.808 391.912 L
872.848 375.605 L
874.888 375.023 L
876.929 389.889 L
878.969 408.311 L
881.009 414.863 L
883.049 403.78 L
885.089 384.035 L
887.129 372.335 L
889.17 378.23 L
891.21 397.088 L
893.25 413.395 L
895.29 413.977 L
897.33 399.111 L
899.371 380.689 L
901.411 374.137 L
903.451 385.22 L
905.491 404.965 L
907.531 416.665 L
909.571 410.77 L
911.612 391.912 L
913.652 375.605 L
915.692 375.023 L
917.732 389.889 L
919.772 408.311 L
921.813 414.863 L
923.853 403.78 L
925.893 384.035 L
927.933 372.335 L
929.973 378.23 L
932.013 397.088 L
934.054 413.395 L
936.094 413.977 L
938.134 399.111 L
940.174 380.689 L
942.214 374.137 L
944.254 385.22 L
946.295 404.965 L
948.335 416.665 L
950.375 410.77 L
952.415 391.912 L
954.455 375.605 L
956.496 375.023 L
958.536 389.889 L
960.576 408.311 L
962.616 414.863 L
964.656 403.78 L
966.696 384.035 L
968.737 372.335 L
970.777 378.23 L
972.817 397.088 L
974.857 413.395 L
976.897 413.977 L
978.938 399.111 L
980.978 380.689 L
983.018 374.137 L
985.058 385.22 L
987.098 404.965 L
989.138 416.665 L
991.179 410.77 L
993.219 391.912 L
995.259 375.605 L
997.299 375.023 L
999.339 389.889 L
1001.379 408.311 L
1003.42 414.863 L
1005.46 403.78 L
1007.5 384.035 L
1009.54 372.335 L
1011.58 378.23 L
1013.621 397.088 L
1015.661 413.395 L
1017.701 413.977 L
1019.741 399.111 L
1021.781 380.689 L
1023.821 374.137 L
1025.862 385.22 L
1027.902 404.965 L
1029.942 416.665 L
1031.982 410.77 L
1034.022 391.912 L
1036.063 375.605 L
1038.103 375.023 L
1040.143 389.889 L
1042.183 408.311 L
1044.223 414.863 L
1046.263 403.78 L
1048.304 384.035 L
1050.344 372.335 L
1052.384 378.23 L
1054.424 397.088 L
1056.464 413.395 L
1058.504 413.977 L
1060.545 399.111 L
1062.585 380.689 L
1064.625 374.137 L
1066.665 385.22 L
1068.705 404.965 L
1070.746 416.665 L
1072.786 410.77 L
1074.826 391.912 L
1076.866 375.605 L
1078.906 375.023 L
1080.946 389.889 L
1082.987 408.311 L
1085.027 414.863 L
1087.067 403.78 L
1089.107 384.035 L
1091.147 372.335 L
1093.188 378.23 L
1095.228 397.088 L
1097.268 413.395 L
1099.308 413.977 L
1101.348 399.111 L
1103.388 380.689 L
1105.429 374.137 L
1107.469 385.22 L
1109.509 404.965 L
1111.549 416.665 L
1113.589 410.77 L
1115.63 391.912 L
1117.67 375.605 L
1119.71 375.023 L
1121.75 389.889 L
1123.79 408.311 L
1125.83 414.863 L
1127.87 403.78 L
1129.911 384.035 L
1131.951 372.335 L
1133.991 378.23 L
1136.031 397.088 L
1138.071 413.395 L
1140.112 413.977 L
1142.152 399.111 L
1144.192 380.689 L
1146.232 374.137 L
1148.272 385.22 L
1150.313 404.965 L
1152.353 416.665 L
1154.393 410.77 L
1156.433 391.912 L
1158.473 375.605 L
1160.513 375.023 L
1162.554 389.889 L
1164.594 408.311 L
1166.634 414.863 L
1168.674 403.78 L
1170.714 384.035 L
1172.755 372.335 L
1174.795 378.23 L
1176.835 397.088 L
1178.875 413.395 L
1180.915 413.977 L
1182.955 399.111 L
1184.996 380.689 L
1187.036 374.137 L
1189.076 385.22 L
1191.116 404.965 L
1193.156 416.665 L
1195.196 410.77 L
1197.237 391.912 L
1199.277 375.605 L
1201.317 375.023 L
1203.357 389.889 L
1205.397 408.311 L
1207.438 414.863 L
1209.478 403.78 L
1211.518 384.035 L
1213.558 372.335 L
1215.598 378.23 L
1217.638 397.088 L
1219.679 413.395 L
1221.719 413.977 L
1223.759 399.111 L
1225.799 380.689 L
S
GR
GS
[0.75 0 0 0.75 0 0] CT
0.851 0.325 0.098 RC
1 LJ
0.667 LW
N
817.763 397.173 M
819.804 397.73 L
821.844 395.066 L
823.884 390.309 L
825.924 387.437 L
827.964 390.022 L
830.004 397.3 L
832.045 403.697 L
834.085 403.195 L
836.125 395.06 L
838.165 385.381 L
840.205 382.302 L
842.246 388.83 L
844.286 399.853 L
846.326 406.38 L
848.366 403.301 L
850.406 393.622 L
852.446 385.487 L
854.487 384.986 L
856.527 391.383 L
858.567 398.661 L
860.607 401.245 L
862.647 398.373 L
864.688 393.616 L
866.728 390.952 L
868.768 391.509 L
870.808 393.596 L
872.848 395.063 L
874.888 395.238 L
876.929 395.486 L
878.969 395.685 L
881.009 395.781 L
883.049 395.775 L
885.089 395.703 L
887.129 395.305 L
889.17 395.127 L
891.21 395.186 L
893.25 395.049 L
895.29 394.587 L
897.33 394.172 L
899.371 394.213 L
901.411 394.676 L
903.451 395.147 L
905.491 395.267 L
907.531 395.04 L
909.571 394.736 L
911.612 394.736 L
913.652 394.736 L
915.692 394.736 L
917.732 394.736 L
919.772 394.736 L
921.813 394.736 L
923.853 394.736 L
925.893 394.736 L
927.933 394.736 L
929.973 394.736 L
932.013 394.736 L
934.054 394.736 L
936.094 394.736 L
938.134 394.736 L
940.174 394.736 L
942.214 394.733 L
944.254 394.642 L
946.295 394.505 L
948.335 394.448 L
950.375 394.589 L
952.415 394.893 L
954.455 395.12 L
956.496 395 L
958.536 394.53 L
960.576 394.066 L
962.616 394.026 L
964.656 394.44 L
966.696 394.903 L
968.737 395.039 L
970.777 394.98 L
972.817 395.158 L
974.857 395.556 L
976.897 395.381 L
978.938 393.913 L
980.978 391.827 L
983.018 391.27 L
985.058 393.934 L
987.098 398.691 L
989.138 401.563 L
991.179 398.978 L
993.219 391.7 L
995.259 385.303 L
997.299 385.805 L
999.339 393.94 L
1001.379 403.619 L
1003.42 406.698 L
1005.46 400.17 L
1007.5 389.147 L
1009.54 382.62 L
1011.58 385.699 L
1013.621 395.378 L
1015.661 403.513 L
1017.701 404.014 L
1019.741 397.617 L
1021.781 390.339 L
1023.821 387.755 L
1025.862 390.627 L
1027.902 395.384 L
1029.942 398.048 L
1031.982 397.491 L
1034.022 395.404 L
1036.063 393.937 L
1038.103 393.762 L
1040.143 393.514 L
1042.183 393.315 L
1044.223 393.219 L
1046.263 393.225 L
1048.304 393.297 L
1050.344 393.695 L
1052.384 393.873 L
1054.424 393.814 L
1056.464 393.951 L
1058.504 394.413 L
1060.545 394.828 L
1062.585 394.787 L
1064.625 394.324 L
1066.665 393.853 L
1068.705 393.733 L
1070.746 393.96 L
1072.786 394.264 L
1074.826 394.264 L
1076.866 394.264 L
1078.906 394.264 L
1080.946 394.264 L
1082.987 394.264 L
1085.027 394.264 L
1087.067 394.264 L
1089.107 394.264 L
1091.147 394.264 L
1093.188 394.264 L
1095.228 394.264 L
1097.268 394.264 L
1099.308 394.264 L
1101.348 394.264 L
1103.388 394.264 L
1105.429 394.267 L
1107.469 394.358 L
1109.509 394.495 L
1111.549 394.552 L
1113.589 394.411 L
1115.63 394.107 L
1117.67 393.88 L
1119.71 394 L
1121.75 394.47 L
1123.79 394.934 L
1125.83 394.974 L
1127.87 394.56 L
1129.911 394.097 L
1131.951 393.961 L
1133.991 394.02 L
1136.031 393.842 L
1138.071 393.444 L
1140.112 393.619 L
1142.152 395.087 L
1144.192 397.173 L
1146.232 397.73 L
1148.272 395.066 L
1150.313 390.309 L
1152.353 387.437 L
1154.393 390.022 L
1156.433 397.3 L
1158.473 403.697 L
1160.513 403.195 L
1162.554 395.06 L
1164.594 385.381 L
1166.634 382.302 L
1168.674 388.83 L
1170.714 399.853 L
1172.755 406.38 L
1174.795 403.301 L
1176.835 393.622 L
1178.875 385.487 L
1180.915 384.986 L
1182.955 391.383 L
1184.996 398.661 L
1187.036 401.245 L
1189.076 398.373 L
1191.116 393.616 L
1193.156 390.952 L
1195.196 391.509 L
1197.237 393.596 L
1199.277 395.063 L
1201.317 395.238 L
1203.357 395.486 L
1205.397 395.685 L
1207.438 395.781 L
1209.478 395.775 L
1211.518 395.703 L
1213.558 395.305 L
1215.598 395.127 L
1217.638 395.186 L
1219.679 395.049 L
1221.719 394.587 L
1223.759 394.172 L
1225.799 394.213 L
S
GR
GS
[0.75 0 0 0.75 0 0] CT
1 GC
N
178 587 M
635 587 L
635 490 L
178 490 L
cp
f
GR
GS
[0.75 0 0 0.75 0 0] CT
0.149 GC
2 setlinecap
1 LJ
0.667 LW
N
178 587 M
635 587 L
S
GR
GS
[0.75 0 0 0.75 0 0] CT
0.149 GC
2 setlinecap
1 LJ
0.667 LW
N
178 490 M
635 490 L
S
GR
GS
[0.75 0 0 0.75 0 0] CT
0.149 GC
2 setlinecap
1 LJ
0.667 LW
N
210.643 587 M
210.643 582.43 L
S
GR
GS
[0.75 0 0 0.75 0 0] CT
0.149 GC
2 setlinecap
1 LJ
0.667 LW
N
275.929 587 M
275.929 582.43 L
S
GR
GS
[0.75 0 0 0.75 0 0] CT
0.149 GC
2 setlinecap
1 LJ
0.667 LW
N
341.214 587 M
341.214 582.43 L
S
GR
GS
[0.75 0 0 0.75 0 0] CT
0.149 GC
2 setlinecap
1 LJ
0.667 LW
N
406.5 587 M
406.5 582.43 L
S
GR
GS
[0.75 0 0 0.75 0 0] CT
0.149 GC
2 setlinecap
1 LJ
0.667 LW
N
471.786 587 M
471.786 582.43 L
S
GR
GS
[0.75 0 0 0.75 0 0] CT
0.149 GC
2 setlinecap
1 LJ
0.667 LW
N
537.071 587 M
537.071 582.43 L
S
GR
GS
[0.75 0 0 0.75 0 0] CT
0.149 GC
2 setlinecap
1 LJ
0.667 LW
N
602.357 587 M
602.357 582.43 L
S
GR
GS
[0.75 0 0 0.75 0 0] CT
0.149 GC
2 setlinecap
1 LJ
0.667 LW
N
210.643 490 M
210.643 494.57 L
S
GR
GS
[0.75 0 0 0.75 0 0] CT
0.149 GC
2 setlinecap
1 LJ
0.667 LW
N
275.929 490 M
275.929 494.57 L
S
GR
GS
[0.75 0 0 0.75 0 0] CT
0.149 GC
2 setlinecap
1 LJ
0.667 LW
N
341.214 490 M
341.214 494.57 L
S
GR
GS
[0.75 0 0 0.75 0 0] CT
0.149 GC
2 setlinecap
1 LJ
0.667 LW
N
406.5 490 M
406.5 494.57 L
S
GR
GS
[0.75 0 0 0.75 0 0] CT
0.149 GC
2 setlinecap
1 LJ
0.667 LW
N
471.786 490 M
471.786 494.57 L
S
GR
GS
[0.75 0 0 0.75 0 0] CT
0.149 GC
2 setlinecap
1 LJ
0.667 LW
N
537.071 490 M
537.071 494.57 L
S
GR
GS
[0.75 0 0 0.75 0 0] CT
0.149 GC
2 setlinecap
1 LJ
0.667 LW
N
602.357 490 M
602.357 494.57 L
S
GR
GS
[0.75 0 0 0.75 157.98214 444.24998] CT
0.149 GC
/Helvetica 13.333 F
GS
[1 0 0 1 0 0] CT
-19 13 moveto 
1 -1 scale
(0.006) t 
GR
GR
GS
[0.75 0 0 0.75 206.94644 444.24998] CT
0.149 GC
/Helvetica 13.333 F
GS
[1 0 0 1 0 0] CT
-19 13 moveto 
1 -1 scale
(0.008) t 
GR
GR
GS
[0.75 0 0 0.75 255.9107 444.24998] CT
0.149 GC
/Helvetica 13.333 F
GS
[1 0 0 1 0 0] CT
-14.5 13 moveto 
1 -1 scale
(0.01) t 
GR
GR
GS
[0.75 0 0 0.75 304.875 444.24998] CT
0.149 GC
/Helvetica 13.333 F
GS
[1 0 0 1 0 0] CT
-19 13 moveto 
1 -1 scale
(0.012) t 
GR
GR
GS
[0.75 0 0 0.75 353.8393 444.24998] CT
0.149 GC
/Helvetica 13.333 F
GS
[1 0 0 1 0 0] CT
-19 13 moveto 
1 -1 scale
(0.014) t 
GR
GR
GS
[0.75 0 0 0.75 402.8036 444.24998] CT
0.149 GC
/Helvetica 13.333 F
GS
[1 0 0 1 0 0] CT
-19 13 moveto 
1 -1 scale
(0.016) t 
GR
GR
GS
[0.75 0 0 0.75 451.76784 444.24998] CT
0.149 GC
/Helvetica 13.333 F
GS
[1 0 0 1 0 0] CT
-19 13 moveto 
1 -1 scale
(0.018) t 
GR
GR
GS
[0.75 0 0 0.75 0 0] CT
0.149 GC
2 setlinecap
1 LJ
0.667 LW
N
178 587 M
178 490 L
S
GR
GS
[0.75 0 0 0.75 0 0] CT
0.149 GC
2 setlinecap
1 LJ
0.667 LW
N
635 587 M
635 490 L
S
GR
GS
[0.75 0 0 0.75 0 0] CT
0.149 GC
2 setlinecap
1 LJ
0.667 LW
N
178 587 M
182.57 587 L
S
GR
GS
[0.75 0 0 0.75 0 0] CT
0.149 GC
2 setlinecap
1 LJ
0.667 LW
N
178 538.5 M
182.57 538.5 L
S
GR
GS
[0.75 0 0 0.75 0 0] CT
0.149 GC
2 setlinecap
1 LJ
0.667 LW
N
178 490 M
182.57 490 L
S
GR
GS
[0.75 0 0 0.75 0 0] CT
0.149 GC
2 setlinecap
1 LJ
0.667 LW
N
635 587 M
630.43 587 L
S
GR
GS
[0.75 0 0 0.75 0 0] CT
0.149 GC
2 setlinecap
1 LJ
0.667 LW
N
635 538.5 M
630.43 538.5 L
S
GR
GS
[0.75 0 0 0.75 0 0] CT
0.149 GC
2 setlinecap
1 LJ
0.667 LW
N
635 490 M
630.43 490 L
S
GR
GS
[0.75 0 0 0.75 129.5 440.25] CT
0.149 GC
/Helvetica 13.333 F
GS
[1 0 0 1 0 0] CT
-13 4.5 moveto 
1 -1 scale
(-1) t 
GR
GR
GS
[0.75 0 0 0.75 129.5 403.875] CT
0.149 GC
/Helvetica 13.333 F
GS
[1 0 0 1 0 0] CT
-9 4.5 moveto 
1 -1 scale
(0) t 
GR
GR
GS
[0.75 0 0 0.75 129.5 367.5] CT
0.149 GC
/Helvetica 13.333 F
GS
[1 0 0 1 0 0] CT
-9 4.5 moveto 
1 -1 scale
(1) t 
GR
GR
GS
[0.75 0 0 0.75 304.87527 365.4375] CT
/Helvetica-Bold 14.667 F
GS
[1 0 0 1 0 0] CT
-5.5 -4 moveto 
1 -1 scale
(7) t 
GR
GR
GS
[0.75 0 0 0.75 0 0] CT
0 0.447 0.741 RC
1 LJ
0.667 LW
N
216.763 539.814 M
218.804 537.339 L
220.844 537.615 L
222.884 540.34 L
224.924 540.278 L
226.964 537.387 L
229.004 537.274 L
231.045 539.701 L
233.085 539.583 L
235.125 537.171 L
237.165 537.186 L
239.205 539.661 L
241.246 539.385 L
243.286 536.66 L
245.326 536.722 L
247.366 539.613 L
249.406 539.726 L
251.446 537.299 L
253.487 537.417 L
255.527 539.829 L
257.567 539.814 L
259.607 537.339 L
261.647 537.615 L
263.688 540.34 L
265.728 540.278 L
267.768 537.387 L
269.808 537.274 L
271.848 539.701 L
273.888 539.583 L
275.929 537.171 L
277.969 537.186 L
280.009 539.661 L
282.049 539.385 L
284.089 536.66 L
286.129 536.722 L
288.17 539.613 L
290.21 539.726 L
292.25 537.299 L
294.29 537.417 L
296.33 539.829 L
298.371 539.814 L
300.411 537.339 L
302.451 537.615 L
304.491 540.34 L
306.531 540.278 L
308.571 537.387 L
310.612 537.274 L
312.652 539.701 L
314.692 539.583 L
316.732 537.171 L
318.772 537.186 L
320.813 539.661 L
322.853 539.385 L
324.893 536.66 L
326.933 536.722 L
328.973 539.613 L
331.013 539.726 L
333.054 537.299 L
335.094 537.417 L
337.134 539.829 L
339.174 539.814 L
341.214 537.339 L
343.254 537.615 L
345.295 540.34 L
347.335 540.278 L
349.375 537.387 L
351.415 537.274 L
353.455 539.701 L
355.496 539.583 L
357.536 537.171 L
359.576 537.186 L
361.616 539.661 L
363.656 539.385 L
365.696 536.66 L
367.737 536.722 L
369.777 539.613 L
371.817 539.726 L
373.857 537.299 L
375.897 537.417 L
377.938 539.829 L
379.978 539.814 L
382.018 537.339 L
384.058 537.615 L
386.098 540.34 L
388.138 540.278 L
390.179 537.387 L
392.219 537.274 L
394.259 539.701 L
396.299 539.583 L
398.339 537.171 L
400.379 537.186 L
402.42 539.661 L
404.46 539.385 L
406.5 536.66 L
408.54 536.722 L
410.58 539.613 L
412.621 539.726 L
414.661 537.299 L
416.701 537.417 L
418.741 539.829 L
420.781 539.814 L
422.821 537.339 L
424.862 537.615 L
426.902 540.34 L
428.942 540.278 L
430.982 537.387 L
433.022 537.274 L
435.063 539.701 L
437.103 539.583 L
439.143 537.171 L
441.183 537.186 L
443.223 539.661 L
445.263 539.385 L
447.304 536.66 L
449.344 536.722 L
451.384 539.613 L
453.424 539.726 L
455.464 537.299 L
457.504 537.417 L
459.545 539.829 L
461.585 539.814 L
463.625 537.339 L
465.665 537.615 L
467.705 540.34 L
469.746 540.278 L
471.786 537.387 L
473.826 537.274 L
475.866 539.701 L
477.906 539.583 L
479.946 537.171 L
481.987 537.186 L
484.027 539.661 L
486.067 539.385 L
488.107 536.66 L
490.147 536.722 L
492.188 539.613 L
494.228 539.726 L
496.268 537.299 L
498.308 537.417 L
500.348 539.829 L
502.388 539.814 L
504.429 537.339 L
506.469 537.615 L
508.509 540.34 L
510.549 540.278 L
512.589 537.387 L
514.629 537.274 L
516.67 539.701 L
518.71 539.583 L
520.75 537.171 L
522.79 537.186 L
524.83 539.661 L
526.87 539.385 L
528.911 536.66 L
530.951 536.722 L
532.991 539.613 L
535.031 539.726 L
537.071 537.299 L
539.112 537.417 L
541.152 539.829 L
543.192 539.814 L
545.232 537.339 L
547.272 537.615 L
549.313 540.34 L
551.353 540.278 L
553.393 537.387 L
555.433 537.274 L
557.473 539.701 L
559.513 539.583 L
561.554 537.171 L
563.594 537.186 L
565.634 539.661 L
567.674 539.385 L
569.714 536.66 L
571.754 536.722 L
573.795 539.613 L
575.835 539.726 L
577.875 537.299 L
579.915 537.417 L
581.955 539.829 L
583.996 539.814 L
586.036 537.339 L
588.076 537.615 L
590.116 540.34 L
592.156 540.278 L
594.196 537.387 L
596.237 537.274 L
598.277 539.701 L
600.317 539.583 L
602.357 537.171 L
604.397 537.186 L
606.438 539.661 L
608.478 539.385 L
610.518 536.66 L
612.558 536.722 L
614.598 539.613 L
616.638 539.726 L
618.679 537.299 L
620.719 537.417 L
622.759 539.829 L
624.799 539.814 L
S
GR
GS
[0.75 0 0 0.75 0 0] CT
0.851 0.325 0.098 RC
1 LJ
0.667 LW
N
216.763 539.448 M
218.804 536.375 L
220.844 535.675 L
222.884 539.988 L
224.924 543.735 L
226.964 540.1 L
229.004 532.976 L
231.045 533.348 L
233.085 542.212 L
235.125 546.836 L
237.165 539.394 L
239.205 530.21 L
241.246 533.121 L
243.286 544.148 L
245.326 547.06 L
247.366 537.875 L
249.406 530.433 L
251.446 535.057 L
253.487 543.922 L
255.527 544.293 L
257.567 537.169 L
259.607 533.534 L
261.647 537.281 L
263.688 541.594 L
265.728 540.894 L
267.768 537.821 L
269.808 537.005 L
271.848 538.34 L
273.888 539.171 L
275.929 538.867 L
277.969 538.726 L
280.009 538.783 L
282.049 538.92 L
284.089 539.01 L
286.129 539.014 L
288.17 538.788 L
290.21 538.609 L
292.25 538.626 L
294.29 538.317 L
296.33 538.022 L
298.371 538.344 L
300.411 538.876 L
302.451 538.826 L
304.491 538.33 L
306.531 538.139 L
308.571 538.42 L
310.612 538.42 L
312.652 538.42 L
314.692 538.42 L
316.732 538.42 L
318.772 538.42 L
320.813 538.42 L
322.853 538.42 L
324.893 538.42 L
326.933 538.42 L
328.973 538.42 L
331.013 538.42 L
333.054 538.42 L
335.094 538.42 L
337.134 538.42 L
339.174 538.42 L
341.214 538.363 L
343.254 538.267 L
345.295 538.299 L
347.335 538.487 L
349.375 538.562 L
351.415 538.308 L
353.455 538.027 L
355.496 538.219 L
357.536 538.714 L
359.576 538.764 L
361.616 538.232 L
363.656 537.91 L
365.696 538.205 L
367.737 538.514 L
369.777 538.498 L
371.817 538.676 L
373.857 538.902 L
375.897 538.071 L
377.938 536.736 L
379.978 537.552 L
382.018 540.625 L
384.058 541.325 L
386.098 537.012 L
388.138 533.265 L
390.179 536.9 L
392.219 544.024 L
394.259 543.652 L
396.299 534.788 L
398.339 530.164 L
400.379 537.606 L
402.42 546.79 L
404.46 543.879 L
406.5 532.852 L
408.54 529.94 L
410.58 539.125 L
412.621 546.567 L
414.661 541.943 L
416.701 533.078 L
418.741 532.707 L
420.781 539.831 L
422.821 543.466 L
424.862 539.719 L
426.902 535.406 L
428.942 536.106 L
430.982 539.179 L
433.022 539.995 L
435.063 538.66 L
437.103 537.829 L
439.143 538.133 L
441.183 538.274 L
443.223 538.217 L
445.263 538.08 L
447.304 537.99 L
449.344 537.986 L
451.384 538.212 L
453.424 538.391 L
455.464 538.374 L
457.504 538.683 L
459.545 538.978 L
461.585 538.656 L
463.625 538.124 L
465.665 538.174 L
467.705 538.67 L
469.746 538.861 L
471.786 538.58 L
473.826 538.58 L
475.866 538.58 L
477.906 538.58 L
479.946 538.58 L
481.987 538.58 L
484.027 538.58 L
486.067 538.58 L
488.107 538.58 L
490.147 538.58 L
492.188 538.58 L
494.228 538.58 L
496.268 538.58 L
498.308 538.58 L
500.348 538.58 L
502.388 538.58 L
504.429 538.637 L
506.469 538.733 L
508.509 538.701 L
510.549 538.513 L
512.589 538.438 L
514.629 538.692 L
516.67 538.973 L
518.71 538.781 L
520.75 538.286 L
522.79 538.236 L
524.83 538.768 L
526.87 539.09 L
528.911 538.795 L
530.951 538.486 L
532.991 538.502 L
535.031 538.324 L
537.071 538.098 L
539.112 538.929 L
541.152 540.264 L
543.192 539.448 L
545.232 536.375 L
547.272 535.675 L
549.313 539.988 L
551.353 543.735 L
553.393 540.1 L
555.433 532.976 L
557.473 533.348 L
559.513 542.212 L
561.554 546.836 L
563.594 539.394 L
565.634 530.21 L
567.674 533.121 L
569.714 544.148 L
571.754 547.06 L
573.795 537.875 L
575.835 530.433 L
577.875 535.057 L
579.915 543.922 L
581.955 544.293 L
583.996 537.169 L
586.036 533.534 L
588.076 537.281 L
590.116 541.594 L
592.156 540.894 L
594.196 537.821 L
596.237 537.005 L
598.277 538.34 L
600.317 539.171 L
602.357 538.867 L
604.397 538.726 L
606.438 538.783 L
608.478 538.92 L
610.518 539.01 L
612.558 539.014 L
614.598 538.788 L
616.638 538.609 L
618.679 538.626 L
620.719 538.317 L
622.759 538.022 L
624.799 538.344 L
S
GR
GS
[0.75 0 0 0.75 0 0] CT
1 GC
N
779 587 M
1236 587 L
1236 490 L
779 490 L
cp
f
GR
GS
[0.75 0 0 0.75 0 0] CT
0.149 GC
2 setlinecap
1 LJ
0.667 LW
N
779 587 M
1236 587 L
S
GR
GS
[0.75 0 0 0.75 0 0] CT
0.149 GC
2 setlinecap
1 LJ
0.667 LW
N
779 490 M
1236 490 L
S
GR
GS
[0.75 0 0 0.75 0 0] CT
0.149 GC
2 setlinecap
1 LJ
0.667 LW
N
811.643 587 M
811.643 582.43 L
S
GR
GS
[0.75 0 0 0.75 0 0] CT
0.149 GC
2 setlinecap
1 LJ
0.667 LW
N
876.929 587 M
876.929 582.43 L
S
GR
GS
[0.75 0 0 0.75 0 0] CT
0.149 GC
2 setlinecap
1 LJ
0.667 LW
N
942.214 587 M
942.214 582.43 L
S
GR
GS
[0.75 0 0 0.75 0 0] CT
0.149 GC
2 setlinecap
1 LJ
0.667 LW
N
1007.5 587 M
1007.5 582.43 L
S
GR
GS
[0.75 0 0 0.75 0 0] CT
0.149 GC
2 setlinecap
1 LJ
0.667 LW
N
1072.786 587 M
1072.786 582.43 L
S
GR
GS
[0.75 0 0 0.75 0 0] CT
0.149 GC
2 setlinecap
1 LJ
0.667 LW
N
1138.071 587 M
1138.071 582.43 L
S
GR
GS
[0.75 0 0 0.75 0 0] CT
0.149 GC
2 setlinecap
1 LJ
0.667 LW
N
1203.357 587 M
1203.357 582.43 L
S
GR
GS
[0.75 0 0 0.75 0 0] CT
0.149 GC
2 setlinecap
1 LJ
0.667 LW
N
811.643 490 M
811.643 494.57 L
S
GR
GS
[0.75 0 0 0.75 0 0] CT
0.149 GC
2 setlinecap
1 LJ
0.667 LW
N
876.929 490 M
876.929 494.57 L
S
GR
GS
[0.75 0 0 0.75 0 0] CT
0.149 GC
2 setlinecap
1 LJ
0.667 LW
N
942.214 490 M
942.214 494.57 L
S
GR
GS
[0.75 0 0 0.75 0 0] CT
0.149 GC
2 setlinecap
1 LJ
0.667 LW
N
1007.5 490 M
1007.5 494.57 L
S
GR
GS
[0.75 0 0 0.75 0 0] CT
0.149 GC
2 setlinecap
1 LJ
0.667 LW
N
1072.786 490 M
1072.786 494.57 L
S
GR
GS
[0.75 0 0 0.75 0 0] CT
0.149 GC
2 setlinecap
1 LJ
0.667 LW
N
1138.071 490 M
1138.071 494.57 L
S
GR
GS
[0.75 0 0 0.75 0 0] CT
0.149 GC
2 setlinecap
1 LJ
0.667 LW
N
1203.357 490 M
1203.357 494.57 L
S
GR
GS
[0.75 0 0 0.75 608.73216 444.24998] CT
0.149 GC
/Helvetica 13.333 F
GS
[1 0 0 1 0 0] CT
-19 13 moveto 
1 -1 scale
(0.006) t 
GR
GR
GS
[0.75 0 0 0.75 657.69644 444.24998] CT
0.149 GC
/Helvetica 13.333 F
GS
[1 0 0 1 0 0] CT
-19 13 moveto 
1 -1 scale
(0.008) t 
GR
GR
GS
[0.75 0 0 0.75 706.66072 444.24998] CT
0.149 GC
/Helvetica 13.333 F
GS
[1 0 0 1 0 0] CT
-14.5 13 moveto 
1 -1 scale
(0.01) t 
GR
GR
GS
[0.75 0 0 0.75 755.625 444.24998] CT
0.149 GC
/Helvetica 13.333 F
GS
[1 0 0 1 0 0] CT
-19 13 moveto 
1 -1 scale
(0.012) t 
GR
GR
GS
[0.75 0 0 0.75 804.58932 444.24998] CT
0.149 GC
/Helvetica 13.333 F
GS
[1 0 0 1 0 0] CT
-19 13 moveto 
1 -1 scale
(0.014) t 
GR
GR
GS
[0.75 0 0 0.75 853.55356 444.24998] CT
0.149 GC
/Helvetica 13.333 F
GS
[1 0 0 1 0 0] CT
-19 13 moveto 
1 -1 scale
(0.016) t 
GR
GR
GS
[0.75 0 0 0.75 902.51788 444.24998] CT
0.149 GC
/Helvetica 13.333 F
GS
[1 0 0 1 0 0] CT
-19 13 moveto 
1 -1 scale
(0.018) t 
GR
GR
GS
[0.75 0 0 0.75 0 0] CT
0.149 GC
2 setlinecap
1 LJ
0.667 LW
N
779 587 M
779 490 L
S
GR
GS
[0.75 0 0 0.75 0 0] CT
0.149 GC
2 setlinecap
1 LJ
0.667 LW
N
1236 587 M
1236 490 L
S
GR
GS
[0.75 0 0 0.75 0 0] CT
0.149 GC
2 setlinecap
1 LJ
0.667 LW
N
779 587 M
783.57 587 L
S
GR
GS
[0.75 0 0 0.75 0 0] CT
0.149 GC
2 setlinecap
1 LJ
0.667 LW
N
779 538.5 M
783.57 538.5 L
S
GR
GS
[0.75 0 0 0.75 0 0] CT
0.149 GC
2 setlinecap
1 LJ
0.667 LW
N
779 490 M
783.57 490 L
S
GR
GS
[0.75 0 0 0.75 0 0] CT
0.149 GC
2 setlinecap
1 LJ
0.667 LW
N
1236 587 M
1231.43 587 L
S
GR
GS
[0.75 0 0 0.75 0 0] CT
0.149 GC
2 setlinecap
1 LJ
0.667 LW
N
1236 538.5 M
1231.43 538.5 L
S
GR
GS
[0.75 0 0 0.75 0 0] CT
0.149 GC
2 setlinecap
1 LJ
0.667 LW
N
1236 490 M
1231.43 490 L
S
GR
GS
[0.75 0 0 0.75 580.25002 440.25] CT
0.149 GC
/Helvetica 13.333 F
GS
[1 0 0 1 0 0] CT
-13 4.5 moveto 
1 -1 scale
(-1) t 
GR
GR
GS
[0.75 0 0 0.75 580.25002 403.875] CT
0.149 GC
/Helvetica 13.333 F
GS
[1 0 0 1 0 0] CT
-9 4.5 moveto 
1 -1 scale
(0) t 
GR
GR
GS
[0.75 0 0 0.75 580.25002 367.5] CT
0.149 GC
/Helvetica 13.333 F
GS
[1 0 0 1 0 0] CT
-9 4.5 moveto 
1 -1 scale
(1) t 
GR
GR
GS
[0.75 0 0 0.75 755.62569 365.4375] CT
/Helvetica-Bold 14.667 F
GS
[1 0 0 1 0 0] CT
-5.5 -4 moveto 
1 -1 scale
(8) t 
GR
GR
GS
[0.75 0 0 0.75 0 0] CT
0 0.447 0.741 RC
1 LJ
0.667 LW
N
817.763 551.792 M
819.804 531.054 L
821.844 525.371 L
823.884 553.145 L
825.924 545.559 L
827.964 526.03 L
830.004 537.403 L
832.045 544.061 L
834.085 544 L
836.125 536.128 L
838.165 525.208 L
840.205 545.946 L
842.246 551.629 L
844.286 523.855 L
846.326 531.441 L
848.366 550.97 L
850.406 539.597 L
852.446 532.939 L
854.487 533 L
856.527 540.872 L
858.567 551.792 L
860.607 531.054 L
862.647 525.371 L
864.688 553.145 L
866.728 545.559 L
868.768 526.03 L
870.808 537.403 L
872.848 544.061 L
874.888 544 L
876.929 536.128 L
878.969 525.208 L
881.009 545.946 L
883.049 551.629 L
885.089 523.855 L
887.129 531.441 L
889.17 550.97 L
891.21 539.597 L
893.25 532.939 L
895.29 533 L
897.33 540.872 L
899.371 551.792 L
901.411 531.054 L
903.451 525.371 L
905.491 553.145 L
907.531 545.559 L
909.571 526.03 L
911.612 537.403 L
913.652 544.061 L
915.692 544 L
917.732 536.128 L
919.772 525.208 L
921.813 545.946 L
923.853 551.629 L
925.893 523.855 L
927.933 531.441 L
929.973 550.97 L
932.013 539.597 L
934.054 532.939 L
936.094 533 L
938.134 540.872 L
940.174 551.792 L
942.214 531.054 L
944.254 525.371 L
946.295 553.145 L
948.335 545.559 L
950.375 526.03 L
952.415 537.403 L
954.455 544.061 L
956.496 544 L
958.536 536.128 L
960.576 525.208 L
962.616 545.946 L
964.656 551.629 L
966.696 523.855 L
968.737 531.441 L
970.777 550.97 L
972.817 539.597 L
974.857 532.939 L
976.897 533 L
978.938 540.872 L
980.978 551.792 L
983.018 531.054 L
985.058 525.371 L
987.098 553.145 L
989.138 545.559 L
991.179 526.03 L
993.219 537.403 L
995.259 544.061 L
997.299 544 L
999.339 536.128 L
1001.379 525.208 L
1003.42 545.946 L
1005.46 551.629 L
1007.5 523.855 L
1009.54 531.441 L
1011.58 550.97 L
1013.621 539.597 L
1015.661 532.939 L
1017.701 533 L
1019.741 540.872 L
1021.781 551.792 L
1023.821 531.054 L
1025.862 525.371 L
1027.902 553.145 L
1029.942 545.559 L
1031.982 526.03 L
1034.022 537.403 L
1036.063 544.061 L
1038.103 544 L
1040.143 536.128 L
1042.183 525.208 L
1044.223 545.946 L
1046.263 551.629 L
1048.304 523.855 L
1050.344 531.441 L
1052.384 550.97 L
1054.424 539.597 L
1056.464 532.939 L
1058.504 533 L
1060.545 540.872 L
1062.585 551.792 L
1064.625 531.054 L
1066.665 525.371 L
1068.705 553.145 L
1070.746 545.559 L
1072.786 526.03 L
1074.826 537.403 L
1076.866 544.061 L
1078.906 544 L
1080.946 536.128 L
1082.987 525.208 L
1085.027 545.946 L
1087.067 551.629 L
1089.107 523.855 L
1091.147 531.441 L
1093.188 550.97 L
1095.228 539.597 L
1097.268 532.939 L
1099.308 533 L
1101.348 540.872 L
1103.388 551.792 L
1105.429 531.054 L
1107.469 525.371 L
1109.509 553.145 L
1111.549 545.559 L
1113.589 526.03 L
1115.63 537.403 L
1117.67 544.061 L
1119.71 544 L
1121.75 536.128 L
1123.79 525.208 L
1125.83 545.946 L
1127.87 551.629 L
1129.911 523.855 L
1131.951 531.441 L
1133.991 550.97 L
1136.031 539.597 L
1138.071 532.939 L
1140.112 533 L
1142.152 540.872 L
1144.192 551.792 L
1146.232 531.054 L
1148.272 525.371 L
1150.313 553.145 L
1152.353 545.559 L
1154.393 526.03 L
1156.433 537.403 L
1158.473 544.061 L
1160.513 544 L
1162.554 536.128 L
1164.594 525.208 L
1166.634 545.946 L
1168.674 551.629 L
1170.714 523.855 L
1172.755 531.441 L
1174.795 550.97 L
1176.835 539.597 L
1178.875 532.939 L
1180.915 533 L
1182.955 540.872 L
1184.996 551.792 L
1187.036 531.054 L
1189.076 525.371 L
1191.116 553.145 L
1193.156 545.559 L
1195.196 526.03 L
1197.237 537.403 L
1199.277 544.061 L
1201.317 544 L
1203.357 536.128 L
1205.397 525.208 L
1207.438 545.946 L
1209.478 551.629 L
1211.518 523.855 L
1213.558 531.441 L
1215.598 550.97 L
1217.638 539.597 L
1219.679 532.939 L
1221.719 533 L
1223.759 540.872 L
1225.799 551.792 L
S
GR
GS
[0.75 0 0 0.75 0 0] CT
0.851 0.325 0.098 RC
1 LJ
0.667 LW
N
817.763 536.272 M
819.804 539.604 L
821.844 539.616 L
823.884 537.356 L
825.924 537.768 L
827.964 536.764 L
830.004 540.794 L
832.045 541.917 L
834.085 530.679 L
836.125 536.826 L
838.165 550.407 L
840.205 533.239 L
842.246 527.036 L
844.286 549.572 L
846.326 543.369 L
848.366 526.201 L
850.406 539.782 L
852.446 545.93 L
854.487 534.692 L
856.527 535.815 L
858.567 539.844 L
860.607 538.841 L
862.647 539.252 L
864.688 536.993 L
866.728 537.004 L
868.768 540.337 L
870.808 538.591 L
872.848 536.908 L
874.888 538.524 L
876.929 538.805 L
878.969 539.059 L
881.009 538.984 L
883.049 538.796 L
885.089 538.764 L
887.129 538.86 L
889.17 538.917 L
891.21 539.044 L
893.25 538.873 L
895.29 538.701 L
897.33 538.112 L
899.371 538.911 L
901.411 539.168 L
903.451 538.376 L
905.491 538.544 L
907.531 538.839 L
909.571 538.728 L
911.612 538.728 L
913.652 538.728 L
915.692 538.728 L
917.732 538.728 L
919.772 538.728 L
921.813 538.728 L
923.853 538.728 L
925.893 538.728 L
927.933 538.728 L
929.973 538.728 L
932.013 538.728 L
934.054 538.728 L
936.094 538.728 L
938.134 538.728 L
940.174 538.728 L
942.214 538.609 L
944.254 538.693 L
946.295 538.814 L
948.335 538.64 L
950.375 538.613 L
952.415 538.733 L
954.455 538.727 L
956.496 538.838 L
958.536 538.543 L
960.576 538.375 L
962.616 539.166 L
964.656 538.91 L
966.696 538.111 L
968.737 538.699 L
970.777 538.872 L
972.817 539.043 L
974.857 538.916 L
976.897 537.3 L
978.938 538.983 L
980.978 540.728 L
983.018 537.396 L
985.058 537.384 L
987.098 539.644 L
989.138 539.232 L
991.179 540.236 L
993.219 536.206 L
995.259 535.083 L
997.299 546.321 L
999.339 540.174 L
1001.379 526.593 L
1003.42 543.761 L
1005.46 549.964 L
1007.5 527.428 L
1009.54 533.631 L
1011.58 550.799 L
1013.621 537.218 L
1015.661 531.07 L
1017.701 542.308 L
1019.741 541.185 L
1021.781 537.156 L
1023.821 538.159 L
1025.862 537.748 L
1027.902 540.007 L
1029.942 539.996 L
1031.982 536.663 L
1034.022 538.409 L
1036.063 540.092 L
1038.103 538.476 L
1040.143 538.195 L
1042.183 537.941 L
1044.223 538.016 L
1046.263 538.204 L
1048.304 538.236 L
1050.344 538.14 L
1052.384 538.083 L
1054.424 537.956 L
1056.464 538.127 L
1058.504 538.299 L
1060.545 538.888 L
1062.585 538.089 L
1064.625 537.832 L
1066.665 538.624 L
1068.705 538.456 L
1070.746 538.161 L
1072.786 538.272 L
1074.826 538.272 L
1076.866 538.272 L
1078.906 538.272 L
1080.946 538.272 L
1082.987 538.272 L
1085.027 538.272 L
1087.067 538.272 L
1089.107 538.272 L
1091.147 538.272 L
1093.188 538.272 L
1095.228 538.272 L
1097.268 538.272 L
1099.308 538.272 L
1101.348 538.272 L
1103.388 538.272 L
1105.429 538.391 L
1107.469 538.307 L
1109.509 538.186 L
1111.549 538.36 L
1113.589 538.387 L
1115.63 538.267 L
1117.67 538.273 L
1119.71 538.162 L
1121.75 538.457 L
1123.79 538.625 L
1125.83 537.834 L
1127.87 538.09 L
1129.911 538.889 L
1131.951 538.301 L
1133.991 538.128 L
1136.031 537.957 L
1138.071 538.084 L
1140.112 539.7 L
1142.152 538.017 L
1144.192 536.272 L
1146.232 539.604 L
1148.272 539.616 L
1150.313 537.356 L
1152.353 537.768 L
1154.393 536.764 L
1156.433 540.794 L
1158.473 541.917 L
1160.513 530.679 L
1162.554 536.826 L
1164.594 550.407 L
1166.634 533.239 L
1168.674 527.036 L
1170.714 549.572 L
1172.755 543.369 L
1174.795 526.201 L
1176.835 539.782 L
1178.875 545.93 L
1180.915 534.692 L
1182.955 535.815 L
1184.996 539.844 L
1187.036 538.841 L
1189.076 539.252 L
1191.116 536.993 L
1193.156 537.004 L
1195.196 540.337 L
1197.237 538.591 L
1199.277 536.908 L
1201.317 538.524 L
1203.357 538.805 L
1205.397 539.059 L
1207.438 538.984 L
1209.478 538.796 L
1211.518 538.764 L
1213.558 538.86 L
1215.598 538.917 L
1217.638 539.044 L
1219.679 538.873 L
1221.719 538.701 L
1223.759 538.112 L
1225.799 538.911 L
S
GR
%%Trailer
%%Pages: 1
%%EOF
