%!PS-Adobe-3.0 EPSF-3.0
%%Creator: (MATLAB, The Mathworks, Inc. Version 9.0.0.341360 \(R2016a\). Operating System: Linux)
%%Title: /home/idzard/Documents/git/rts2/Matlab/vocoder.eps
%%CreationDate: 2016-07-01T16:50:40
%%Pages: (atend)
%%BoundingBox: 0 0 1025 495
%%LanguageLevel: 3
%%EndComments
%%BeginProlog
%%BeginResource: procset (Apache XML Graphics Std ProcSet) 1.2 0
%%Version: 1.2 0
%%Copyright: (Copyright 2001-2003,2010 The Apache Software Foundation. License terms: http://www.apache.org/licenses/LICENSE-2.0)
/bd{bind def}bind def
/ld{load def}bd
/GR/grestore ld
/M/moveto ld
/LJ/setlinejoin ld
/C/curveto ld
/f/fill ld
/LW/setlinewidth ld
/GC/setgray ld
/t/show ld
/N/newpath ld
/CT/concat ld
/cp/closepath ld
/S/stroke ld
/L/lineto ld
/CC/setcmykcolor ld
/A/ashow ld
/GS/gsave ld
/RC/setrgbcolor ld
/RM/rmoveto ld
/ML/setmiterlimit ld
/re {4 2 roll M
1 index 0 rlineto
0 exch rlineto
neg 0 rlineto
cp } bd
/_ctm matrix def
/_tm matrix def
/BT { _ctm currentmatrix pop matrix _tm copy pop 0 0 moveto } bd
/ET { _ctm setmatrix } bd
/iTm { _ctm setmatrix _tm concat } bd
/Tm { _tm astore pop iTm 0 0 moveto } bd
/ux 0.0 def
/uy 0.0 def
/F {
  /Tp exch def
  /Tf exch def
  Tf findfont Tp scalefont setfont
  /cf Tf def  /cs Tp def
} bd
/ULS {currentpoint /uy exch def /ux exch def} bd
/ULE {
  /Tcx currentpoint pop def
  gsave
  newpath
  cf findfont cs scalefont dup
  /FontMatrix get 0 get /Ts exch def /FontInfo get dup
  /UnderlinePosition get Ts mul /To exch def
  /UnderlineThickness get Ts mul /Tt exch def
  ux uy To add moveto  Tcx uy To add lineto
  Tt setlinewidth stroke
  grestore
} bd
/OLE {
  /Tcx currentpoint pop def
  gsave
  newpath
  cf findfont cs scalefont dup
  /FontMatrix get 0 get /Ts exch def /FontInfo get dup
  /UnderlinePosition get Ts mul /To exch def
  /UnderlineThickness get Ts mul /Tt exch def
  ux uy To add cs add moveto Tcx uy To add cs add lineto
  Tt setlinewidth stroke
  grestore
} bd
/SOE {
  /Tcx currentpoint pop def
  gsave
  newpath
  cf findfont cs scalefont dup
  /FontMatrix get 0 get /Ts exch def /FontInfo get dup
  /UnderlinePosition get Ts mul /To exch def
  /UnderlineThickness get Ts mul /Tt exch def
  ux uy To add cs 10 mul 26 idiv add moveto Tcx uy To add cs 10 mul 26 idiv add lineto
  Tt setlinewidth stroke
  grestore
} bd
/QT {
/Y22 exch store
/X22 exch store
/Y21 exch store
/X21 exch store
currentpoint
/Y21 load 2 mul add 3 div exch
/X21 load 2 mul add 3 div exch
/X21 load 2 mul /X22 load add 3 div
/Y21 load 2 mul /Y22 load add 3 div
/X22 load /Y22 load curveto
} bd
/SSPD {
dup length /d exch dict def
{
/v exch def
/k exch def
currentpagedevice k known {
/cpdv currentpagedevice k get def
v cpdv ne {
/upd false def
/nullv v type /nulltype eq def
/nullcpdv cpdv type /nulltype eq def
nullv nullcpdv or
{
/upd true def
} {
/sametype v type cpdv type eq def
sametype {
v type /arraytype eq {
/vlen v length def
/cpdvlen cpdv length def
vlen cpdvlen eq {
0 1 vlen 1 sub {
/i exch def
/obj v i get def
/cpdobj cpdv i get def
obj cpdobj ne {
/upd true def
exit
} if
} for
} {
/upd true def
} ifelse
} {
v type /dicttype eq {
v {
/dv exch def
/dk exch def
/cpddv cpdv dk get def
dv cpddv ne {
/upd true def
exit
} if
} forall
} {
/upd true def
} ifelse
} ifelse
} if
} ifelse
upd true eq {
d k v put
} if
} if
} if
} forall
d length 0 gt {
d setpagedevice
} if
} bd
%%EndResource
%%BeginResource: procset (Apache XML Graphics EPS ProcSet) 1.0 0
%%Version: 1.0 0
%%Copyright: (Copyright 2002-2003 The Apache Software Foundation. License terms: http://www.apache.org/licenses/LICENSE-2.0)
/BeginEPSF { %def
/b4_Inc_state save def         % Save state for cleanup
/dict_count countdictstack def % Count objects on dict stack
/op_count count 1 sub def      % Count objects on operand stack
userdict begin                 % Push userdict on dict stack
/showpage { } def              % Redefine showpage, { } = null proc
0 setgray 0 setlinecap         % Prepare graphics state
1 setlinewidth 0 setlinejoin
10 setmiterlimit [ ] 0 setdash newpath
/languagelevel where           % If level not equal to 1 then
{pop languagelevel             % set strokeadjust and
1 ne                           % overprint to their defaults.
{false setstrokeadjust false setoverprint
} if
} if
} bd
/EndEPSF { %def
count op_count sub {pop} repeat            % Clean up stacks
countdictstack dict_count sub {end} repeat
b4_Inc_state restore
} bd
%%EndResource
%FOPBeginFontDict
%%IncludeResource: font Courier-Bold
%%IncludeResource: font Helvetica
%%IncludeResource: font Courier-BoldOblique
%%IncludeResource: font Courier-Oblique
%%IncludeResource: font Times-Roman
%%IncludeResource: font Helvetica-BoldOblique
%%IncludeResource: font Helvetica-Bold
%%IncludeResource: font Helvetica-Oblique
%%IncludeResource: font Times-BoldItalic
%%IncludeResource: font Courier
%%IncludeResource: font Times-Italic
%%IncludeResource: font Times-Bold
%%IncludeResource: font Symbol
%%IncludeResource: font ZapfDingbats
%FOPEndFontDict
%%BeginResource: encoding WinAnsiEncoding
/WinAnsiEncoding [
/.notdef /.notdef /.notdef /.notdef /.notdef
/.notdef /.notdef /.notdef /.notdef /.notdef
/.notdef /.notdef /.notdef /.notdef /.notdef
/.notdef /.notdef /.notdef /.notdef /.notdef
/.notdef /.notdef /.notdef /.notdef /.notdef
/.notdef /.notdef /.notdef /.notdef /.notdef
/.notdef /.notdef /space /exclam /quotedbl
/numbersign /dollar /percent /ampersand /quotesingle
/parenleft /parenright /asterisk /plus /comma
/hyphen /period /slash /zero /one
/two /three /four /five /six
/seven /eight /nine /colon /semicolon
/less /equal /greater /question /at
/A /B /C /D /E
/F /G /H /I /J
/K /L /M /N /O
/P /Q /R /S /T
/U /V /W /X /Y
/Z /bracketleft /backslash /bracketright /asciicircum
/underscore /quoteleft /a /b /c
/d /e /f /g /h
/i /j /k /l /m
/n /o /p /q /r
/s /t /u /v /w
/x /y /z /braceleft /bar
/braceright /asciitilde /bullet /Euro /bullet
/quotesinglbase /florin /quotedblbase /ellipsis /dagger
/daggerdbl /circumflex /perthousand /Scaron /guilsinglleft
/OE /bullet /Zcaron /bullet /bullet
/quoteleft /quoteright /quotedblleft /quotedblright /bullet
/endash /emdash /asciitilde /trademark /scaron
/guilsinglright /oe /bullet /zcaron /Ydieresis
/space /exclamdown /cent /sterling /currency
/yen /brokenbar /section /dieresis /copyright
/ordfeminine /guillemotleft /logicalnot /sfthyphen /registered
/macron /degree /plusminus /twosuperior /threesuperior
/acute /mu /paragraph /middot /cedilla
/onesuperior /ordmasculine /guillemotright /onequarter /onehalf
/threequarters /questiondown /Agrave /Aacute /Acircumflex
/Atilde /Adieresis /Aring /AE /Ccedilla
/Egrave /Eacute /Ecircumflex /Edieresis /Igrave
/Iacute /Icircumflex /Idieresis /Eth /Ntilde
/Ograve /Oacute /Ocircumflex /Otilde /Odieresis
/multiply /Oslash /Ugrave /Uacute /Ucircumflex
/Udieresis /Yacute /Thorn /germandbls /agrave
/aacute /acircumflex /atilde /adieresis /aring
/ae /ccedilla /egrave /eacute /ecircumflex
/edieresis /igrave /iacute /icircumflex /idieresis
/eth /ntilde /ograve /oacute /ocircumflex
/otilde /odieresis /divide /oslash /ugrave
/uacute /ucircumflex /udieresis /yacute /thorn
/ydieresis
] def
%%EndResource
%FOPBeginFontReencode
/Courier-Bold findfont
dup length dict begin
  {1 index /FID ne {def} {pop pop} ifelse} forall
  /Encoding WinAnsiEncoding def
  currentdict
end
/Courier-Bold exch definefont pop
/Helvetica findfont
dup length dict begin
  {1 index /FID ne {def} {pop pop} ifelse} forall
  /Encoding WinAnsiEncoding def
  currentdict
end
/Helvetica exch definefont pop
/Courier-BoldOblique findfont
dup length dict begin
  {1 index /FID ne {def} {pop pop} ifelse} forall
  /Encoding WinAnsiEncoding def
  currentdict
end
/Courier-BoldOblique exch definefont pop
/Courier-Oblique findfont
dup length dict begin
  {1 index /FID ne {def} {pop pop} ifelse} forall
  /Encoding WinAnsiEncoding def
  currentdict
end
/Courier-Oblique exch definefont pop
/Times-Roman findfont
dup length dict begin
  {1 index /FID ne {def} {pop pop} ifelse} forall
  /Encoding WinAnsiEncoding def
  currentdict
end
/Times-Roman exch definefont pop
/Helvetica-BoldOblique findfont
dup length dict begin
  {1 index /FID ne {def} {pop pop} ifelse} forall
  /Encoding WinAnsiEncoding def
  currentdict
end
/Helvetica-BoldOblique exch definefont pop
/Helvetica-Bold findfont
dup length dict begin
  {1 index /FID ne {def} {pop pop} ifelse} forall
  /Encoding WinAnsiEncoding def
  currentdict
end
/Helvetica-Bold exch definefont pop
/Helvetica-Oblique findfont
dup length dict begin
  {1 index /FID ne {def} {pop pop} ifelse} forall
  /Encoding WinAnsiEncoding def
  currentdict
end
/Helvetica-Oblique exch definefont pop
/Times-BoldItalic findfont
dup length dict begin
  {1 index /FID ne {def} {pop pop} ifelse} forall
  /Encoding WinAnsiEncoding def
  currentdict
end
/Times-BoldItalic exch definefont pop
/Courier findfont
dup length dict begin
  {1 index /FID ne {def} {pop pop} ifelse} forall
  /Encoding WinAnsiEncoding def
  currentdict
end
/Courier exch definefont pop
/Times-Italic findfont
dup length dict begin
  {1 index /FID ne {def} {pop pop} ifelse} forall
  /Encoding WinAnsiEncoding def
  currentdict
end
/Times-Italic exch definefont pop
/Times-Bold findfont
dup length dict begin
  {1 index /FID ne {def} {pop pop} ifelse} forall
  /Encoding WinAnsiEncoding def
  currentdict
end
/Times-Bold exch definefont pop
%FOPEndFontReencode
%%EndProlog
%%Page: 1 1
%%PageBoundingBox: 0 0 1025 495
%%BeginPageSetup
[1 0 0 -1 0 495] CT
%%EndPageSetup
GS
[0.75 0 0 0.75 0 0] CT
1 GC
N
0 0 1366 660 re
f
GR
GS
[0.75 0 0 0.75 0 0] CT
1 GC
N
0 0 1366 660 re
f
GR
GS
[0.75 0 0 0.75 0 0] CT
1 GC
N
178 275 M
1236 275 L
1236 49 L
178 49 L
cp
f
GR
GS
[0.75 0 0 0.75 0 0] CT
0.149 GC
2 setlinecap
1 LJ
0.667 LW
N
178 275 M
1236 275 L
S
GR
GS
[0.75 0 0 0.75 0 0] CT
0.149 GC
2 setlinecap
1 LJ
0.667 LW
N
178 49 M
1236 49 L
S
GR
GS
[0.75 0 0 0.75 0 0] CT
0.149 GC
2 setlinecap
1 LJ
0.667 LW
N
178 275 M
178 264.42 L
S
GR
GS
[0.75 0 0 0.75 0 0] CT
0.149 GC
2 setlinecap
1 LJ
0.667 LW
N
329.143 275 M
329.143 264.42 L
S
GR
GS
[0.75 0 0 0.75 0 0] CT
0.149 GC
2 setlinecap
1 LJ
0.667 LW
N
480.286 275 M
480.286 264.42 L
S
GR
GS
[0.75 0 0 0.75 0 0] CT
0.149 GC
2 setlinecap
1 LJ
0.667 LW
N
631.429 275 M
631.429 264.42 L
S
GR
GS
[0.75 0 0 0.75 0 0] CT
0.149 GC
2 setlinecap
1 LJ
0.667 LW
N
782.571 275 M
782.571 264.42 L
S
GR
GS
[0.75 0 0 0.75 0 0] CT
0.149 GC
2 setlinecap
1 LJ
0.667 LW
N
933.714 275 M
933.714 264.42 L
S
GR
GS
[0.75 0 0 0.75 0 0] CT
0.149 GC
2 setlinecap
1 LJ
0.667 LW
N
1084.857 275 M
1084.857 264.42 L
S
GR
GS
[0.75 0 0 0.75 0 0] CT
0.149 GC
2 setlinecap
1 LJ
0.667 LW
N
1236 275 M
1236 264.42 L
S
GR
GS
[0.75 0 0 0.75 0 0] CT
0.149 GC
2 setlinecap
1 LJ
0.667 LW
N
178 49 M
178 59.58 L
S
GR
GS
[0.75 0 0 0.75 0 0] CT
0.149 GC
2 setlinecap
1 LJ
0.667 LW
N
329.143 49 M
329.143 59.58 L
S
GR
GS
[0.75 0 0 0.75 0 0] CT
0.149 GC
2 setlinecap
1 LJ
0.667 LW
N
480.286 49 M
480.286 59.58 L
S
GR
GS
[0.75 0 0 0.75 0 0] CT
0.149 GC
2 setlinecap
1 LJ
0.667 LW
N
631.429 49 M
631.429 59.58 L
S
GR
GS
[0.75 0 0 0.75 0 0] CT
0.149 GC
2 setlinecap
1 LJ
0.667 LW
N
782.571 49 M
782.571 59.58 L
S
GR
GS
[0.75 0 0 0.75 0 0] CT
0.149 GC
2 setlinecap
1 LJ
0.667 LW
N
933.714 49 M
933.714 59.58 L
S
GR
GS
[0.75 0 0 0.75 0 0] CT
0.149 GC
2 setlinecap
1 LJ
0.667 LW
N
1084.857 49 M
1084.857 59.58 L
S
GR
GS
[0.75 0 0 0.75 0 0] CT
0.149 GC
2 setlinecap
1 LJ
0.667 LW
N
1236 49 M
1236 59.58 L
S
GR
GS
[0.75 0 0 0.75 133.5 210.24998] CT
0.149 GC
/Helvetica 13.333 F
GS
[1 0 0 1 0 0] CT
-19 13 moveto 
1 -1 scale
(0.005) t 
GR
GR
GS
[0.75 0 0 0.75 246.85714 210.24998] CT
0.149 GC
/Helvetica 13.333 F
GS
[1 0 0 1 0 0] CT
-14.5 13 moveto 
1 -1 scale
(0.01) t 
GR
GR
GS
[0.75 0 0 0.75 360.21428 210.24998] CT
0.149 GC
/Helvetica 13.333 F
GS
[1 0 0 1 0 0] CT
-19 13 moveto 
1 -1 scale
(0.015) t 
GR
GR
GS
[0.75 0 0 0.75 473.5714 210.24998] CT
0.149 GC
/Helvetica 13.333 F
GS
[1 0 0 1 0 0] CT
-14.5 13 moveto 
1 -1 scale
(0.02) t 
GR
GR
GS
[0.75 0 0 0.75 586.92856 210.24998] CT
0.149 GC
/Helvetica 13.333 F
GS
[1 0 0 1 0 0] CT
-19 13 moveto 
1 -1 scale
(0.025) t 
GR
GR
GS
[0.75 0 0 0.75 700.28572 210.24998] CT
0.149 GC
/Helvetica 13.333 F
GS
[1 0 0 1 0 0] CT
-14.5 13 moveto 
1 -1 scale
(0.03) t 
GR
GR
GS
[0.75 0 0 0.75 813.64288 210.24998] CT
0.149 GC
/Helvetica 13.333 F
GS
[1 0 0 1 0 0] CT
-19 13 moveto 
1 -1 scale
(0.035) t 
GR
GR
GS
[0.75 0 0 0.75 927 210.24998] CT
0.149 GC
/Helvetica 13.333 F
GS
[1 0 0 1 0 0] CT
-14.5 13 moveto 
1 -1 scale
(0.04) t 
GR
GR
GS
[0.75 0 0 0.75 0 0] CT
0.149 GC
2 setlinecap
1 LJ
0.667 LW
N
178 275 M
178 49 L
S
GR
GS
[0.75 0 0 0.75 0 0] CT
0.149 GC
2 setlinecap
1 LJ
0.667 LW
N
1236 275 M
1236 49 L
S
GR
GS
[0.75 0 0 0.75 0 0] CT
0.149 GC
2 setlinecap
1 LJ
0.667 LW
N
178 275 M
188.58 275 L
S
GR
GS
[0.75 0 0 0.75 0 0] CT
0.149 GC
2 setlinecap
1 LJ
0.667 LW
N
178 218.5 M
188.58 218.5 L
S
GR
GS
[0.75 0 0 0.75 0 0] CT
0.149 GC
2 setlinecap
1 LJ
0.667 LW
N
178 162 M
188.58 162 L
S
GR
GS
[0.75 0 0 0.75 0 0] CT
0.149 GC
2 setlinecap
1 LJ
0.667 LW
N
178 105.5 M
188.58 105.5 L
S
GR
GS
[0.75 0 0 0.75 0 0] CT
0.149 GC
2 setlinecap
1 LJ
0.667 LW
N
178 49 M
188.58 49 L
S
GR
GS
[0.75 0 0 0.75 0 0] CT
0.149 GC
2 setlinecap
1 LJ
0.667 LW
N
1236 275 M
1225.42 275 L
S
GR
GS
[0.75 0 0 0.75 0 0] CT
0.149 GC
2 setlinecap
1 LJ
0.667 LW
N
1236 218.5 M
1225.42 218.5 L
S
GR
GS
[0.75 0 0 0.75 0 0] CT
0.149 GC
2 setlinecap
1 LJ
0.667 LW
N
1236 162 M
1225.42 162 L
S
GR
GS
[0.75 0 0 0.75 0 0] CT
0.149 GC
2 setlinecap
1 LJ
0.667 LW
N
1236 105.5 M
1225.42 105.5 L
S
GR
GS
[0.75 0 0 0.75 0 0] CT
0.149 GC
2 setlinecap
1 LJ
0.667 LW
N
1236 49 M
1225.42 49 L
S
GR
GS
[0.75 0 0 0.75 129.5 206.25] CT
0.149 GC
/Helvetica 13.333 F
GS
[1 0 0 1 0 0] CT
-13 4.5 moveto 
1 -1 scale
(-1) t 
GR
GR
GS
[0.75 0 0 0.75 129.5 163.875] CT
0.149 GC
/Helvetica 13.333 F
GS
[1 0 0 1 0 0] CT
-26 4.5 moveto 
1 -1 scale
(-0.5) t 
GR
GR
GS
[0.75 0 0 0.75 129.5 121.5] CT
0.149 GC
/Helvetica 13.333 F
GS
[1 0 0 1 0 0] CT
-9 4.5 moveto 
1 -1 scale
(0) t 
GR
GR
GS
[0.75 0 0 0.75 129.5 79.125] CT
0.149 GC
/Helvetica 13.333 F
GS
[1 0 0 1 0 0] CT
-21 4.5 moveto 
1 -1 scale
(0.5) t 
GR
GR
GS
[0.75 0 0 0.75 129.5 36.75] CT
0.149 GC
/Helvetica 13.333 F
GS
[1 0 0 1 0 0] CT
-9 4.5 moveto 
1 -1 scale
(1) t 
GR
GR
GS
[0.75 0 0 0.75 0 0] CT
0 0.447 0.741 RC
1 LJ
0.667 LW
N
213.896 169.709 M
215.786 164.929 L
217.675 161.891 L
219.564 155.413 L
221.454 130.238 L
223.343 103.38 L
225.232 78.42 L
227.121 70.248 L
229.011 68.034 L
230.9 80.713 L
232.789 109.814 L
234.679 123.061 L
236.568 147.66 L
238.457 176.6 L
240.346 201.255 L
242.236 215.401 L
244.125 243.664 L
246.014 256.126 L
247.904 253.48 L
249.793 246.087 L
251.682 224.492 L
253.571 196.503 L
255.461 168.213 L
257.35 163.676 L
259.239 162.096 L
261.129 157.612 L
263.018 149.186 L
264.907 143.174 L
266.796 142.358 L
268.686 142.662 L
270.575 142.591 L
272.464 152.547 L
274.354 160.473 L
276.243 161.22 L
278.132 159.726 L
280.021 161.024 L
281.911 163.115 L
283.8 165.802 L
285.689 166.331 L
287.579 166.083 L
289.468 165.198 L
291.357 164.05 L
293.246 162.61 L
295.136 162.733 L
297.025 163.658 L
298.914 163.797 L
300.804 163.953 L
302.693 164.379 L
304.582 164.361 L
306.471 163.894 L
308.361 163.638 L
310.25 163.162 L
312.139 162.499 L
314.029 162.656 L
315.918 163.295 L
317.807 163.797 L
319.696 163.953 L
321.586 164.379 L
323.475 164.361 L
325.364 163.894 L
327.254 163.638 L
329.143 163.037 L
331.032 162.449 L
332.921 162.734 L
334.811 162.967 L
336.7 163.555 L
338.589 164.006 L
340.479 164.855 L
342.368 164.779 L
344.257 164.359 L
346.146 163.291 L
348.036 162.08 L
349.925 162.022 L
351.814 160.696 L
353.704 157.725 L
355.593 151.962 L
357.482 145.795 L
359.371 142.744 L
361.261 142.945 L
363.15 146.992 L
365.039 154.291 L
366.929 159.071 L
368.818 162.109 L
370.707 168.587 L
372.596 193.762 L
374.486 220.62 L
376.375 245.58 L
378.264 253.752 L
380.154 255.966 L
382.043 243.287 L
383.932 214.186 L
385.821 200.939 L
387.711 176.34 L
389.6 147.4 L
391.489 122.745 L
393.379 108.599 L
395.268 80.336 L
397.157 67.874 L
399.046 70.52 L
400.936 77.913 L
402.825 99.508 L
404.714 127.497 L
406.604 155.787 L
408.493 160.324 L
410.382 161.904 L
412.271 166.388 L
414.161 174.814 L
416.05 180.826 L
417.939 181.642 L
419.829 181.338 L
421.718 181.409 L
423.607 171.453 L
425.496 163.527 L
427.386 162.78 L
429.275 164.274 L
431.164 162.976 L
433.054 160.885 L
434.943 158.198 L
436.832 157.669 L
438.721 157.917 L
440.611 158.802 L
442.5 159.95 L
444.389 161.39 L
446.279 161.267 L
448.168 160.342 L
450.057 160.203 L
451.946 160.047 L
453.836 159.621 L
455.725 159.639 L
457.614 160.106 L
459.504 160.362 L
461.393 160.838 L
463.282 161.501 L
465.171 161.344 L
467.061 160.705 L
468.95 160.203 L
470.839 160.047 L
472.729 159.621 L
474.618 159.639 L
476.507 160.106 L
478.396 160.362 L
480.286 160.963 L
482.175 161.551 L
484.064 161.266 L
485.954 161.033 L
487.843 160.445 L
489.732 159.994 L
491.621 159.145 L
493.511 159.221 L
495.4 159.641 L
497.289 160.709 L
499.179 161.92 L
501.068 161.978 L
502.957 163.304 L
504.846 166.275 L
506.736 172.038 L
508.625 178.205 L
510.514 181.256 L
512.404 181.055 L
514.293 177.008 L
516.182 169.709 L
518.071 164.929 L
519.961 161.891 L
521.85 155.413 L
523.739 130.238 L
525.629 103.38 L
527.518 78.42 L
529.407 70.248 L
531.296 68.034 L
533.186 80.713 L
535.075 109.814 L
536.964 123.061 L
538.854 147.66 L
540.743 176.6 L
542.632 201.255 L
544.521 215.401 L
546.411 243.664 L
548.3 256.126 L
550.189 253.48 L
552.079 246.087 L
553.968 224.492 L
555.857 196.503 L
557.746 168.213 L
559.636 163.676 L
561.525 162.096 L
563.414 157.612 L
565.304 149.186 L
567.193 143.174 L
569.082 142.358 L
570.971 142.662 L
572.861 142.591 L
574.75 152.547 L
576.639 160.473 L
578.529 161.22 L
580.418 159.726 L
582.307 161.024 L
584.196 163.115 L
586.086 165.802 L
587.975 166.331 L
589.864 166.083 L
591.754 165.198 L
593.643 164.05 L
595.532 162.61 L
597.421 162.733 L
599.311 163.658 L
601.2 163.797 L
603.089 163.953 L
604.979 164.379 L
606.868 164.361 L
608.757 163.894 L
610.646 163.638 L
612.536 163.162 L
614.425 162.499 L
616.314 162.656 L
618.204 163.295 L
620.093 163.797 L
621.982 163.953 L
623.871 164.379 L
625.761 164.361 L
627.65 163.894 L
629.539 163.638 L
631.429 163.037 L
633.318 162.449 L
635.207 162.734 L
637.096 162.967 L
638.986 163.555 L
640.875 164.006 L
642.764 164.855 L
644.654 164.779 L
646.543 164.359 L
648.432 163.291 L
650.321 162.08 L
652.211 162.022 L
654.1 160.696 L
655.989 157.725 L
657.879 151.962 L
659.768 145.795 L
661.657 142.744 L
663.546 142.945 L
665.436 146.992 L
667.325 154.291 L
669.214 159.071 L
671.104 162.109 L
672.993 168.587 L
674.882 193.762 L
676.771 220.62 L
678.661 245.58 L
680.55 253.752 L
682.439 255.966 L
684.329 243.287 L
686.218 214.186 L
688.107 200.939 L
689.996 176.34 L
691.886 147.4 L
693.775 122.745 L
695.664 108.599 L
697.554 80.336 L
699.443 67.874 L
701.332 70.52 L
703.221 77.913 L
705.111 99.508 L
707 127.497 L
708.889 155.787 L
710.779 160.324 L
712.668 161.904 L
714.557 166.388 L
716.446 174.814 L
718.336 180.826 L
720.225 181.642 L
722.114 181.338 L
724.004 181.409 L
725.893 171.453 L
727.782 163.527 L
729.671 162.78 L
731.561 164.274 L
733.45 162.976 L
735.339 160.885 L
737.229 158.198 L
739.118 157.669 L
741.007 157.917 L
742.896 158.802 L
744.786 159.95 L
746.675 161.39 L
748.564 161.267 L
750.454 160.342 L
752.343 160.203 L
754.232 160.047 L
756.121 159.621 L
758.011 159.639 L
759.9 160.106 L
761.789 160.362 L
763.679 160.838 L
765.568 161.501 L
767.457 161.344 L
769.346 160.705 L
771.236 160.203 L
773.125 160.047 L
775.014 159.621 L
776.904 159.639 L
778.793 160.106 L
780.682 160.362 L
782.571 160.963 L
784.461 161.551 L
786.35 161.266 L
788.239 161.033 L
790.129 160.445 L
792.018 159.994 L
793.907 159.145 L
795.796 159.221 L
797.686 159.641 L
799.575 160.709 L
801.464 161.92 L
803.354 161.978 L
805.243 163.304 L
807.132 166.275 L
809.021 172.038 L
810.911 178.205 L
812.8 181.256 L
814.689 181.055 L
816.579 177.008 L
818.468 169.709 L
820.357 164.929 L
822.246 161.891 L
824.136 155.413 L
826.025 130.238 L
827.914 103.38 L
829.804 78.42 L
831.693 70.248 L
833.582 68.034 L
835.471 80.713 L
837.361 109.814 L
839.25 123.252 L
841.139 147.721 L
843.029 176.536 L
844.918 201.141 L
846.807 215.232 L
848.696 243.749 L
850.586 256.044 L
852.475 253.51 L
854.364 246.149 L
856.254 224.149 L
858.143 195.504 L
860.032 166.467 L
861.921 166.224 L
863.811 165.986 L
865.7 162.536 L
867.589 154.165 L
869.479 147.395 L
871.368 144.706 L
873.257 144.422 L
875.146 143.63 L
877.036 152.857 L
878.925 160.569 L
880.814 163.261 L
882.704 161.23 L
884.593 161.952 L
886.482 163.819 L
888.371 166.258 L
890.261 167.248 L
892.15 167.444 L
894.039 166.737 L
895.929 166.111 L
897.818 164.628 L
899.707 163.04 L
901.596 162.628 L
903.486 161.784 L
905.375 162.366 L
907.264 162.587 L
909.154 163.048 L
911.043 162.871 L
912.932 162.796 L
914.821 162.558 L
916.711 162.29 L
918.6 162.586 L
920.489 163.01 L
922.379 163.228 L
924.268 163.193 L
926.157 163.469 L
928.046 163.446 L
929.936 162.961 L
931.825 162.74 L
933.714 162.134 L
935.604 162.14 L
937.493 163.5 L
939.382 163.592 L
941.271 164.01 L
943.161 164.33 L
945.05 165.251 L
946.939 165.123 L
948.829 164.742 L
950.718 163.594 L
952.607 162.334 L
954.496 162.176 L
956.386 160.689 L
958.275 157.849 L
960.164 152.184 L
962.054 145.795 L
963.943 142.744 L
965.832 142.945 L
967.721 146.992 L
969.611 154.291 L
971.5 159.071 L
973.389 162.109 L
975.279 168.587 L
977.168 193.762 L
979.057 220.62 L
980.946 245.58 L
982.836 253.752 L
984.725 255.966 L
986.614 243.287 L
988.504 214.186 L
990.393 200.748 L
992.282 176.279 L
994.171 147.464 L
996.061 122.859 L
997.95 108.768 L
999.839 80.251 L
1001.729 67.956 L
1003.618 70.49 L
1005.507 77.851 L
1007.396 99.851 L
1009.286 128.496 L
1011.175 157.533 L
1013.064 157.776 L
1014.954 158.014 L
1016.843 161.464 L
1018.732 169.835 L
1020.621 176.605 L
1022.511 179.294 L
1024.4 179.578 L
1026.289 180.37 L
1028.178 171.143 L
1030.068 163.431 L
1031.957 160.739 L
1033.846 162.77 L
1035.736 162.048 L
1037.625 160.181 L
1039.514 157.742 L
1041.404 156.752 L
1043.293 156.556 L
1045.182 157.263 L
1047.071 157.889 L
1048.961 159.372 L
1050.85 160.96 L
1052.739 161.372 L
1054.629 162.216 L
1056.518 161.634 L
1058.407 161.413 L
1060.296 160.952 L
1062.186 161.129 L
1064.075 161.204 L
1065.964 161.442 L
1067.854 161.71 L
1069.743 161.414 L
1071.632 160.99 L
1073.521 160.772 L
1075.411 160.807 L
1077.3 160.531 L
1079.189 160.554 L
1081.079 161.039 L
1082.968 161.26 L
1084.857 161.866 L
1086.746 161.86 L
1088.636 160.5 L
1090.525 160.408 L
1092.414 159.99 L
1094.304 159.67 L
1096.193 158.749 L
1098.082 158.877 L
1099.971 159.258 L
1101.861 160.406 L
1103.75 161.666 L
1105.639 161.824 L
1107.529 163.311 L
1109.418 166.151 L
1111.307 171.816 L
1113.196 178.205 L
1115.086 181.256 L
1116.975 181.055 L
1118.864 177.008 L
1120.754 169.709 L
1122.643 164.929 L
1124.532 161.891 L
1126.422 155.413 L
1128.311 130.238 L
1130.2 103.38 L
1132.089 78.42 L
1133.979 70.248 L
1135.868 68.034 L
1137.757 80.713 L
1139.646 109.814 L
1141.536 123.252 L
1143.425 147.721 L
1145.314 176.536 L
1147.204 201.141 L
1149.093 215.232 L
1150.982 243.749 L
1152.871 256.044 L
1154.761 253.51 L
1156.65 246.149 L
1158.539 224.149 L
S
GR
GS
[0.75 0 0 0.75 0 0] CT
1 GC
N
178 587 M
1236 587 L
1236 362 L
178 362 L
cp
f
GR
GS
[0.75 0 0 0.75 0 0] CT
0.149 GC
2 setlinecap
1 LJ
0.667 LW
N
178 587 M
1236 587 L
S
GR
GS
[0.75 0 0 0.75 0 0] CT
0.149 GC
2 setlinecap
1 LJ
0.667 LW
N
178 362 M
1236 362 L
S
GR
GS
[0.75 0 0 0.75 0 0] CT
0.149 GC
2 setlinecap
1 LJ
0.667 LW
N
178 587 M
178 576.42 L
S
GR
GS
[0.75 0 0 0.75 0 0] CT
0.149 GC
2 setlinecap
1 LJ
0.667 LW
N
329.143 587 M
329.143 576.42 L
S
GR
GS
[0.75 0 0 0.75 0 0] CT
0.149 GC
2 setlinecap
1 LJ
0.667 LW
N
480.286 587 M
480.286 576.42 L
S
GR
GS
[0.75 0 0 0.75 0 0] CT
0.149 GC
2 setlinecap
1 LJ
0.667 LW
N
631.429 587 M
631.429 576.42 L
S
GR
GS
[0.75 0 0 0.75 0 0] CT
0.149 GC
2 setlinecap
1 LJ
0.667 LW
N
782.571 587 M
782.571 576.42 L
S
GR
GS
[0.75 0 0 0.75 0 0] CT
0.149 GC
2 setlinecap
1 LJ
0.667 LW
N
933.714 587 M
933.714 576.42 L
S
GR
GS
[0.75 0 0 0.75 0 0] CT
0.149 GC
2 setlinecap
1 LJ
0.667 LW
N
1084.857 587 M
1084.857 576.42 L
S
GR
GS
[0.75 0 0 0.75 0 0] CT
0.149 GC
2 setlinecap
1 LJ
0.667 LW
N
1236 587 M
1236 576.42 L
S
GR
GS
[0.75 0 0 0.75 0 0] CT
0.149 GC
2 setlinecap
1 LJ
0.667 LW
N
178 362 M
178 372.58 L
S
GR
GS
[0.75 0 0 0.75 0 0] CT
0.149 GC
2 setlinecap
1 LJ
0.667 LW
N
329.143 362 M
329.143 372.58 L
S
GR
GS
[0.75 0 0 0.75 0 0] CT
0.149 GC
2 setlinecap
1 LJ
0.667 LW
N
480.286 362 M
480.286 372.58 L
S
GR
GS
[0.75 0 0 0.75 0 0] CT
0.149 GC
2 setlinecap
1 LJ
0.667 LW
N
631.429 362 M
631.429 372.58 L
S
GR
GS
[0.75 0 0 0.75 0 0] CT
0.149 GC
2 setlinecap
1 LJ
0.667 LW
N
782.571 362 M
782.571 372.58 L
S
GR
GS
[0.75 0 0 0.75 0 0] CT
0.149 GC
2 setlinecap
1 LJ
0.667 LW
N
933.714 362 M
933.714 372.58 L
S
GR
GS
[0.75 0 0 0.75 0 0] CT
0.149 GC
2 setlinecap
1 LJ
0.667 LW
N
1084.857 362 M
1084.857 372.58 L
S
GR
GS
[0.75 0 0 0.75 0 0] CT
0.149 GC
2 setlinecap
1 LJ
0.667 LW
N
1236 362 M
1236 372.58 L
S
GR
GS
[0.75 0 0 0.75 133.5 444.24998] CT
0.149 GC
/Helvetica 13.333 F
GS
[1 0 0 1 0 0] CT
-19 13 moveto 
1 -1 scale
(0.005) t 
GR
GR
GS
[0.75 0 0 0.75 246.85714 444.24998] CT
0.149 GC
/Helvetica 13.333 F
GS
[1 0 0 1 0 0] CT
-14.5 13 moveto 
1 -1 scale
(0.01) t 
GR
GR
GS
[0.75 0 0 0.75 360.21428 444.24998] CT
0.149 GC
/Helvetica 13.333 F
GS
[1 0 0 1 0 0] CT
-19 13 moveto 
1 -1 scale
(0.015) t 
GR
GR
GS
[0.75 0 0 0.75 473.5714 444.24998] CT
0.149 GC
/Helvetica 13.333 F
GS
[1 0 0 1 0 0] CT
-14.5 13 moveto 
1 -1 scale
(0.02) t 
GR
GR
GS
[0.75 0 0 0.75 586.92856 444.24998] CT
0.149 GC
/Helvetica 13.333 F
GS
[1 0 0 1 0 0] CT
-19 13 moveto 
1 -1 scale
(0.025) t 
GR
GR
GS
[0.75 0 0 0.75 700.28572 444.24998] CT
0.149 GC
/Helvetica 13.333 F
GS
[1 0 0 1 0 0] CT
-14.5 13 moveto 
1 -1 scale
(0.03) t 
GR
GR
GS
[0.75 0 0 0.75 813.64288 444.24998] CT
0.149 GC
/Helvetica 13.333 F
GS
[1 0 0 1 0 0] CT
-19 13 moveto 
1 -1 scale
(0.035) t 
GR
GR
GS
[0.75 0 0 0.75 927 444.24998] CT
0.149 GC
/Helvetica 13.333 F
GS
[1 0 0 1 0 0] CT
-14.5 13 moveto 
1 -1 scale
(0.04) t 
GR
GR
GS
[0.75 0 0 0.75 0 0] CT
0.149 GC
2 setlinecap
1 LJ
0.667 LW
N
178 587 M
178 362 L
S
GR
GS
[0.75 0 0 0.75 0 0] CT
0.149 GC
2 setlinecap
1 LJ
0.667 LW
N
1236 587 M
1236 362 L
S
GR
GS
[0.75 0 0 0.75 0 0] CT
0.149 GC
2 setlinecap
1 LJ
0.667 LW
N
178 587 M
188.58 587 L
S
GR
GS
[0.75 0 0 0.75 0 0] CT
0.149 GC
2 setlinecap
1 LJ
0.667 LW
N
178 530.75 M
188.58 530.75 L
S
GR
GS
[0.75 0 0 0.75 0 0] CT
0.149 GC
2 setlinecap
1 LJ
0.667 LW
N
178 474.5 M
188.58 474.5 L
S
GR
GS
[0.75 0 0 0.75 0 0] CT
0.149 GC
2 setlinecap
1 LJ
0.667 LW
N
178 418.25 M
188.58 418.25 L
S
GR
GS
[0.75 0 0 0.75 0 0] CT
0.149 GC
2 setlinecap
1 LJ
0.667 LW
N
178 362 M
188.58 362 L
S
GR
GS
[0.75 0 0 0.75 0 0] CT
0.149 GC
2 setlinecap
1 LJ
0.667 LW
N
1236 587 M
1225.42 587 L
S
GR
GS
[0.75 0 0 0.75 0 0] CT
0.149 GC
2 setlinecap
1 LJ
0.667 LW
N
1236 530.75 M
1225.42 530.75 L
S
GR
GS
[0.75 0 0 0.75 0 0] CT
0.149 GC
2 setlinecap
1 LJ
0.667 LW
N
1236 474.5 M
1225.42 474.5 L
S
GR
GS
[0.75 0 0 0.75 0 0] CT
0.149 GC
2 setlinecap
1 LJ
0.667 LW
N
1236 418.25 M
1225.42 418.25 L
S
GR
GS
[0.75 0 0 0.75 0 0] CT
0.149 GC
2 setlinecap
1 LJ
0.667 LW
N
1236 362 M
1225.42 362 L
S
GR
GS
[0.75 0 0 0.75 129.5 440.25] CT
0.149 GC
/Helvetica 13.333 F
GS
[1 0 0 1 0 0] CT
-13 4.5 moveto 
1 -1 scale
(-1) t 
GR
GR
GS
[0.75 0 0 0.75 129.5 398.0625] CT
0.149 GC
/Helvetica 13.333 F
GS
[1 0 0 1 0 0] CT
-26 4.5 moveto 
1 -1 scale
(-0.5) t 
GR
GR
GS
[0.75 0 0 0.75 129.5 355.875] CT
0.149 GC
/Helvetica 13.333 F
GS
[1 0 0 1 0 0] CT
-9 4.5 moveto 
1 -1 scale
(0) t 
GR
GR
GS
[0.75 0 0 0.75 129.5 313.6875] CT
0.149 GC
/Helvetica 13.333 F
GS
[1 0 0 1 0 0] CT
-21 4.5 moveto 
1 -1 scale
(0.5) t 
GR
GR
GS
[0.75 0 0 0.75 129.5 271.5] CT
0.149 GC
/Helvetica 13.333 F
GS
[1 0 0 1 0 0] CT
-9 4.5 moveto 
1 -1 scale
(1) t 
GR
GR
GS
[0.75 0 0 0.75 0 0] CT
0 0.447 0.741 RC
1 LJ
0.667 LW
N
213.896 437.62 M
215.786 444.311 L
217.675 464.669 L
219.564 488.009 L
221.454 511.665 L
223.343 533.109 L
225.232 557.062 L
227.121 568.171 L
229.011 568.435 L
230.9 555.047 L
232.789 525.704 L
234.679 510.472 L
236.568 486.951 L
238.457 461.729 L
240.346 439.695 L
242.236 424.658 L
244.125 393.897 L
246.014 380.395 L
247.904 380.771 L
249.793 391.06 L
251.682 413.758 L
253.571 439.038 L
255.461 465.794 L
257.35 485.377 L
259.239 501.799 L
261.129 507.006 L
263.018 509.762 L
264.907 517.152 L
266.796 515.669 L
268.686 510.756 L
270.575 506.683 L
272.464 493.159 L
274.354 479.474 L
276.243 469.861 L
278.132 462.102 L
280.021 456.362 L
281.911 453.342 L
283.8 454.663 L
285.689 458.329 L
287.579 463.768 L
289.468 468.482 L
291.357 471.515 L
293.246 473.477 L
295.136 475.382 L
297.025 477.087 L
298.914 477.551 L
300.804 478.338 L
302.693 478.705 L
304.582 478.706 L
306.471 478.364 L
308.361 477.652 L
310.25 476.866 L
312.139 475.502 L
314.029 473.62 L
315.918 472.27 L
317.807 471.449 L
319.696 470.662 L
321.586 470.295 L
323.475 470.294 L
325.364 470.636 L
327.254 471.348 L
329.143 471.858 L
331.032 473.457 L
332.921 475.585 L
334.811 476.626 L
336.7 477.415 L
338.589 479.555 L
340.479 483.109 L
342.368 487.456 L
344.257 490.68 L
346.146 491.264 L
348.036 487.824 L
349.925 479.887 L
351.814 469.889 L
353.704 461.71 L
355.593 451.652 L
357.482 440.268 L
359.371 432.988 L
361.261 431.815 L
363.15 437.284 L
365.039 437.62 L
366.929 444.311 L
368.818 464.669 L
370.707 488.009 L
372.596 511.665 L
374.486 533.109 L
376.375 557.062 L
378.264 568.171 L
380.154 568.435 L
382.043 555.047 L
383.932 525.704 L
385.821 510.472 L
387.711 486.951 L
389.6 461.729 L
391.489 439.695 L
393.379 424.658 L
395.268 393.897 L
397.157 380.395 L
399.046 380.771 L
400.936 391.06 L
402.825 413.758 L
404.714 439.038 L
406.604 465.794 L
408.493 485.377 L
410.382 501.799 L
412.271 507.006 L
414.161 509.762 L
416.05 517.152 L
417.939 515.669 L
419.829 510.756 L
421.718 506.683 L
423.607 493.159 L
425.496 479.474 L
427.386 469.861 L
429.275 462.102 L
431.164 456.362 L
433.054 453.342 L
434.943 454.663 L
436.832 458.329 L
438.721 463.768 L
440.611 468.482 L
442.5 471.515 L
444.389 473.477 L
446.279 475.382 L
448.168 477.087 L
450.057 477.551 L
451.946 478.338 L
453.836 478.705 L
455.725 478.706 L
457.614 478.364 L
459.504 477.652 L
461.393 476.866 L
463.282 475.502 L
465.171 473.62 L
467.061 472.27 L
468.95 471.449 L
470.839 470.662 L
472.729 470.295 L
474.618 470.294 L
476.507 470.636 L
478.396 471.348 L
480.286 471.858 L
482.175 473.457 L
484.064 475.585 L
485.954 476.626 L
487.843 477.415 L
489.732 479.555 L
491.621 483.109 L
493.511 487.456 L
495.4 490.68 L
497.289 491.264 L
499.179 487.824 L
501.068 479.887 L
502.957 469.889 L
504.846 461.71 L
506.736 451.652 L
508.625 440.268 L
510.514 432.988 L
512.404 431.815 L
514.293 437.284 L
516.182 437.62 L
518.071 444.311 L
519.961 464.669 L
521.85 488.009 L
523.739 511.665 L
525.629 533.109 L
527.518 557.062 L
529.407 568.171 L
531.296 568.435 L
533.186 555.047 L
535.075 525.704 L
536.964 510.472 L
538.854 486.951 L
540.743 461.729 L
542.632 439.695 L
544.521 424.658 L
546.411 393.897 L
548.3 380.395 L
550.189 380.771 L
552.079 391.06 L
553.968 413.758 L
555.857 439.038 L
557.746 465.794 L
559.636 485.377 L
561.525 501.799 L
563.414 507.006 L
565.304 509.762 L
567.193 517.152 L
569.082 515.669 L
570.971 510.756 L
572.861 506.683 L
574.75 493.159 L
576.639 479.474 L
578.529 469.861 L
580.418 462.102 L
582.307 456.362 L
584.196 453.342 L
586.086 454.663 L
587.975 458.329 L
589.864 463.768 L
591.754 468.482 L
593.643 471.515 L
595.532 473.477 L
597.421 475.382 L
599.311 477.087 L
601.2 477.551 L
603.089 478.338 L
604.979 478.705 L
606.868 478.706 L
608.757 478.364 L
610.646 477.652 L
612.536 476.866 L
614.425 475.502 L
616.314 473.62 L
618.204 472.27 L
620.093 471.449 L
621.982 470.662 L
623.871 470.295 L
625.761 470.294 L
627.65 470.636 L
629.539 471.348 L
631.429 471.858 L
633.318 473.457 L
635.207 475.585 L
637.096 476.626 L
638.986 477.415 L
640.875 479.555 L
642.764 483.109 L
644.654 487.456 L
646.543 490.68 L
648.432 491.264 L
650.321 487.824 L
652.211 479.887 L
654.1 469.889 L
655.989 461.71 L
657.879 451.652 L
659.768 440.268 L
661.657 432.988 L
663.546 431.815 L
665.436 437.284 L
667.325 437.62 L
669.214 444.311 L
671.104 464.669 L
672.993 488.009 L
674.882 511.665 L
676.771 533.109 L
678.661 557.062 L
680.55 568.171 L
682.439 568.435 L
684.329 555.047 L
686.218 525.704 L
688.107 510.472 L
689.996 486.951 L
691.886 461.729 L
693.775 439.695 L
695.664 424.658 L
697.554 393.897 L
699.443 380.395 L
701.332 380.771 L
703.221 391.06 L
705.111 413.758 L
707 439.038 L
708.889 465.794 L
710.779 485.377 L
712.668 501.799 L
714.557 507.006 L
716.446 509.762 L
718.336 517.152 L
720.225 515.669 L
722.114 510.756 L
724.004 506.683 L
725.893 493.159 L
727.782 479.474 L
729.671 469.861 L
731.561 462.102 L
733.45 456.362 L
735.339 453.342 L
737.229 454.663 L
739.118 458.329 L
741.007 463.768 L
742.896 468.482 L
744.786 471.515 L
746.675 473.477 L
748.564 475.382 L
750.454 477.087 L
752.343 477.551 L
754.232 478.338 L
756.121 478.705 L
758.011 478.706 L
759.9 478.364 L
761.789 477.652 L
763.679 476.866 L
765.568 475.502 L
767.457 473.62 L
769.346 472.27 L
771.236 471.449 L
773.125 470.662 L
775.014 470.295 L
776.904 470.294 L
778.793 470.636 L
780.682 471.348 L
782.571 471.858 L
784.461 473.457 L
786.35 475.585 L
788.239 476.626 L
790.129 477.415 L
792.018 479.555 L
793.907 483.109 L
795.796 487.456 L
797.686 490.68 L
799.575 491.264 L
801.464 487.824 L
803.354 479.887 L
805.243 469.889 L
807.132 461.71 L
809.021 451.652 L
810.911 440.268 L
812.8 432.988 L
814.689 431.815 L
816.579 437.284 L
818.468 437.62 L
820.357 444.311 L
822.246 464.669 L
824.136 488.009 L
826.025 511.665 L
827.914 533.109 L
829.804 557.062 L
831.693 568.171 L
833.582 568.435 L
835.471 555.047 L
837.361 525.704 L
839.25 510.443 L
841.139 486.961 L
843.029 461.758 L
844.918 439.637 L
846.807 424.574 L
848.696 393.691 L
850.586 380.384 L
852.475 380.912 L
854.364 391.613 L
856.254 414.314 L
858.143 439.974 L
860.032 467.872 L
861.921 488.004 L
863.811 504.38 L
865.7 509.178 L
867.589 512.092 L
869.479 519.775 L
871.368 518.6 L
873.257 513.323 L
875.146 509.185 L
877.036 495.323 L
878.925 481.233 L
880.814 470.839 L
882.704 462.885 L
884.593 457.063 L
886.482 453.638 L
888.371 454.72 L
890.261 458.009 L
892.15 462.395 L
894.039 466.401 L
895.929 470.1 L
897.818 471.096 L
899.707 472.429 L
901.596 474.592 L
903.486 475.691 L
905.375 476.516 L
907.264 477.244 L
909.154 477.669 L
911.043 477.449 L
912.932 476.989 L
914.821 476.539 L
916.711 475.426 L
918.6 473.827 L
920.489 472.678 L
922.379 472 L
924.268 471.407 L
926.157 471.145 L
928.046 471.171 L
929.936 471.56 L
931.825 472.248 L
933.714 472.606 L
935.604 474.11 L
937.493 476.206 L
939.382 477.171 L
941.271 477.822 L
943.161 479.779 L
945.05 483.227 L
946.939 487.559 L
948.829 490.705 L
950.718 491.238 L
952.607 487.756 L
954.496 479.827 L
956.386 469.783 L
958.275 461.558 L
960.164 451.494 L
962.054 440.268 L
963.943 432.988 L
965.832 431.815 L
967.721 437.284 L
969.611 437.62 L
971.5 444.311 L
973.389 464.669 L
975.279 488.009 L
977.168 511.665 L
979.057 533.109 L
980.946 557.062 L
982.836 568.171 L
984.725 568.435 L
986.614 555.047 L
988.504 525.704 L
990.393 510.443 L
992.282 486.961 L
994.171 461.758 L
996.061 439.637 L
997.95 424.574 L
999.839 393.691 L
1001.729 380.384 L
1003.618 380.912 L
1005.507 391.613 L
1007.396 414.314 L
1009.286 439.974 L
1011.175 467.872 L
1013.064 488.004 L
1014.954 504.38 L
1016.843 509.178 L
1018.732 512.092 L
1020.621 519.775 L
1022.511 518.6 L
1024.4 513.323 L
1026.289 509.185 L
1028.178 495.323 L
1030.068 481.233 L
1031.957 470.839 L
1033.846 462.885 L
1035.736 457.063 L
1037.625 453.638 L
1039.514 454.72 L
1041.404 458.009 L
1043.293 462.395 L
1045.182 466.401 L
1047.071 470.1 L
1048.961 471.096 L
1050.85 472.429 L
1052.739 474.592 L
1054.629 475.691 L
1056.518 476.516 L
1058.407 477.244 L
1060.296 477.669 L
1062.186 477.449 L
1064.075 476.989 L
1065.964 476.539 L
1067.854 475.426 L
1069.743 473.827 L
1071.632 472.678 L
1073.521 472 L
1075.411 471.407 L
1077.3 471.145 L
1079.189 471.171 L
1081.079 471.56 L
1082.968 472.248 L
1084.857 472.606 L
1086.746 474.11 L
1088.636 476.206 L
1090.525 477.171 L
1092.414 477.822 L
1094.304 479.779 L
1096.193 483.227 L
1098.082 487.559 L
1099.971 490.705 L
1101.861 491.238 L
1103.75 487.756 L
1105.639 479.827 L
1107.529 469.783 L
1109.418 461.558 L
1111.307 451.494 L
1113.196 440.268 L
1115.086 432.988 L
1116.975 431.815 L
1118.864 437.284 L
1120.754 437.62 L
1122.643 444.311 L
1124.532 464.669 L
1126.422 488.009 L
1128.311 511.665 L
1130.2 533.109 L
1132.089 557.062 L
1133.979 568.171 L
1135.868 568.435 L
1137.757 555.047 L
1139.646 525.704 L
1141.536 510.443 L
1143.425 486.961 L
1145.314 461.758 L
1147.204 439.637 L
1149.093 424.574 L
1150.982 393.691 L
1152.871 380.384 L
1154.761 380.912 L
1156.65 391.613 L
1158.539 414.314 L
S
GR
%%Trailer
%%Pages: 1
%%EOF
