\relax 
\select@language{UKenglish}
\@writefile{toc}{\select@language{UKenglish}}
\@writefile{lof}{\select@language{UKenglish}}
\@writefile{lot}{\select@language{UKenglish}}
\@writefile{toc}{\contentsline {section}{\numberline {1}Introduction}{1}}
\@writefile{toc}{\contentsline {section}{\numberline {2}Programming Exercises}{1}}
\newlabel{sec:exec}{{2}{1}}
\@writefile{toc}{\contentsline {subsection}{\numberline {2.1}Hello World!}{1}}
\@writefile{toc}{\contentsline {subsection}{\numberline {2.2}Ping Pong}{1}}
\@writefile{toc}{\contentsline {subsection}{\numberline {2.3}Cache Issues}{1}}
\@writefile{toc}{\contentsline {subsection}{\numberline {2.4}Communication}{2}}
\@writefile{toc}{\contentsline {section}{\numberline {3}System design}{2}}
\newlabel{sec:design}{{3}{2}}
\@writefile{toc}{\contentsline {subsection}{\numberline {3.1}Vocoder}{2}}
\newlabel{sec:vocexp}{{3.1}{2}}
\@writefile{lof}{\contentsline {figure}{\numberline {1}{\ignorespaces An overview of the vocoder\relax }}{3}}
\providecommand*\caption@xref[2]{\@setref\relax\@undefined{#1}}
\newlabel{fig:overview}{{1}{3}}
\@writefile{toc}{\contentsline {subsection}{\numberline {3.2}Digital implementation}{3}}
\newlabel{sec:digimp}{{3.2}{3}}
\@writefile{toc}{\contentsline {subsection}{\numberline {3.3}Dataflow model}{4}}
\newlabel{sec:model}{{3.3}{4}}
\@writefile{toc}{\contentsline {subsection}{\numberline {3.4}Enabling multicore usage}{4}}
\newlabel{sec:enabmulti}{{3.4}{4}}
\@writefile{toc}{\contentsline {section}{\numberline {4}Highlights of the code}{4}}
\newlabel{sec:code}{{4}{4}}
\@writefile{lof}{\contentsline {figure}{\numberline {2}{\ignorespaces A data flow model of the vocoder\relax }}{5}}
\newlabel{fig:dflow}{{2}{5}}
\@writefile{toc}{\contentsline {subsection}{\numberline {4.1}Sampler}{5}}
\@writefile{toc}{\contentsline {subsection}{\numberline {4.2}FIR FILTERS}{5}}
\@writefile{toc}{\contentsline {subsection}{\numberline {4.3}Envelope Follower and VCA}{6}}
\@writefile{toc}{\contentsline {section}{\numberline {5}Test results}{6}}
\newlabel{sec:results}{{5}{6}}
\@writefile{toc}{\contentsline {subsection}{\numberline {5.1}Matlab}{6}}
\@writefile{toc}{\contentsline {subsection}{\numberline {5.2}Starburst Microblaze}{6}}
\@writefile{lof}{\contentsline {figure}{\numberline {3}{\ignorespaces FIR structure\relax }}{6}}
\newlabel{fig:4-FIR-structure}{{3}{6}}
\newlabel{fig:4sigs}{{4a}{7}}
\newlabel{sub@fig:4sigs}{{a}{7}}
\newlabel{fig:partials4sigs}{{4b}{7}}
\newlabel{sub@fig:partials4sigs}{{b}{7}}
\@writefile{lof}{\contentsline {figure}{\numberline {4}{\ignorespaces \relax }}{7}}
\newlabel{fig:8comps}{{5a}{7}}
\newlabel{sub@fig:8comps}{{a}{7}}
\newlabel{fig:8compse}{{5b}{7}}
\newlabel{sub@fig:8compse}{{b}{7}}
\@writefile{lof}{\contentsline {figure}{\numberline {5}{\ignorespaces \relax }}{7}}
\@writefile{toc}{\contentsline {section}{\numberline {6}Recommendations}{7}}
\newlabel{sec:rec}{{6}{7}}
\@writefile{lof}{\contentsline {figure}{\numberline {6}{\ignorespaces The output for 800 Hz as voice input and 100 Hz as an instrument input (above) and vice versa below.\relax }}{8}}
\newlabel{fig:vocoder}{{6}{8}}
\newlabel{fig:in100}{{7a}{8}}
\newlabel{sub@fig:in100}{{a}{8}}
\newlabel{fig:in800}{{7b}{8}}
\newlabel{sub@fig:in800}{{b}{8}}
\@writefile{lof}{\contentsline {figure}{\numberline {7}{\ignorespaces \relax }}{8}}
\newlabel{fig:voc1}{{8a}{9}}
\newlabel{sub@fig:voc1}{{a}{9}}
\newlabel{fig:voc2}{{8b}{9}}
\newlabel{sub@fig:voc2}{{b}{9}}
\@writefile{lof}{\contentsline {figure}{\numberline {8}{\ignorespaces \relax }}{9}}
\@writefile{lof}{\contentsline {figure}{\numberline {9}{\ignorespaces FIR structure\relax }}{9}}
\newlabel{fig:6-FIR-structure}{{9}{9}}
\@writefile{toc}{\contentsline {section}{\numberline {7}Conclusion}{9}}
\newlabel{sec:conc}{{7}{9}}
